1571967338,2,1,1,"C2,C6,C3,C8;SK,S8,S7,S10;DQ,DA,D10,D9;SA,S3,S6,SQ;C7,CK,C9,CA;DJ,S5,S4,S2;C5,CJ,D2,C10;C4,SJ,D5,S9;H8,HA,H7,HQ;H6,HK,H3,H9;D8,H10,D3,H4;D6,H2,DK,H5;CQ,HJ,D7,D4"
1571967338,2,8,1,"C10,CJ,CQ,C2;CK,CA,C3,C8;S9,SK,SJ,SQ;D4,D10,D9,D6;S8,S2,DQ,C5;SA,S5,C7,D5;D3,DJ,D7,HQ;D2,DA,DK,HJ;S7,H4,H5,H6;C4,H8,HK,H2;S3,H3,HA,H10;C6,S10,C9,H7;S6,S4,D8,H9"
1571967338,2,16,1,"CK,C2,C4,C5;D7,D2,D4,D6;SA,S10,SK,S8;DK,DJ,DQ,D9;CQ,C9,D10,C3;C10,C8,D3,DA;CA,CJ,S5,D5;HA,HJ,H9,HK;HQ,H10,H2,H8;H3,S6,S9,H7;H4,S4,S7,S2;H5,C7,SJ,S3;H6,C6,SQ,D8"
1571967338,2,4,1,"C2,C7,C3,C10;S8,S5,S7,S3;C4,CJ,CK,C9;D2,D6,D7,D5;SJ,S2,S4,S10;CA,C6,D4,CQ;DQ,D9,DJ,D8;D10,DA,DK,D3;H9,SA,S9,C8;H8,C5,S6,HK;H7,HQ,HJ,H6;H5,H10,HA,H3;H4,SK,SQ,H2"
1571967338,2,0,1,"C5,C2,CA,C6;DK,D9,DA,DJ;D4,D6,D5,D3;CJ,C9,C10,C7;S9,S8,S7,S5;SQ,S6,SJ,S4;D2,C8,D10,SA;D7,S2,S10,S3;DQ,C4,CQ,CK;HK,HJ,H9,HA;HQ,H7,H5,H10;H6,C3,H4,H3;D8,SK,H2,H8"
1571967338,2,0,1,"C2,C3,C10,CJ;S6,S4,S7,S9;S5,S3,S10,S8;D5,D6,D7,D2;D4,DJ,DA,DK;C4,CA,C6,C9;D3,D9,DQ,D8;SA,CK,CQ,C7;HK,SQ,C5,SK;H9,SJ,C8,S2;H3,H7,H5,H6;H2,H4,H10,HQ;H8,HJ,HA,D10"
1571967338,2,11,1,"C6,C7,C2,C4;S7,S10,S9,S8;SQ,S3,S6,SJ;D2,D10,D9,DJ;C5,S4,S5,SK;C9,CQ,D5,CJ;C8,CA,SA,CK;D8,D3,D6,C3;D4,DA,D7,C10;HQ,S2,DQ,HA;HJ,H6,HK,H9;H7,H5,H10,H8;H4,H3,DK,H2"
1571967338,2,0,1,"C2,CJ,C7,C8;D6,D10,D7,D4;D5,D9,DQ,D2;S10,S8,S3,S7;SQ,S4,S9,SJ;SK,DA,SA,S6;C10,CK,C3,CQ;DK,D8,C5,DJ;CA,D3,C4,C9;HQ,HA,H9,H3;HJ,HK,H6,S5;H10,H5,H4,C6;H7,H8,H2,S2"
1571967338,2,13,1,"C7,C8,C4,C2;S7,S8,S3,S6;DA,D5,DK,DJ;C3,S9,CQ,CK;S10,SJ,S2,S5;D6,D7,D8,D9;CJ,D3,C5,C9;SQ,DQ,SK,S4;D10,HA,D4,C6;HJ,HK,H9,HQ;H6,H8,H5,H2;H4,H10,C10,SA;H3,H7,D2,CA"
1571967338,2,0,1,"CQ,C4,C2,CJ;S6,S5,S10,S3;S2,S4,S8,SA;C10,C9,CK,C5;D6,D8,D2,D3;D4,C6,SQ,CA;D10,DJ,DK,DQ;SJ,D5,SK,D9;S9,D7,S7,HA;H10,HQ,H7,HK;H6,C8,H4,HJ;H8,C3,H3,H2;H5,C7,DA,H9"
1571967338,2,11,1,"C4,C2,C9,CJ;S2,SJ,SK,S4;CQ,C5,C3,C10;SA,S9,SQ,S8;DQ,DJ,D7,D8;D6,D5,D4,CA;D3,DK,S5,S3;D10,D2,S10,C6;C8,C7,S7,HK;CK,DA,S6,HJ;H2,H7,HA,H6;H5,H4,H9,H8;H10,D9,HQ,H3"
1571967338,2,8,1,"CK,C5,C2,C8;S4,S7,S3,S9;SJ,S10,D4,SQ;D6,D8,D7,D9;D2,DJ,DQ,DA;SK,C3,D3,D5;C10,C4,C6,C7;S2,SA,CQ,S6;HA,HJ,HK,HQ;S8,H8,CA,DK;H3,H6,H9,H7;H2,H4,CJ,H10;S5,H5,C9,D10"
1571967338,2,7,1,"C2,C5,C10,C3;S4,S6,SJ,S10;D10,DQ,D2,D7;C9,CJ,C8,C7;CK,CA,CQ,C4;S3,SQ,C6,S9;D4,D6,D5,D3;DK,DA,D8,SA;H10,HA,HJ,S2;H7,HK,H9,SK;H2,H4,H6,S7;H5,H3,H8,S5;D9,HQ,DJ,S8"
1571967338,2,0,1,"C10,C4,C2,C8;DQ,DJ,D8,D10;CJ,C9,C3,C7;DA,DK,D7,D9;CQ,SK,CK,C6;S6,S8,D3,D2;C5,SJ,SQ,S3;HK,S10,SA,S2;H10,S5,S7,D5;H8,H9,HA,HQ;H7,H4,HJ,H6;H5,S4,S9,D4;H2,H3,D6,CA"
1571967338,2,2,1,"C2,C9,C7,C10;D6,D7,D5,D3;C8,CK,S7,CJ;S10,SK,SQ,S9;C3,C5,SJ,S6;D10,DK,D9,DJ;CA,C4,DA,D4;S2,S4,HA,SA;S5,CQ,HK,S8;H7,H9,H5,H10;H6,H3,H2,H8;D8,DQ,HJ,S3;D2,C6,HQ,H4"
1571967338,2,26,1,"C2,C5,CQ,CK;D2,D8,D3,D9;S7,S10,SJ,SK;S2,S4,S3,S5;CJ,S8,C6,S6;DK,D5,D10,DJ;C7,C4,C8,SA;C10,C3,C9,D6;DA,D4,CA,D7;H10,HA,HQ,HJ;H6,DQ,H8,S9;H4,H9,H5,H7;H2,HK,H3,SQ"
1571967338,2,0,1,"C6,C8,C9,C2;S3,S2,S5,S4;D6,DQ,D7,DJ;C5,CJ,C10,C4;SA,S7,D2,S10;SQ,SJ,CK,S9;SK,DK,DA,S8;D4,CA,D8,D10;D3,C7,HA,CQ;H10,HJ,HK,D5;H7,H9,HQ,S6;H5,H8,H3,D9;H2,H6,H4,C3"
1571967338,2,0,1,"C2,CQ,CA,CJ;D3,D7,DK,DJ;SQ,D4,D5,D8;C4,C3,S10,C5;S2,S8,D10,S9;C8,SK,D6,S6;CK,SA,DQ,SJ;C6,S3,DA,S7;C9,D2,D9,C10;HA,S4,H6,S5;HK,HQ,H4,C7;HJ,H5,H3,H7;H10,H9,H2,H8"
1571967338,2,0,1,"C8,C9,C2,C5;S9,SA,S10,SQ;DK,D2,D7,DQ;S4,S7,C10,S6;CJ,CA,CK,C3;S2,SJ,D6,S8;C6,C7,C4,S5;D8,CQ,HA,D5;DA,S3,HJ,DJ;H9,H3,H5,H6;H7,H8,H10,HQ;D10,HK,H4,D9;D3,SK,H2,D4"
1571967338,2,0,1,"CJ,CQ,C2,C6;S8,SQ,SJ,S10;S2,S3,D5,S9;DJ,D2,D7,D9;CA,CK,C9,C5;S5,S6,C8,SK;C7,D10,DK,DA;SA,C3,C4,D4;S4,C10,HQ,DQ;HA,H10,H7,D3;H8,H9,H4,S7;HK,H5,H2,D6;HJ,H6,H3,D8"
1571967338,2,3,1,"C4,C3,C2,CQ;C8,C9,C6,C10;D9,D10,DJ,D4;S4,S9,S10,S8;S2,S7,S5,DQ;D3,DK,S3,D8;C7,CJ,CA,D7;SJ,D6,SA,D5;C5,CK,SK,HK;HA,DA,S6,H10;H3,H4,H2,H7;H9,HQ,HJ,H8;H6,D2,SQ,H5"
1571967338,2,4,1,"C2,C4,C6,C7;SQ,S2,S3,S5;D8,DQ,DK,S4;D3,S8,S9,S10;CK,CA,C8,C10;D2,SA,SJ,S6;DA,D4,D5,C3;CQ,CJ,C5,C9;D9,D6,D7,HQ;HK,H6,HA,HJ;H9,H2,H3,H7;H8,D10,S7,H4;H5,SK,DJ,H10"
1571967338,2,0,1,"C2,C9,S3,C8;D3,D4,D5,D7;SJ,S9,SQ,SA;S5,S7,S8,SK;C10,CA,S6,S10;C3,C6,D10,C5;C7,CJ,S4,CQ;H8,HA,HQ,HK;D8,DJ,D2,H10;H7,CK,H6,H5;DQ,DK,H2,H3;D6,D9,HJ,H9;DA,C4,S2,H4"
1571967338,2,9,1,"C4,C6,C9,C2;DJ,D10,DQ,D6;S6,S8,SJ,S9;CQ,C3,C5,CJ;SQ,S4,S10,S5;SA,S3,SK,S2;CK,CA,C8,C7;D5,D8,D4,D3;C10,D7,DK,DA;HK,HA,H9,HJ;HQ,D2,D9,H6;H4,H2,H7,H5;H10,H8,S7,H3"
1571967338,2,13,1,"CJ,CK,CA,C2;D6,DK,D3,D8;S5,SQ,SJ,S10;D4,DQ,DJ,D5;S4,S3,SK,S2;C7,C9,C4,C8;SA,S7,S6,S8;C3,C10,CQ,DA;H10,S9,D9,HA;H9,C5,D2,HK;H7,H2,D7,H6;H8,HQ,C6,H4;H5,HJ,D10,H3"
1571967338,2,0,1,"C3,C6,C9,C2;DK,D4,DA,DJ;D9,D2,DQ,D10;D8,S9,D3,D6;SA,SQ,S10,S5;SK,SJ,S7,S2;S8,HK,S3,C7;S4,HQ,C10,D5;H9,H7,H8,H3;HA,HJ,H2,C8;H5,H10,CQ,C5;S6,H6,D7,C4;CK,H4,CJ,CA"
1571967338,2,16,1,"C3,C10,CJ,C2;CQ,CK,CA,C9;D7,D4,D8,D6;DK,D2,DA,DQ;S9,SJ,S2,S7;SA,C8,S10,C6;D3,C5,D9,C4;S4,S5,D10,SK;SQ,HA,DJ,D5;H6,HK,HQ,HJ;S3,H8,H5,H9;S8,H4,H2,H3;S6,H7,H10,C7"
1571967338,2,4,1,"C7,C9,C2,C4;C3,D4,D9,DA;SQ,SK,S3,S4;S6,S8,S7,S2;S5,SA,S10,S9;CA,C5,C10,CK;C6,DK,C8,CJ;CQ,D6,D5,D7;HQ,DJ,D8,DQ;H7,HA,HK,HJ;H4,H5,H9,H3;H6,D10,D2,H10;H2,SJ,D3,H8"
1571967338,2,0,1,"CJ,C2,C10,C9;DQ,D7,D8,D9;D10,D5,DK,DA;SJ,SK,S3,S2;D6,D2,C6,C7;S9,S8,S7,S5;DJ,D4,S10,SA;D3,SQ,CQ,CK;C3,S6,C4,CA;C5,S4,HK,C8;HQ,HA,HJ,H9;H8,H6,H4,H7;H10,H5,H3,H2"
1571967338,2,0,1,"C7,C6,C9,C2;DJ,D2,D7,D5;CQ,C5,C8,D3;SQ,SJ,S4,S10;S3,S2,D6,SK;S9,S5,C4,S7;C10,CK,C3,DQ;DA,D8,DK,D4;CA,HK,D10,SA;CJ,H10,HQ,S6;H7,H6,H8,H9;HA,H2,H4,S8;D9,H5,H3,HJ"
1571967338,2,4,1,"C5,C4,C6,C2;D3,DJ,D8,D10;S2,S5,S7,S9;DA,S10,D5,D7;CK,CA,S4,C3;SQ,S8,S3,S6;C7,CQ,D4,D6;C8,C10,DQ,DK;CJ,C9,D2,D9;SA,HK,SK,HQ;SJ,H8,HA,H7;H4,H6,HJ,H2;H10,H3,H9,H5"
1571967338,2,3,1,"C3,C4,C6,C2;S10,S6,SJ,S8;S7,SA,S2,SK;D6,D7,D5,DQ;S5,D8,S9,SQ;S4,DJ,D2,S3;C8,C10,C5,C7;D3,D4,DK,CA;CJ,C9,CQ,HK;HA,DA,CK,HQ;H2,H3,H4,H7;HJ,D10,H9,H10;H5,D9,H6,H8"
1571967338,2,16,1,"C6,C4,C8,C2;SK,SA,S6,SJ;CK,C9,CQ,C7;S7,D6,S2,S5;C10,CJ,C5,C3;D4,D7,D9,D2;S4,D5,SQ,S8;D3,DJ,S10,S3;DK,H9,S9,D10;HK,H8,DQ,D8;H7,H4,H6,HA;H10,H3,H5,CA;HQ,H2,HJ,DA"
1571967338,2,2,1,"C5,C2,C4,C7;D5,D8,D7,D9;DK,D2,DQ,DA;S6,S9,SJ,SK;SA,S4,DJ,D10;C6,C8,C3,CJ;S5,S7,C10,D3;HA,HQ,S10,SQ;HK,HJ,CQ,D6;H6,H7,H3,D4;H8,H9,S3,S8;H2,H4,CK,S2;H5,H10,CA,C9"
1571967338,2,11,1,"C7,C6,C8,C2;S6,S10,S3,S8;CQ,CA,CJ,C9;DJ,CK,C10,C4;DQ,D10,D9,D8;SA,SJ,S9,S2;SK,D3,S7,DK;S5,C5,D4,D6;SQ,HA,D2,D5;S4,HK,DA,C3;H8,H7,H9,H4;H5,H6,HQ,HJ;H2,H3,H10,D7"
1571967338,2,9,1,"C6,C10,CJ,C2;C3,C5,C7,C4;S9,S6,SJ,S2;SK,S5,SA,D7;D5,D6,D8,D4;S3,DQ,D3,D9;SQ,S4,S10,CQ;S8,DK,D2,DA;CK,C8,CA,D10;S7,DJ,C9,HK;HJ,H8,HA,H10;H6,H3,H5,H4;H9,H7,HQ,H2"
1571967338,2,4,1,"C5,C4,C8,C2;D8,D3,D9,D6;S9,S4,S5,S7;C10,C9,C6,C7;CQ,CK,CA,C3;S10,S3,S8,S6;D10,DA,D7,D5;DQ,CJ,D4,DJ;SA,SQ,S2,SK;HA,HQ,H10,HJ;HK,H8,H9,H6;H4,H3,H7,H2;H5,SJ,D2,DK"
1571967338,2,6,1,"C7,C4,C8,C2;D7,D2,D8,D6;S2,S3,S6,S7;C9,C10,CK,CA;D3,D10,D5,D9;S9,SK,SJ,C5;S8,SA,S4,D4;DJ,SQ,S5,HA;C6,S10,CQ,HQ;H3,H5,H9,H4;H2,C3,CJ,H7;DK,HK,DQ,H10;HJ,H8,DA,H6"
1571967338,2,8,1,"C8,C2,C6,C7;D5,DJ,DA,D7;C10,CK,CA,CQ;SK,S2,S9,S8;C3,C9,CJ,C4;D6,D8,D10,D9;SJ,SA,S3,S5;D4,D3,DK,DQ;S10,SQ,S6,S4;H10,D2,S7,C5;H8,HQ,HK,HA;H4,H7,H9,H5;H2,H3,HJ,H6"
1571967338,2,11,1,"C8,C9,C10,C2;D6,D3,D8,D5;C6,C7,C4,C5;S4,S10,S9,S5;SQ,S3,S8,SJ;DJ,D2,DQ,DK;CQ,S6,D10,CA;CJ,S2,D7,C3;CK,H10,S7,SK;D4,H9,D9,DA;H4,H7,HA,H5;H3,H6,HK,HJ;SA,H2,HQ,H8"
1571967338,2,0,1,"C8,C2,C10,C7;S2,S7,S8,S5;SQ,SK,S9,S4;D6,D9,D4,D7;C5,CK,CA,CQ;S10,C3,SJ,D10;D5,CJ,S3,D3;DJ,D2,S6,DA;DK,C9,SA,DQ;HQ,HA,HK,H9;H10,D8,HJ,C6;H5,H6,H4,H7;H8,H3,H2,C4"
1571967338,2,5,1,"C9,C2,C3,C8;DQ,D6,D10,D2;D4,DA,D5,C6;C7,CA,CQ,CK;S2,S10,S9,S7;C5,C10,SA,C4;SQ,S4,S8,SJ;DJ,S5,D8,CJ;D3,H6,DK,S3;D9,H5,D7,S6;H9,H4,H7,H8;SK,H3,HK,HA;H10,H2,HQ,HJ"
1571967338,2,0,1,"C6,CQ,CK,C2;D9,DA,D3,D7;S6,S7,S8,S4;D4,D10,DQ,D6;C5,D8,DJ,D5;C4,C7,C9,C8;S10,DK,D2,S3;H9,CJ,SJ,C3;H8,S9,HA,SQ;H7,HK,H6,H10;H2,SA,HQ,S2;H4,SK,HJ,C10;H5,S5,H3,CA"
1571967338,2,1,1,"C9,CJ,C2,C10;D7,D10,D8,D4;S5,S10,S8,S9;D6,D9,D2,DJ;S4,S3,S6,S7;C8,C6,C4,C7;D3,DK,C3,S2;D5,CK,CQ,C5;H8,HJ,HK,HA;SJ,H10,SA,SK;SQ,H3,H4,H5;DA,H7,H2,H9;DQ,H6,CA,HQ"
1571967338,2,0,1,"CQ,CK,C2,CJ;D5,D7,D6,D3;D9,D10,DA,DK;S4,SJ,S7,S10;DJ,DQ,S6,SQ;D2,D4,SA,S8;C9,D8,C3,C5;C4,C6,H8,CA;S3,C8,H7,S2;H10,H5,H4,S9;H9,HJ,H3,S5;HQ,HK,H6,SK;C7,HA,H2,C10"
1571967338,2,17,1,"C6,C10,CJ,C2;S10,S9,SQ,S8;S4,S2,S5,S3;D6,D9,D3,D7;S6,SK,SJ,D10;DA,SA,S7,DK;D4,D5,DJ,DQ;HA,C5,C8,C4;HK,D8,D2,CQ;H9,H7,H4,H5;H8,H6,HQ,C3;H10,H2,H3,CA;HJ,CK,C9,C7"
1571967338,2,23,1,"C7,C2,CJ,C6;S4,S5,S6,S2;D9,D6,D10,D8;DJ,DA,DQ,S9;SJ,SQ,SK,S8;C10,CQ,CA,C5;C8,C9,CK,C4;D3,SA,DK,H10;D2,S3,D4,H8;H7,H6,D5,H5;C3,HK,H9,H3;S7,HQ,HA,H4;S10,HJ,D7,H2"
1571967338,2,1,1,"CQ,C2,CJ,C6;S10,S9,S5,S3;C3,CK,CA,C5;D4,D5,D6,D2;S7,S8,S4,SJ;DJ,D7,DQ,D8;S6,SK,S2,D10;C7,C8,C9,DA;SA,D3,D9,HQ;HA,H4,H9,HJ;HK,C4,H7,H8;C10,DK,H5,H2;H10,SQ,H3,H6"
1571967338,2,5,1,"C8,C6,C2,C7;S9,S10,S8,SJ;C10,C4,C3,C9;D5,D9,DA,D3;DK,D4,DQ,DJ;SA,SK,S7,SQ;S2,S3,S4,D7;S6,CA,CK,C5;HK,HJ,HA,H3;S5,H10,CQ,CJ;H5,H7,D8,D10;H9,H8,HQ,D2;H4,H2,H6,D6"
1571967338,2,26,1,"C6,C7,C10,C2;DK,D6,DA,D9;DQ,S2,D4,D8;S3,SK,CQ,S4;CJ,C3,C5,C9;S7,S6,D2,S10;S5,C4,DJ,C8;S8,CA,D10,D5;SJ,CK,D7,D3;H8,HA,HJ,HQ;SQ,SA,H9,S9;H4,HK,H6,H7;H2,H10,H3,H5"
1571967338,2,8,1,"C10,C9,CJ,C2;D9,D7,DJ,D10;D2,DA,D3,DQ;C5,CQ,C7,C6;S9,S6,S5,S8;CA,C8,CK,D6;SA,S4,SQ,SJ;SK,S2,S3,S10;HQ,HJ,HA,HK;H10,D5,DK,D8;H5,H7,D4,H6;H4,C4,C3,S7;H2,H8,H3,H9"
1571967338,2,13,1,"C6,C2,C8,C9;D9,D6,D4,D7;C4,C5,CJ,CK;DQ,D10,DA,D5;S5,SJ,SK,SQ;S4,S3,S8,SA;C7,D8,DJ,DK;C3,S2,S7,CQ;CA,D2,S10,C10;HA,HQ,H5,H10;HK,H7,H3,H8;HJ,H6,S6,H4;H9,D3,S9,H2"
1571967338,2,0,1,"C6,C2,C9,C5;DJ,DQ,DK,D6;SK,S4,S5,SJ;CA,CK,CQ,CJ;D5,D3,D4,S9;C10,S2,S6,C7;D10,D9,DA,S10;C3,SQ,S7,SA;C8,D7,D2,C4;HK,HJ,H10,HA;HQ,S8,H9,S3;H5,H7,H4,H6;H3,D8,H2,H8"
1571967338,2,8,1,"C10,CQ,C2,CJ;D4,DQ,D9,DJ;S8,S3,S10,SQ;C5,C7,C6,C4;SK,D3,D5,D8;C9,S4,S2,CA;C8,D10,DK,C3;S6,SJ,S5,CK;S9,D6,DA,D2;HK,SA,S7,HQ;H9,D7,HA,H5;H7,H8,H10,H4;H6,H2,HJ,H3"
1571967338,2,10,1,"C5,C4,C6,C2;SK,SJ,SQ,S8;D5,D2,D9,D10;CA,S9,S10,S4;D7,DJ,DQ,DA;C3,C7,C8,S6;D4,CJ,C9,S5;H9,CQ,D8,S7;H8,C10,D6,S3;H7,HJ,HQ,H10;H4,H5,CK,H3;H6,HK,HA,S2;H2,DK,D3,SA"
1571967338,2,4,1,"C7,C10,C2,C8;D5,D8,D9,DQ;SA,S9,S5,S6;C5,CQ,C6,C4;DA,DK,D6,DJ;C3,C9,CA,CJ;SQ,D3,D2,SJ;CK,D4,S10,S2;SK,D7,S7,S8;HA,D10,S4,S3;HK,HQ,H10,HJ;H8,H6,H3,H7;H4,H5,H9,H2"
1571967338,2,24,1,"C10,C2,CK,CA;S6,S5,S9,S8;D9,D7,D10,D5;D2,D4,D6,S10;S4,S2,SJ,S7;C8,C3,C4,CJ;H10,HK,HA,HQ;DK,DJ,DA,H9;S3,H8,HJ,H2;SQ,C6,C7,H3;SA,C5,C9,H7;DQ,D3,SK,H5;D8,CQ,H4,H6"
1571967338,2,13,1,"C10,C2,C7,C9;S5,S7,S2,S8;C6,C5,CJ,C8;DA,D6,D7,D5;D9,D4,DJ,S9;S4,D2,D3,S10;SJ,SQ,SA,SK;C4,DK,DQ,CQ;CK,CA,D10,HA;S6,S3,D8,HQ;HJ,H8,H9,H10;H5,H6,H4,H3;HK,C3,H2,H7"
1571967338,2,0,1,"C5,C3,C6,C2;D6,D9,D7,D4;CK,SK,S5,S6;D3,SQ,S4,S9;DQ,SA,S3,S2;C10,SJ,D8,C8;C9,S8,DK,C7;CQ,S10,D5,CJ;HA,S7,D2,D10;HQ,CA,DA,C4;H4,H10,H9,H5;H2,H6,H7,HK;HJ,H8,H3,DJ"
1571967338,2,8,1,"CJ,C2,C10,C8;CQ,C9,C3,C4;DK,DQ,DJ,D9;C6,C7,CK,CA;SK,SQ,S10,SA;S9,S3,S7,S5;D4,D8,D2,S6;D6,D10,D3,S4;SJ,DA,D7,HA;HK,S2,S8,H10;H5,H7,H4,H6;H8,H9,HQ,H3;HJ,C5,D5,H2"
1571967338,2,0,1,"C10,C2,C5,S9;D7,D2,D5,D6;S3,SJ,S8,SQ;D3,S6,D10,S7;CJ,S2,DA,S5;C3,SK,D9,S10;C4,DJ,DQ,D4;CQ,CK,CA,S4;C7,C8,C9,SA;HQ,HA,H10,HK;HJ,DK,H7,H6;H8,D8,H4,H5;H9,C6,H2,H3"
1571967338,2,22,1,"C8,C2,C7,C3;S8,S6,S7,S3;D2,D7,D4,D5;CK,C4,CQ,CJ;S9,SQ,SA,S2;D3,C10,C5,CA;SJ,D6,D9,DJ;HA,DK,S10,D8;HK,S5,SK,D10;H7,H6,HJ,H9;H4,S4,H3,HQ;H5,DA,H10,H8;H2,C6,C9,DQ"
1571967338,2,0,1,"C8,C10,C2,C9;D7,DJ,D9,D10;C5,C6,CJ,C4;S6,D2,DK,D5;SK,S5,SA,SJ;S8,DA,DQ,D3;C3,CK,CA,C7;S10,CQ,D8,S7;S2,HK,D6,S3;S9,H10,SQ,H7;H4,H9,HJ,H5;HQ,H8,HA,H3;S4,H6,D4,H2"
1571967338,2,2,1,"C3,C2,C5,C6;SJ,S4,S5,S6;D6,DJ,D8,D4;SK,S3,S9,S10;D9,DA,C4,D7;C8,SQ,S8,C7;D10,DK,S2,DQ;CQ,C10,HA,C9;D2,S7,H9,D3;CJ,H6,H7,CA;H8,H10,H5,CK;HQ,HJ,H4,HK;D5,SA,H3,H2"
1571967338,2,26,1,"CJ,C2,C10,C7;DA,D6,DQ,DK;C6,C4,C8,C5;S7,S6,S4,S2;CQ,D3,C9,C3;D5,D2,D8,D10;CA,S8,D7,CK;SJ,S5,S3,S10;D9,SA,D4,DJ;HK,SQ,HQ,SK;H9,HA,H10,S9;H4,H5,H2,H6;H3,H7,H8,HJ"
1571967338,2,13,1,"C2,C9,C4,C6;S8,S9,SQ,S6;CK,S4,CJ,CQ;SA,S10,C10,SK;D5,D9,D3,D4;D7,S7,DJ,D6;C7,S5,DK,C3;C5,S3,CA,DA;DQ,SJ,HA,D2;C8,D10,H9,HQ;HJ,H3,H8,H6;H10,S2,H7,H5;HK,D8,H2,H4"
1571967338,2,0,1,"C2,C6,C7,C4;D6,D8,DK,DQ;S2,S6,S7,S5;D5,DA,D7,D10;CJ,C3,CA,C8;D4,SK,D2,D3;CQ,C10,D9,C5;S9,S10,S8,SA;C9,S4,DJ,CK;H10,HA,H8,HQ;H4,HK,H6,H9;SJ,HJ,H3,H7;SQ,H2,S3,H5"
1571967338,2,18,1,"C3,C2,CK,C6;S6,S8,SQ,S10;C5,S4,SJ,S7;D9,D5,D10,SA;D6,C8,CJ,C7;D3,D4,D2,CA;DQ,S2,S5,S3;DK,C4,DA,C10;D8,SK,DJ,C9;D7,HK,S9,CQ;HJ,HQ,H10,HA;H5,H2,H6,H4;H3,H8,H7,H9"
1571967338,2,14,1,"C2,C8,CJ,CK;CQ,CA,C4,C5;DA,D3,D10,DQ;S3,SJ,S2,S4;DJ,DK,C7,D9;D8,D5,C3,D7;S6,S7,S9,S10;C6,SA,C10,C9;S5,D4,SK,D2;S8,D6,SQ,H10;HK,HA,H9,H5;H7,H6,H3,H4;HQ,HJ,H8,H2"
1571967338,2,0,1,"C2,C8,C10,CQ;D6,DA,D8,D10;S8,SK,SQ,S7;C4,C7,C5,S6;SA,S9,SJ,S5;D2,CA,DQ,DK;D5,S3,D7,D9;C9,S10,S2,S4;CJ,CK,C3,DJ;HK,HQ,H6,HA;H10,H7,D4,HJ;H9,H5,D3,H4;H8,H2,C6,H3"
1571967338,2,12,1,"CK,C2,CJ,C10;S6,SA,S3,S5;C4,CQ,C9,C7;S8,SQ,SJ,S9;SK,S10,D5,S7;DK,D7,DQ,D9;DJ,CA,D6,D8;C3,C5,C8,DA;D10,HA,D4,D3;HJ,HQ,HK,H9;H2,H3,H4,S4;H8,H7,H10,S2;H6,H5,C6,D2"
1571967338,2,0,1,"CQ,C2,CJ,C10;SQ,SJ,S9,S7;S4,S10,S2,S6;D9,DA,DQ,DK;CA,D10,D8,D3;C9,C7,C8,C4;S8,D2,SK,D4;SA,CK,D7,D6;S5,C5,D5,DJ;HK,HA,HQ,HJ;H7,H9,H6,H10;H5,H3,C6,H8;S3,H2,C3,H4"
1571967338,2,0,1,"C10,CK,C2,CQ;C9,CJ,DK,C6;C3,C5,DQ,CA;S8,S2,S6,S4;S10,C8,S9,S5;D4,D8,D3,D6;D7,C7,S7,DA;D5,D10,SA,S3;D2,C4,SK,HA;SJ,D9,SQ,HQ;HK,H6,H9,H7;H10,HJ,H4,H5;H8,DJ,H2,H3"
1571967338,2,18,1,"CQ,CK,C2,CJ;D10,D3,D8,D5;S4,S5,S7,S10;DJ,DQ,DK,DA;SJ,C7,S3,S9;D7,D2,S2,S6;D9,D4,C9,C3;C10,C5,C8,C6;SQ,CA,SK,S8;D6,HA,C4,HQ;H6,HK,SA,HJ;H4,H8,H5,H7;H3,H10,H9,H2"
1571967338,2,3,1,"CJ,C2,C10,C8;DQ,D10,DJ,D9;SQ,SJ,S7,S8;S2,S5,S4,S6;D7,C6,CK,C4;D2,S10,SK,D3;D5,S9,S3,D8;D4,D6,C9,DA;HQ,C5,SA,C7;H10,C3,HA,CQ;H8,H3,H9,HJ;H4,CA,H6,H5;H2,DK,H7,HK"
1571967338,2,0,1,"C7,C3,C2,C5;D6,D10,DK,D4;SA,S6,S5,SK;DQ,D9,DJ,D3;D8,D7,DA,C4;C8,S8,SJ,S4;CK,CA,CJ,CQ;C10,SQ,S10,S9;D5,D2,C6,S7;C9,HA,H7,S3;HK,HJ,H6,HQ;H10,H9,H5,H3;H8,H2,H4,S2"
1571967338,2,1,1,"C6,C3,C7,C2;S7,S6,S8,SJ;C5,CJ,C8,CQ;S5,C9,D7,CA;D4,D3,D5,C4;DQ,D2,D6,C10;D8,D9,D10,CK;HK,H6,H9,HA;HQ,S2,H8,HJ;H7,DA,H5,H4;SK,S10,SQ,H10;S3,SA,S9,H3;S4,DJ,DK,H2"
1571967338,2,4,1,"C2,CJ,CQ,CA;SJ,S9,S10,SQ;D9,DJ,D5,D7;SA,S3,S6,D10;C3,C9,C6,C10;DQ,S4,D3,D4;C4,C5,DK,CK;D6,S5,S2,D2;SK,C7,S8,DA;D8,HQ,S7,C8;HK,HJ,H10,HA;H5,H3,H4,H6;H2,H8,H9,H7"
1571967338,2,18,1,"C3,C2,CJ,CK;C7,C4,C5,C6;DQ,D10,DJ,D8;S6,S5,S8,S4;D9,DK,DA,D6;S10,SJ,SQ,S2;CA,C8,C10,C9;D4,D2,D3,D5;H9,HQ,HA,HK;SK,S3,SA,H10;H6,HJ,H8,H7;S7,CQ,H4,H5;S9,D7,H3,H2"
1571967338,2,12,1,"CA,C2,C10,CK;SK,SJ,S9,S10;S6,S3,S7,S4;C4,C5,C7,C9;DJ,D7,DQ,D4;D9,D6,D10,D8;S5,D2,D5,DA;SQ,S8,C6,S2;HK,HQ,HA,H8;HJ,CQ,DK,D3;H5,H7,H9,H6;H3,C8,H10,H2;H4,SA,C3,CJ"
1571967338,2,13,1,"CQ,C2,C10,C9;D6,D10,D2,D5;CJ,C5,C8,C6;D3,D8,DK,D4;SQ,S7,SA,S10;SJ,S5,S2,S3;C7,C4,DA,C3;S8,S6,S9,DJ;D7,S4,SK,CK;HJ,HQ,HK,HA;D9,H10,H7,DQ;H6,H9,H2,H3;H5,H8,H4,CA"
1571967338,2,4,1,"C4,C7,C5,C2;S2,S3,S10,SQ;CK,D6,CQ,CJ;D3,D8,D10,DJ;C10,S8,S4,C3;SJ,S6,S7,S9;D2,D7,DK,C8;D9,DA,DQ,C6;HJ,HK,HQ,HA;S5,H7,SK,SA;H6,H5,H8,H9;C9,H4,H10,H2;D4,H3,D5,CA"
1571967338,2,26,1,"C2,CK,C9,CA;SK,S9,S7,SA;D10,DQ,D2,D4;CJ,CQ,C8,C10;D8,D9,S4,D3;D7,C6,C4,C5;D6,DK,C7,DJ;S8,D5,C3,DA;S5,S6,S3,SJ;SQ,H9,HK,S10;HA,H7,H10,HQ;HJ,H5,H8,H4;H6,H3,H2,S2"
1571967338,2,8,1,"C4,C2,C7,C3;D5,D10,D3,D9;S9,S4,S6,S5;DJ,D6,D4,D8;SQ,S8,SJ,S10;DQ,C10,DK,D7;CK,CQ,C5,C9;DA,SK,SA,CA;D2,S7,HA,S2;H9,HK,HQ,H8;H3,H2,HJ,H6;H5,S3,H7,C6;H4,CJ,H10,C8"
1571967338,2,0,1,"C3,C9,C2,C8;C10,C7,CJ,C4;D6,D7,D8,D4;S8,S10,SJ,S6;D3,S9,D5,D9;S4,S5,S7,SK;S3,C6,CA,CQ;D10,C5,DA,DQ;D2,HK,S2,SQ;HJ,HQ,DK,SA;H9,H10,H4,HA;H5,H8,H2,H6;H3,H7,CK,DJ"
1571967338,2,21,1,"CQ,C9,C2,C6;S5,S8,SQ,S3;C10,C8,C5,C4;D9,D4,D8,D7;S10,S6,S7,S9;S4,S2,SA,SJ;D2,C7,D10,D6;DJ,HA,CJ,CA;SK,HK,CK,C3;H6,H8,H9,H3;DQ,H2,DA,D5;H5,H7,H4,H10;HQ,HJ,DK,D3"
1571967338,2,26,1,"C2,C8,C7,CJ;D9,D10,D4,D6;S3,S10,S9,S7;SK,S6,S8,SQ;D8,D7,C4,D3;C6,SJ,CA,C10;D5,SA,S4,S2;DA,DQ,HQ,DK;CQ,DJ,H9,C9;HA,HJ,H8,HK;C3,H3,H5,H4;C5,H2,H7,D2;CK,S5,H6,H10"
1571967338,2,10,1,"C2,C5,CK,CA;D2,D8,D10,DJ;DA,D6,D7,D9;C8,C3,C6,C4;SA,S10,SK,S7;SJ,S9,S8,S6;C7,D3,D5,C9;S2,S3,S5,S4;CJ,HA,DK,C10;CQ,HQ,D4,HK;H5,H7,H8,H6;H10,HJ,DQ,H9;SQ,H4,H2,H3"
1571967338,2,26,1,"C7,C6,C2,C5;S5,SQ,S4,S2;D10,DA,DK,DJ;D6,D9,D5,D8;S3,S6,SK,S8;CK,C3,CQ,C10;S7,D7,CJ,SJ;S10,CA,D4,C4;D2,DQ,HJ,D3;H4,HA,H9,HK;H3,H8,H5,C9;H2,HQ,H7,S9;SA,H10,H6,C8"
1571967338,2,2,1,"S5,CQ,CK,C2;DK,D4,D9,D6;S10,S3,SJ,S7;D10,DQ,D3,D5;S9,SQ,D8,S6;S8,SA,DJ,DA;S4,CA,CJ,C6;S2,C7,C3,C8;HQ,C5,C10,C4;H10,SK,D7,D2;H8,HA,H2,HJ;H6,H9,H4,H7;H3,HK,C9,H5"
1571967338,2,0,1,"C4,C5,C2,C3;D5,D4,D9,D10;S8,S6,S9,S10;CJ,C9,CQ,C10;SA,S2,S5,CA;SQ,SK,SJ,DJ;C8,DK,D7,DA;C6,CK,S7,C7;HQ,D2,D6,D8;H8,HJ,H6,HA;H7,H9,H2,H10;H3,D3,S4,H4;H5,DQ,S3,HK"
1571967338,2,13,1,"C2,C9,C7,C10;D6,D10,DJ,DQ;CQ,CK,CA,C4;S2,S5,S6,S4;SJ,S3,S7,S10;SQ,S8,SK,S9;D5,D9,D4,D2;DA,CJ,C5,C3;SA,C8,DK,C6;D3,D8,HK,HA;H10,D7,H9,HQ;H5,H8,H7,H3;H2,H6,H4,HJ"
1571967338,2,3,1,"C2,CA,C4,C5;D4,D5,DK,DA;SQ,S10,S8,SK;S9,S5,S4,SJ;S7,S2,S3,S6;C10,C8,C7,C9;DJ,D9,D6,D10;C3,CJ,CK,D7;C6,D2,D3,HA;H10,D8,CQ,HK;H8,HJ,H4,H6;H7,HQ,SA,H5;H3,H9,DQ,H2"
1571967338,2,13,1,"C2,C7,CJ,C10;S4,SQ,SA,SK;D3,S7,S2,S6;D10,DJ,D4,D8;C5,CQ,DK,C9;D5,S10,S8,D2;D9,D6,SJ,DQ;C4,CK,S5,C6;D7,S9,S3,C8;HQ,DA,HJ,CA;H6,C3,H8,H10;H5,HK,H7,H9;H3,HA,H2,H4"
1571967338,2,14,1,"C4,C5,C2,C3;D7,D2,DQ,D5;C7,C6,C8,CA;DJ,D10,DK,D4;CQ,S4,CK,D3;S7,SQ,SA,SK;S3,D9,CJ,S9;S2,S6,C9,D8;DA,D6,C10,S10;HJ,S5,SJ,S8;H8,HA,H10,HQ;H5,HK,H9,H7;H2,H3,H4,H6"
1571967338,2,13,1,"C7,C2,C4,C6;D7,D5,D3,D4;DA,DK,DQ,D9;SJ,S8,S9,S10;S4,S2,S5,S3;D8,S7,SQ,S6;C3,C8,C9,C10;D6,C5,D10,D2;CA,CJ,CK,HA;DJ,SK,CQ,H7;H8,H2,H6,H5;H9,HQ,H10,H4;HK,SA,HJ,H3"
1571967338,2,0,1,"C2,C7,C8,C10;S9,C5,C4,CQ;S7,C3,CA,C6;S2,S8,SJ,S10;D6,D9,DJ,D3;D2,S4,CK,C9;D5,D8,D10,DK;SA,SK,S5,S6;D4,DQ,S3,SQ;HK,D7,HA,CJ;HQ,DA,HJ,H8;H5,H9,H6,H7;H10,H2,H4,H3"
1571967338,2,7,1,"C2,C6,C7,CJ;C10,CK,CQ,C8;SQ,SK,S6,SJ;DQ,D5,DJ,D6;S9,S7,S5,S8;C4,S4,S2,S10;C3,D8,D9,S3;DA,DK,D7,D4;C5,D10,D2,HA;C9,HK,SA,HQ;H6,H3,H7,H4;H5,H2,D3,H9;CA,HJ,H8,H10"
1571967338,2,0,1,"C5,C8,C2,C7;D7,DQ,DJ,D5;D6,DK,D9,D3;S9,SJ,S7,S8;S6,D10,D4,S5;SK,D2,C9,S3;CQ,S2,CJ,SA;C4,DA,C10,CA;HA,S10,C3,C6;HQ,D8,HJ,CK;H9,HK,H7,H10;H5,SQ,H4,H2;H8,S4,H3,H6"
1571967338,2,13,1,"C9,C8,C2,C7;S3,S10,S2,S5;D10,DQ,D7,DJ;D9,DA,DK,D5;S4,S8,S7,SJ;C10,C6,C4,C5;SQ,S6,SK,CK;S9,SA,CQ,CJ;D8,D3,D6,D4;HQ,HA,HK,H9;HJ,H10,H7,H8;H2,H5,D2,H3;H6,H4,C3,CA"
1571967338,2,12,1,"C4,C3,C5,C2;D10,DK,D2,D8;S10,SQ,SJ,S6;S2,S3,S9,S5;DA,D7,D3,D6;C6,C9,CK,CJ;SK,D9,DQ,D4;C8,SA,D5,C10;HQ,C7,CQ,CA;HJ,HK,HA,H10;H4,H2,H6,H5;H9,S4,S7,H8;H7,S8,DJ,H3"
1571967338,2,3,1,"C5,C10,C2,CQ;D8,DQ,DK,D5;CJ,C7,C4,CK;D6,D9,D7,D10;DA,SA,DJ,D2;S3,SQ,S4,S2;S10,C8,C3,S5;S7,C6,CA,D4;SK,S9,C9,SJ;HA,HK,HQ,H8;HJ,H6,H10,H4;H2,S6,H9,H3;H7,S8,H5,D3"
1571967338,2,8,1,"C10,CA,C7,C2;D8,D10,D9,D2;S9,S2,S7,S4;S6,S10,S3,SJ;DQ,DJ,D7,DK;C9,C8,C5,C6;DA,SK,D5,CK;D3,S5,D4,SA;D6,CJ,C3,CQ;H10,S8,C4,SQ;H9,HK,HA,H7;H8,H5,HJ,H6;H2,HQ,H4,H3"
1571967338,2,19,1,"C10,C6,CQ,C2;SJ,S9,SA,SK;S3,S7,S10,S4;D8,S6,S5,S2;C9,CK,C8,CJ;D7,DJ,D6,D10;DK,DA,D5,C4;C7,C5,CA,SQ;D4,DQ,C3,HK;D2,D9,S8,HQ;H7,H5,H9,H6;HA,H10,H8,H4;HJ,D3,H3,H2"
1571967338,2,7,1,"C3,C10,C4,C2;CK,C9,CQ,CJ;SK,S5,SJ,S7;SQ,S4,S9,C7;DJ,D7,D10,D4;D5,D6,D9,DK;S10,SA,D2,CA;D3,HA,D8,DQ;S3,HQ,S8,C8;H8,H6,H4,H9;H7,HJ,HK,H5;S2,H3,H10,C5;DA,H2,S6,C6"
1571967338,2,5,1,"C6,CK,C2,CJ;SQ,S2,SJ,S8;D3,D10,D8,D4;C3,C8,C5,C9;SK,S10,S7,SA;S9,S6,D5,S5;D7,DK,DJ,DQ;DA,C4,CQ,HA;D2,C7,C10,H10;HQ,H6,D9,H7;H9,HJ,H3,H5;HK,S4,D6,H4;H8,S3,CA,H2"
1571967338,2,19,1,"C6,C9,C2,C4;S5,S2,S6,S3;D6,D4,D2,D5;DJ,D8,D7,D9;CK,C5,CJ,C10;CQ,S10,C8,C3;DK,S4,D3,DQ;D10,HA,S9,DA;HK,HQ,SJ,S7;H4,H5,C7,SA;H7,H9,CA,SQ;H6,H8,S8,SK;H3,HJ,H2,H10"
1571967338,2,8,1,"CJ,CQ,C2,C9;SJ,SK,S10,SQ;S9,SA,S8,S4;C7,C10,C8,C4;C3,CK,C5,CA;D10,D5,DJ,DQ;D7,D4,D2,D8;D6,S6,D9,DA;S2,S5,S7,S3;H4,HQ,HA,HJ;H2,H10,HK,H8;D3,H9,H6,H3;DK,C6,H7,H5"
1571967338,2,0,1,"CK,C2,CJ,C6;SA,SK,S9,S5;D10,D7,D8,D5;S8,S2,S6,S4;D9,D2,D6,D4;S7,SQ,D3,S3;C4,SJ,CA,C3;HK,CQ,C10,DK;HQ,C7,C5,DJ;H7,H4,H6,H5;H9,S10,H3,HA;HJ,C9,H2,H10;H8,C8,DA,DQ"
1571967338,2,26,1,"C4,C5,C6,C2;S6,S5,S10,S8;SJ,SK,SA,S7;CJ,S3,S9,S4;D8,D9,D2,D4;C8,C9,C7,CK;D5,S2,D10,DQ;D3,SQ,D7,DK;DJ,HK,D6,DA;CQ,H8,H10,CA;H2,H6,H9,HQ;C3,H4,H7,HJ;C10,H3,H5,HA"
1571967338,2,5,1,"CA,C4,C5,C2;S8,S2,S4,S7;D2,D3,DJ,D4;SJ,DA,S10,S9;CJ,C8,C7,C9;C10,CK,SQ,C3;D5,CQ,S3,S5;D10,DQ,SA,D9;D8,C6,SK,DK;H8,HA,HJ,HK;H3,H7,H10,HQ;D6,H4,H5,H2;D7,H6,H9,S6"
1571967338,2,4,1,"C2,C5,C8,C9;SJ,SA,S9,S3;DQ,DK,D4,D8;C7,CQ,C6,D5;CA,C10,C3,DA;S2,SQ,S10,SK;S6,D7,S8,S4;D9,DJ,D2,S7;D6,D10,C4,S5;HK,HA,HQ,HJ;H9,H8,H10,H4;CK,H7,CJ,H3;D3,H5,H6,H2"
1571967338,2,22,1,"C4,C2,DA,C7;CQ,C3,D3,CA;C5,CK,S10,C6;DJ,DQ,D4,D7;S6,S5,SK,SA;D10,D9,DK,D6;S8,S4,S2,C8;D5,D8,S3,CJ;D2,S9,SQ,C9;HQ,S7,SJ,C10;H9,HK,HA,HJ;H5,H4,H6,H8;H2,H3,H10,H7"
1571967338,2,9,1,"CK,CJ,CA,C2;S5,S4,S6,S7;C8,C7,C10,CQ;D8,DJ,D10,DK;C6,C4,S9,C3;D7,D6,D5,D3;S3,SQ,S2,C9;SJ,DA,D9,DQ;SK,S10,SA,HK;C5,D2,D4,H10;H5,H4,H8,H7;HJ,H3,H9,H6;HQ,S8,HA,H2"
1571967338,2,0,1,"C9,CA,C5,C2;S6,S2,SJ,SK;C7,C8,C4,C6;D10,DQ,D6,D7;D5,CJ,CK,C3;S8,D9,S4,SQ;DK,D2,S7,C10;S9,D8,S5,S10;D4,DJ,S3,CQ;HK,HA,H9,HJ;H7,HQ,H6,H8;DA,H10,H4,H5;D3,H2,SA,H3"
1571967338,2,0,1,"C3,C2,C10,CA;S6,S2,S7,S8;DJ,DA,D5,D7;S5,S9,S4,SJ;CJ,C7,S3,CQ;D6,DQ,D9,DK;C6,CK,SQ,C8;D4,D8,SA,D10;D2,C5,HJ,C4;SK,S10,H8,HA;HK,H9,H5,HQ;H7,H3,H4,H6;D3,C9,H2,H10"
1571967338,2,26,1,"C5,C2,C10,CJ;CK,DQ,D7,D8;C6,C3,CQ,C7;S3,S6,S8,S2;SA,DK,DJ,D3;C8,C9,D5,D2;S10,SQ,S7,SJ;SK,CA,D6,D4;HK,S9,S4,D10;H10,S5,D9,HQ;H4,H5,H2,H3;H6,C4,H7,HJ;H8,DA,HA,H9"
1571967338,2,0,1,"C9,C10,CJ,C2;S6,S8,S10,S9;D7,D6,D9,D5;D2,DA,D4,D10;CK,DQ,D3,C8;S4,S2,SQ,SA;CQ,S7,S3,C7;CA,DK,D8,C4;C5,HK,DJ,C3;C6,HQ,HA,SK;HJ,H10,H5,H7;H2,H9,H4,H6;S5,H8,H3,SJ"
1571967338,2,11,1,"CQ,CK,C2,C8;SK,SA,SJ,S7;D9,DK,D8,DJ;C4,C9,C5,D6;D4,D5,D2,D3;CA,C7,C3,D10;CJ,DQ,C10,S5;S10,S9,S8,S3;SQ,S4,S2,D7;S6,HA,DA,HQ;H9,H8,HK,HJ;H6,H7,H10,H4;H2,H5,C6,H3"
1571967338,2,13,1,"C2,C9,C8,C10;S7,S6,S2,S3;D3,DQ,D5,D6;C7,S4,S10,S5;D10,D9,DJ,D8;D7,SQ,SA,CK;D2,C6,D4,DA;C4,S9,CQ,CA;CJ,HA,C5,C3;H10,HJ,SJ,HK;H4,H5,SK,H7;H9,H8,DK,HQ;H2,H3,S8,H6"
1571967338,2,0,1,"C2,C8,C5,C9;D7,D8,D10,D2;SJ,S7,SK,S9;S6,SA,S8,S2;DQ,D4,DJ,D9;C7,C6,C3,C10;S4,D6,D5,DA;S5,C4,SQ,DK;CQ,HA,CA,D3;S3,H9,CJ,CK;H6,H8,H2,H3;HJ,H7,H10,H4;HK,H5,S10,HQ"
1571967338,2,0,1,"C2,C10,C6,CJ;S7,S10,S8,S9;DQ,DA,D9,DJ;C5,C7,CA,CQ;S6,C4,S2,S5;D10,D5,D6,D8;C9,CK,SK,D4;D2,DK,S4,D7;C3,D3,SA,S3;SQ,C8,SJ,HJ;HA,HK,H9,H6;H10,H7,H8,H5;HQ,H3,H2,H4"
1571967338,2,0,1,"C7,CQ,C10,C2;D7,D10,D6,D3;SJ,S2,S10,S9;C3,D9,CJ,CA;D5,D8,C4,C5;D4,S8,C9,CK;SQ,S6,C8,C6;SK,DJ,S7,S5;DQ,DK,DA,SA;H10,HA,S4,HJ;H6,HQ,S3,H9;H4,H7,HK,H8;H2,H3,D2,H5"
