1571967233,2,0,3,"C5,C2,C6,C7;S6,S10,S8,S4;CK,CJ,C10,CQ;DJ,D7,D8,D10;D4,D2,D6,DQ;SQ,S9,S7,SK;D9,C9,D5,DA;H4,HJ,H5,HA;SJ,H10,C3,HK;S3,H9,S5,HQ;DK,H2,CA,H3;S2,H8,C4,H7;SA,C8,D3,H6"
1571967233,2,0,3,"CK,C8,C7,C2;D10,D4,C4,D9;D7,DK,CJ,D5;S5,S10,S9,S8;S3,S7,S6,S4;D8,CQ,C10,C5;SJ,S2,SA,SK;D2,CA,C3,C6;DA,D6,HA,DJ;DQ,C9,H9,D3;H7,HQ,H6,HK;HJ,H2,H4,SQ;H10,H5,H3,H8"
1571967233,2,1,3,"C2,CQ,C3,C8;D5,D6,DK,D2;S10,S8,S9,S7;D7,D10,D8,DJ;C6,S2,S4,S5;DA,SQ,S3,S6;C7,CA,CJ,CK;D4,SA,SJ,SK;C4,D9,C9,DQ;HA,HK,H9,HQ;C5,D3,C10,H8;H3,H10,H5,H7;HJ,H6,H4,H2"
1571967233,2,9,3,"C2,C3,C7,C8;C9,CQ,C5,C6;D10,DJ,D6,D9;S4,S5,S6,S8;C4,CA,C10,CJ;S9,SA,SK,SJ;DK,DQ,D4,D7;S7,SQ,S2,D2;DA,D8,D3,HK;HJ,H6,HA,HQ;H3,S10,CK,H10;H4,H5,S3,H8;H2,D5,H7,H9"
1571967233,2,13,3,"CK,C2,CQ,C9;DK,D8,DJ,DQ;D3,D6,D9,D2;S2,S5,S3,SA;CJ,C10,C6,CA;D10,DA,S6,D4;SJ,SK,S4,C3;S9,S7,SQ,C8;C7,S10,C5,D5;D7,HA,C4,H7;HK,HQ,HJ,H6;H8,H4,H5,H3;H9,H10,S8,H2"
1571967233,2,0,3,"C10,C2,C6,C5;S10,S9,S7,S6;S4,S3,S2,S5;D4,D3,D6,D7;CK,CQ,CJ,CA;DK,DA,D10,DJ;SQ,SK,SJ,D2;C8,S8,D8,D9;C9,C7,C3,H10;HJ,HA,H6,H9;H7,HQ,C4,H8;H5,HK,D5,H3;H4,SA,DQ,H2"
1571967233,2,0,3,"C7,C6,C10,C2;D7,DJ,D3,D10;S3,S5,S8,SK;D4,DA,D5,D2;CK,D6,S6,DQ;C4,DK,S2,D8;S10,SJ,C9,S9;C5,C3,C8,CJ;CQ,S4,HQ,S7;CA,SA,HJ,D9;H9,H10,H7,HK;H3,H8,H6,H4;HA,SQ,H5,H2"
1571967233,2,0,3,"C4,C3,C5,C2;S6,S5,S8,SQ;S2,S4,S7,S9;DK,DA,D5,D8;D7,DJ,D10,D6;CA,SJ,S3,S10;C9,C10,C8,D4;CJ,C6,D2,D3;CK,CQ,SK,HA;C7,HQ,D9,HJ;H10,H8,H3,H9;HK,H5,SA,H6;H2,H7,DQ,H4"
1571967233,2,0,3,"CK,C4,C5,C2;D8,D6,S3,DA;S6,S7,S5,S8;C9,CQ,C3,CA;S2,D4,SJ,SK;D10,DQ,S10,SQ;C7,C6,SA,C8;D9,D2,S9,CJ;D7,DJ,HK,S4;D3,HA,HQ,C10;H2,H4,H6,H9;D5,HJ,H5,H7;DK,H10,H3,H8"
1571967233,2,0,3,"C7,C2,CK,C5;DK,D10,DA,D5;D7,D9,D2,C9;S8,S10,S7,S9;C3,C6,CJ,CA;SQ,S3,S6,SK;CQ,C4,DJ,C10;S4,S2,S5,SJ;D3,D8,DQ,SA;HK,H8,H10,HA;HJ,H3,H9,HQ;H4,C8,H5,H7;H6,D6,D4,H2"
1571967233,2,0,3,"C4,C6,C5,C2;S9,SJ,S7,S2;S3,S10,S6,SQ;D10,D9,DJ,DK;DA,D2,D4,D5;CJ,C9,CK,C10;CQ,D6,D3,DQ;HK,S8,SK,SA;H8,C8,S4,C3;H7,H9,H2,H3;H5,CA,HQ,C7;H6,HA,S5,HJ;H4,H10,D7,D8"
1571967233,2,15,3,"C4,C5,C2,CA;D4,D6,D3,D7;DA,D10,D2,D5;CJ,CQ,C7,C10;DQ,DK,S4,D8;DJ,D9,SK,SA;S9,S8,S3,S7;SJ,S10,SQ,C9;C6,S5,C3,HK;S6,HA,S2,HJ;H6,H3,H2,H5;HQ,H10,H9,H8;C8,H7,CK,H4"
1571967233,2,4,3,"CJ,CK,C2,C8;SK,S3,SQ,S6;C4,C10,CQ,S4;S9,S5,S10,SA;D3,D6,D4,D5;SJ,S2,S7,D8;D2,D7,DJ,D9;DA,DK,S8,HA;C6,C9,CA,HQ;H8,H10,H4,H9;HJ,DQ,D10,H7;H3,C3,C5,H2;HK,C7,H5,H6"
1571967233,2,13,3,"CJ,CQ,CK,C2;S6,SQ,SK,S10;S4,S7,S2,S5;D3,D7,D4,D6;D8,DA,DK,DJ;C6,D2,S8,D5;C10,DQ,C8,D9;C3,C7,SJ,C5;CA,S9,HK,SA;C9,HJ,HQ,C4;HA,H9,H10,H6;H8,H3,H4,D10;H7,H2,H5,S3"
1571967233,2,9,3,"C4,C2,C9,CA;S10,S9,S7,SJ;C7,C5,C3,C6;S5,S3,S4,S2;C8,D9,SK,CQ;D7,D6,D8,D10;CJ,SA,S6,CK;S8,DJ,DA,SQ;D3,D4,D5,DQ;HK,HJ,HQ,HA;H8,H7,H10,H9;D2,H3,DK,H4;C10,H5,H6,H2"
1571967233,2,9,3,"C10,C2,C3,C9;SJ,S7,S10,S3;D9,DK,DJ,DA;S6,SQ,S9,SK;C5,C7,S5,C6;D5,D2,D10,DQ;CQ,CA,D3,CJ;C4,S2,S8,SA;HJ,HK,HA,H10;C8,D7,S4,H9;H4,H2,HQ,H8;D8,D6,D4,H6;H3,CK,H5,H7"
1571967233,2,26,3,"C7,C8,C2,C6;DJ,D7,D6,D9;C10,C9,CK,C5;S6,S4,S3,S10;CJ,C3,CQ,CA;D10,DQ,D5,DK;S5,D2,D3,D4;SQ,SK,S2,S7;C4,D8,SA,S9;HK,DA,SJ,HQ;H7,S8,HA,HJ;H6,H8,H5,H4;H2,H10,H9,H3"
1571967233,2,6,3,"CA,C2,CK,CQ;S8,S3,S6,S7;D7,D8,D6,D3;DQ,C9,C7,C10;SJ,SA,S5,S10;D9,C3,CJ,C6;HA,SQ,S4,S9;H9,C8,D4,D2;H5,D10,D5,DK;H6,DA,H10,H7;H4,C4,HQ,H8;H2,C5,HJ,HK;H3,DJ,S2,SK"
1571967233,2,8,3,"CJ,C9,CK,C2;D8,D3,D4,D6;C10,C7,C8,C6;D7,D2,DJ,DQ;S4,S10,SA,S3;CA,S7,S5,S6;DK,DA,D5,D10;HQ,S9,S8,SK;H6,HA,C4,D9;H5,HJ,C5,SQ;H4,H9,CQ,C3;H3,H7,H8,S2;H2,H10,HK,SJ"
1571967233,2,8,3,"C2,CJ,C10,CQ;S7,S8,S4,S5;C5,C9,C6,C7;S2,C8,C4,CA;SJ,S10,S9,SQ;D5,D6,SK,SA;D2,D4,C3,CK;D9,DJ,D10,DQ;HQ,HA,H10,HK;DK,D7,D8,H9;H3,H2,H7,H5;HJ,D3,S6,H6;H8,DA,S3,H4"
1571967233,2,13,3,"C2,C8,C5,C9;S4,S3,S5,S6;D8,D7,D3,D9;DJ,D6,D2,D10;S7,S2,S9,S10;C10,CK,CA,C7;C6,C4,CQ,CJ;SK,SQ,SA,SJ;S8,D5,DQ,DA;HQ,D4,HA,C3;H10,HJ,H9,HK;H7,H8,H6,H4;H3,DK,H5,H2"
1571967233,2,0,3,"C2,CJ,C4,C6;S8,S10,S4,S6;DK,D4,D9,DQ;C5,CK,C10,CA;S3,S9,SJ,S2;D6,D5,D7,D10;C9,S5,C7,SK;C8,S7,C3,SQ;DA,D2,HK,D8;HA,H3,H10,HQ;H2,DJ,H8,H9;H4,D3,H7,HJ;H6,SA,H5,CQ"
1571967233,2,4,3,"C2,C7,C4,C9;C8,CK,S8,C6;D5,D7,DA,D2;SK,SJ,SA,S9;S3,S5,S4,S7;C5,CQ,S10,CJ;D8,D9,D10,DJ;S2,C3,HA,C10;SQ,D3,HK,S6;H9,H7,H8,H5;DK,D4,HJ,HQ;DQ,D6,H2,CA;H6,H3,H10,H4"
1571967233,2,5,3,"C7,C2,C3,C6;SA,SQ,SK,S10;D9,D5,D4,D7;D8,D10,DK,DJ;C9,C8,C10,CQ;CA,S9,S4,S5;CJ,C5,S3,S6;D2,D3,DA,S8;D6,C4,SJ,S7;HA,CK,S2,H9;HK,HJ,DQ,H7;H3,H6,H2,H5;HQ,H8,H10,H4"
1571967233,2,0,3,"C2,C8,C5,C9;S5,S8,S7,S9;SJ,S10,S4,SQ;C4,CQ,C3,C7;D4,D2,D5,D6;SA,S6,CJ,S3;D9,DJ,D8,DK;D3,SK,D7,DQ;CK,CA,C10,C6;D10,S2,DA,HA;H10,HJ,H9,HK;H6,H2,H4,H5;H8,H7,H3,HQ"
1571967233,2,0,3,"C10,CJ,C2,C9;S2,S3,S8,SJ;D6,D7,D8,D9;D5,D4,DJ,DQ;CQ,C8,S6,CK;C3,D3,D10,DK;CA,S9,SQ,C6;S10,S4,HA,S7;C5,D2,H10,C7;H4,H5,H9,HJ;H2,HQ,H6,H3;SA,SK,H7,S5;C4,DA,H8,HK"
1571967233,2,13,3,"C2,CJ,CQ,CK;SK,SJ,SQ,SA;D9,DJ,D6,DQ;D7,D10,D5,D3;S7,S4,C9,S3;D2,S10,D4,D8;C7,C8,C5,C6;CA,S5,C10,S9;HQ,H8,HA,HK;DA,S2,C3,H9;H2,H4,C4,H3;H6,S8,H10,H7;HJ,S6,DK,H5"
1571967233,2,0,3,"C4,C2,S6,C3;CA,C6,D6,C9;CK,C5,S9,C7;C8,D2,S8,S10;D7,D5,D8,D4;D9,DJ,DQ,D3;CQ,DA,D10,DK;S7,SA,HA,SJ;S3,SQ,HQ,S5;H5,HJ,H7,H10;HK,H2,H6,H9;C10,H8,H4,S2;CJ,SK,H3,S4"
1571967233,2,4,3,"C7,C2,C5,C6;SJ,S7,S8,S10;D7,DA,D6,D5;C10,C4,C3,C9;SQ,SK,CA,S3;CJ,CK,CQ,D2;S4,S5,D10,SA;S9,HK,DJ,D3;S6,HQ,DK,D9;HA,H4,H5,HJ;S2,H10,D4,DQ;H6,H8,H2,H3;C8,H7,H9,D8"
1571967233,2,4,3,"C7,C8,C9,C2;DQ,D3,D5,D7;S7,SQ,S3,S5;SK,C5,CJ,CQ;S8,S9,S10,SA;S6,C10,S2,S4;DK,D10,D4,D2;D9,D6,CK,DA;DJ,CA,C4,SJ;H10,HJ,HA,HK;H7,C6,C3,H9;H4,H8,H6,H5;H2,D8,HQ,H3"
1571967233,2,6,3,"C7,CJ,C4,C2;S7,S4,SA,S6;D5,D10,D4,D7;SQ,S5,SJ,S10;DK,DJ,D9,DQ;C5,C10,CQ,CK;D3,S3,DA,SK;C6,C8,D2,D6;C3,S9,CA,S2;H5,HK,HA,HQ;H4,H10,D8,C9;H3,H6,H7,HJ;H2,H8,H9,S8"
1571967233,2,0,3,"C8,CQ,CK,C2;C5,C6,C7,C3;S9,SQ,S5,S6;D9,DA,DQ,DJ;D7,DK,D3,D8;D4,D10,D2,D6;S2,S7,S4,S3;SK,D5,C9,CJ;HA,S8,SJ,SA;H7,HK,C4,C10;H6,H4,H5,H9;H3,HJ,S10,H10;H2,HQ,CA,H8"
1571967233,2,0,3,"C2,C6,C7,S5;CQ,C5,C8,S9;D3,DA,D5,D8;S10,SK,SQ,S8;C9,C4,CJ,S3;S7,C3,S6,D7;D4,CK,D2,D10;DK,HK,DJ,D6;CA,HJ,C10,D9;HQ,H8,H4,H10;HA,H5,S4,H9;DQ,H6,SJ,H2;SA,H3,S2,H7"
1571967233,2,13,3,"C9,C10,C3,C2;S6,S7,SQ,S2;D9,D7,D10,D8;D2,S4,D6,D4;CJ,S5,C6,C5;SK,S10,SJ,S9;SA,HA,D5,S8;C4,HJ,CQ,CK;H3,H8,C8,CA;HQ,H6,H9,H5;S3,H10,C7,D3;DQ,H4,H7,DJ;DK,H2,HK,DA"
1571967233,2,2,3,"C2,C8,C9,C4;D4,D2,D5,D9;S5,SK,SQ,SA;D6,CK,D10,DJ;DQ,S8,S6,S9;C3,C10,C6,C7;CA,SJ,S10,S4;HK,HQ,H10,HA;DA,HJ,S2,S3;H8,H2,D3,H9;H5,H6,CJ,C5;DK,H7,D7,S7;H4,H3,D8,CQ"
1571967233,2,0,3,"C3,C5,C2,C4;SA,SQ,S9,SJ;D10,D9,D2,D8;DK,DA,CQ,D7;CA,CK,CJ,C7;DQ,D3,C9,D4;DJ,S4,S5,S10;D5,S2,S3,S6;D6,C10,H10,S8;SK,C8,H8,S7;H2,H6,H5,H7;HK,H9,H4,HJ;HQ,HA,H3,C6"
1571967233,2,26,3,"CK,C2,C8,CQ;SA,SQ,S7,S10;CA,S8,C6,CJ;DQ,D10,D9,D6;S9,S4,S3,S5;C9,D7,C5,C7;DK,S2,D8,D4;D5,SJ,D3,C4;SK,H10,D2,C10;S6,H9,DA,HA;H6,H5,H4,H3;DJ,H8,H2,HQ;C3,H7,HK,HJ"
1571967233,2,26,3,"C8,CQ,CJ,C2;D10,DJ,D7,D9;S6,S10,S5,S9;S4,S3,D5,SK;C6,D6,D4,D8;CK,S2,C3,C5;SJ,S8,C9,SA;SQ,S7,C7,C10;HA,HK,DQ,DK;HJ,H10,D2,DA;H9,H8,HQ,C4;H7,H4,H2,CA;H5,H3,H6,D3"
1571967233,2,4,3,"CJ,DQ,C2,C10;D4,D2,D5,D3;SJ,S4,S6,S5;SQ,S10,S9,S3;C8,DJ,C7,C6;CK,DK,C5,CQ;C3,SK,C4,C9;D7,S7,S8,CA;D8,D10,S2,SA;HK,HA,D9,DA;H8,HQ,HJ,D6;H5,H9,H4,H6;H3,H7,H10,H2"
1571967233,2,25,3,"C5,C2,C10,CK;D2,D7,D6,D8;C3,C7,C8,C6;DQ,D9,DK,D4;S5,S6,S10,SA;CJ,CA,S8,CQ;DA,D3,D5,HK;S3,SJ,SK,H10;H8,HJ,HA,H9;H5,S4,S7,H4;C9,H2,HQ,H6;D10,S2,S9,H7;DJ,C4,SQ,H3"
1571967233,2,0,3,"C2,CJ,C8,C9;S4,SJ,S9,S7;DQ,D4,DJ,D8;C6,CQ,C4,C3;SK,S2,SQ,S3;C7,CA,S6,CK;C5,S5,DK,D6;D10,S10,D9,D5;D7,S8,DA,D3;H9,SA,HQ,D2;H6,HA,H8,H10;H5,HJ,H7,H4;H2,HK,H3,C10"
1571967233,2,22,3,"CA,C10,CJ,C2;S4,S7,S5,S2;S8,S9,SJ,SK;CK,C8,C6,CQ;D9,D2,D4,D7;S3,SQ,SA,C7;S6,C4,C3,C5;D8,D10,D3,D6;DJ,DQ,DA,DK;D5,H10,S10,C9;HA,H4,HK,H9;H7,H3,HJ,H5;H6,H2,HQ,H8"
1571967233,2,0,3,"C7,C8,C2,C3;CJ,D8,D4,D9;C4,SK,CA,CQ;S6,D6,D2,D5;S5,S8,S4,S7;C5,S3,SQ,SA;C9,S9,CK,C10;C6,D10,DK,DJ;HA,D7,DQ,DA;H10,H8,HJ,HK;H5,H6,H4,H3;H7,SJ,S2,HQ;H2,D3,S10,H9"
1571967233,2,2,3,"C2,C7,C9,C4;D4,D6,D5,D3;C8,CQ,CJ,S10;CK,C6,DJ,D2;D8,DA,D10,DK;CA,C3,S4,S5;SJ,S9,S7,S8;D9,C10,SQ,DQ;S6,SK,S3,SA;HJ,H10,HQ,HA;H5,H4,H9,HK;D7,H3,H6,H7;S2,C5,H8,H2"
1571967233,2,22,3,"C7,C10,C8,C2;D3,D6,DQ,DA;D10,DJ,D9,DK;CK,CQ,C6,CA;S4,S7,S8,S9;CJ,D2,C4,C9;D8,D5,D4,C5;SA,SK,S5,HQ;S10,S6,S3,H9;H2,H8,H10,H7;HJ,HK,C3,H6;HA,SQ,D7,H4;H5,SJ,S2,H3"
1571967233,2,26,3,"C3,D8,C5,C2;DJ,DA,D2,DK;S8,S2,SQ,SA;D4,D6,D5,D7;CJ,S4,CQ,C6;C8,SJ,CK,C10;D3,S10,D10,DQ;S6,S3,C9,S9;H10,HJ,H9,HA;H3,H8,H4,HK;SK,H5,H2,HQ;C7,S7,D9,H6;C4,S5,CA,H7"
1571967233,2,2,3,"C9,CJ,C2,C10;D3,DJ,D10,D8;S5,SK,S8,S10;S4,S9,S7,S3;C5,D6,D5,D7;C4,C7,C3,C6;CQ,DK,DQ,CK;S2,DA,D4,SA;C8,CA,S6,HQ;HA,D2,D9,H9;HJ,H7,H5,H6;H8,SQ,H2,H4;HK,SJ,H10,H3"
1571967233,2,17,3,"C4,C2,C3,C5;S4,S2,S6,S7;SJ,SA,S5,S8;CJ,C9,CA,C8;S3,CQ,SK,SQ;DQ,C6,S10,S9;D5,D7,D3,D6;CK,C10,D10,C7;DJ,DA,D4,D8;HJ,HA,HK,H9;H5,HQ,H10,H7;H2,H6,H8,H4;D9,H3,D2,DK"
1571967233,2,4,3,"C2,CJ,C8,CQ;S6,S7,S8,S9;D7,D8,D4,D6;SJ,SA,D3,S5;C7,C9,C6,C3;C4,C5,CA,DJ;D10,C10,DK,DQ;D2,SK,DA,D9;HA,H9,HK,H7;S10,SQ,HQ,S4;H3,H6,H5,H4;H10,H8,HJ,S3;CK,S2,H2,D5"
1571967233,2,16,3,"C6,C10,C2,CJ;S6,D9,S2,S5;C3,C4,C7,S10;DK,D3,D4,D8;C5,C9,CA,S3;SJ,C8,SQ,S9;S4,D6,SA,SK;CK,D5,DJ,D7;HK,D2,D10,S7;H9,DA,CQ,HQ;H8,HA,H3,H10;H7,HJ,DQ,H4;H5,H6,S8,H2"
1571967233,2,13,3,"C2,C10,CJ,CQ;DA,D4,D7,D8;S4,S9,SK,SA;D10,D3,D9,D2;S6,C9,S3,S5;C8,C7,C5,DJ;S7,DK,S8,SJ;DQ,C6,SQ,D6;C3,CK,C4,S10;HK,H8,HA,HJ;HQ,H7,S2,D5;H3,H4,CA,H2;H9,H5,H10,H6"
1571967233,2,15,3,"C2,C10,CJ,CQ;S4,S5,S3,S6;D8,DQ,D3,D5;C8,CA,C9,S8;S7,S9,D10,SA;D2,DJ,D6,D9;C6,C4,C5,D4;DK,C7,DA,D7;SJ,S2,CK,H9;SQ,SK,C3,H8;HK,HA,H3,H7;H4,HQ,H10,H6;S10,HJ,H2,H5"
1571967233,2,6,3,"C2,C5,C6,C9;S4,S8,S7,S9;C8,CK,C10,CQ;D10,D3,D5,D8;CA,S2,S6,CJ;C7,D6,DJ,C3;SJ,SK,S5,S10;D7,D2,DA,DQ;C4,SQ,S3,SA;H10,HK,HA,HQ;D9,HJ,DK,H8;H9,H5,H6,H7;D4,H4,H3,H2"
1571967233,2,13,3,"C9,C3,C6,C2;S10,S7,S6,S9;S3,S4,SQ,S5;D8,D6,D10,D9;D7,DQ,DJ,D5;SJ,SA,D2,SK;D4,DK,C5,D3;CA,C7,CQ,CJ;C8,CK,HA,C4;HJ,H10,H9,HK;H5,H7,H8,HQ;S2,H3,H6,S8;C10,H2,H4,DA"
1571967233,2,26,3,"C2,CK,C5,C4;C3,C6,S3,S2;C9,C7,S7,S8;D6,D2,DQ,DK;D5,CJ,D9,DJ;D3,C8,D8,D10;CQ,CA,D4,DA;S6,S9,S10,D7;H4,HK,H9,HA;H2,HJ,H6,HQ;SQ,H7,H5,H8;S5,SK,S4,H10;C10,SA,SJ,H3"
1571967233,2,0,3,"C2,C3,C5,C7;S10,SQ,SJ,SK;D10,DJ,DQ,DA;D7,D9,D8,DK;C6,CQ,C10,CJ;S9,SA,S3,S7;S2,S6,C4,S4;D4,CK,C8,C9;D2,S8,D3,D5;HA,S5,D6,HK;HJ,CA,H7,H10;H9,HQ,H5,H8;H3,H6,H2,H4"
1571967233,2,0,3,"CJ,C2,C9,C5;DQ,D9,D8,DJ;S9,S5,S4,SA;D10,CQ,CK,CA;S8,S3,D2,SQ;S7,C10,D3,SK;D5,DK,D7,DA;S6,C4,C6,S10;S2,C7,C8,D6;H10,C3,HJ,D4;H7,HA,H8,SJ;H6,H9,H3,HQ;H5,HK,H2,H4"
1571967233,2,1,3,"C3,C2,C5,C8;SJ,DJ,S6,SQ;D5,DQ,D9,DA;S8,C7,SA,S3;D4,D2,D6,D10;CK,D8,D7,DK;S9,C4,SK,S7;C6,HA,C10,CJ;S2,HQ,D3,S4;H9,HJ,H3,H4;HK,H8,H7,H10;C9,H5,CA,CQ;S5,H6,H2,S10"
1571967233,2,14,3,"C5,C2,C10,CJ;SQ,S9,SA,S6;DQ,D8,DJ,D10;CK,CQ,C8,C7;C4,C9,D4,CA;C6,D7,DK,D3;S8,S4,SJ,S3;S5,S2,SK,D9;C3,D2,S10,DA;HQ,D6,S7,D5;H10,H8,HJ,HA;H7,H4,H9,HK;H6,H3,H5,H2"
1571967233,2,0,3,"C2,C7,C5,C8;S6,S2,S9,S3;D9,D7,DJ,D10;C3,C6,C10,C9;D6,D5,D8,D3;CQ,CJ,CA,CK;D4,DK,DA,DQ;SQ,SA,D2,SJ;S5,S10,C4,S8;HQ,HK,HA,HJ;H8,H6,H10,H9;H5,H3,H7,H4;S4,SK,H2,S7"
1571967233,2,20,3,"C8,CJ,C2,C9;D2,D4,D9,DQ;S5,S3,S6,S2;C3,C6,C10,C7;SJ,S8,SQ,S10;CA,D10,CK,CQ;D5,DK,DA,C4;S4,D7,D3,S9;S7,DJ,D6,HK;SK,D8,C5,HQ;H4,H7,H6,H10;H3,HJ,HA,H9;H2,H5,SA,H8"
1571967233,2,11,3,"C10,C2,C9,C8;DA,DJ,DK,D10;D4,D9,D2,D3;CQ,C3,CJ,C7;SJ,S10,S8,S3;C4,C6,C5,D8;S5,S9,S7,S2;CA,CK,DQ,D7;S4,SK,SA,HA;SQ,H10,S6,HQ;H6,H9,HJ,H5;D5,H4,H8,H2;D6,H3,HK,H7"
1571967233,2,0,3,"C2,C4,C3,C6;SQ,SK,S4,S7;C8,CJ,C9,C5;CQ,C10,CK,S8;CA,DJ,C7,D9;DK,D8,DQ,D5;S5,D7,S3,S2;SJ,D2,S10,S6;S9,HA,D3,SA;DA,HJ,D6,D4;HK,H8,H10,HQ;H6,H3,H5,H4;D10,H7,H2,H9"
1571967233,2,11,3,"C2,C7,C8,C9;S10,S7,S8,SJ;D9,D10,D7,DQ;S9,CQ,S2,S4;SK,D5,SQ,S5;D4,D8,D3,DJ;CA,C10,C5,C6;D6,D2,DK,DA;HQ,HA,CJ,C3;H9,HK,SA,S3;H7,H10,S6,H5;H4,HJ,C4,CK;H3,H6,H8,H2"
1571967233,2,0,3,"C7,C10,C9,C2;D6,DJ,D8,DQ;S10,S7,S9,SQ;S4,S2,S8,SJ;C3,SK,S3,S5;D5,D10,DA,C8;CK,CA,S6,SA;C4,D4,C6,CQ;CJ,D9,D7,C5;D3,HJ,D2,HA;DK,H9,HQ,HK;H5,H7,H4,H2;H6,H8,H3,H10"
1571967233,2,0,3,"C7,C6,C2,C4;SQ,S8,SJ,S10;C10,C9,C5,CJ;D2,D7,D3,D4;S7,SA,S9,S3;S6,SK,S5,D5;CK,C3,DA,CQ;S4,S2,D9,DK;CA,C8,D8,DQ;HK,H8,HJ,HA;H7,H6,H3,HQ;H5,DJ,H2,H9;H4,D10,D6,H10"
1571967233,2,13,3,"C8,C2,CJ,CQ;S6,S5,S2,S10;SJ,S3,SQ,S7;D2,D3,D7,D6;D9,DJ,D5,D4;C4,C7,C3,DK;C9,CA,CK,DQ;DA,C10,D10,S8;SK,C5,SA,S9;S4,D8,H9,HQ;HK,C6,H8,HJ;H3,H7,H6,H5;H2,HA,H4,H10"
1571967233,2,0,3,"C2,C7,C4,C8;S3,S8,SJ,S7;D9,DA,D4,DK;SK,S6,S9,SQ;C6,C10,CQ,C9;D7,DQ,D8,D10;C5,S5,SA,S2;D3,S4,DJ,D6;CA,C3,D2,D5;HA,HQ,CJ,S10;HJ,H10,H8,CK;H6,H4,H5,H2;H9,H3,H7,HK"
1571967233,2,0,3,"C2,C6,CK,CA;S10,S5,S6,SJ;D9,DJ,D2,DQ;D6,D5,DA,D8;C4,D3,C9,CJ;D4,SK,SQ,DK;S9,HK,S2,S7;SA,HJ,HA,S4;C5,H9,HQ,C10;C8,H8,H10,D10;S8,H6,H3,D7;C3,H5,H2,S3;C7,H7,H4,CQ"
1571967233,2,4,3,"CA,C3,C5,C2;D7,D10,D6,D5;C8,CQ,C4,C6;SK,CK,S8,S10;SJ,C9,S5,S7;D2,CJ,DQ,DK;DA,D9,DJ,D8;S4,SQ,S2,S3;S9,C7,SA,S6;HA,C10,D4,HK;H9,H10,HQ,HJ;H7,H8,H2,H4;H5,H6,D3,H3"
1571967233,2,3,3,"C2,C9,CQ,CK;D3,D7,D6,D8;SK,D10,S7,S5;DA,DK,DJ,DQ;S8,C8,S10,S2;D9,D4,D5,SQ;S4,C7,S9,SJ;H8,HA,HJ,HK;SA,D2,CJ,HQ;C3,H7,H4,H5;C4,H9,H10,H2;S3,C6,C5,H3;S6,CA,C10,H6"
1571967233,2,9,3,"CQ,C2,C10,C8;S3,SK,SJ,SA;S10,S9,S2,S4;D2,DJ,D4,D8;CK,C6,C3,CA;D6,C4,S8,S5;D9,C5,DA,DQ;C7,CJ,S7,SQ;D10,C9,D3,D5;D7,HK,DK,HA;H9,H10,S6,HJ;H5,H7,H3,H2;H4,H6,HQ,H8"
1571967233,2,0,3,"C2,CK,C9,C10;D8,DK,DQ,D10;SQ,SA,SK,SJ;D7,DA,DJ,S4;D2,D3,S5,S6;D5,D9,C4,S7;CJ,S3,S8,S2;C3,S9,C7,C8;H10,HJ,HQ,HA;CQ,H6,H3,HK;D4,H5,H2,H7;C5,H4,C6,H8;CA,D6,S10,H9"
1571967233,2,18,3,"CJ,C2,C10,C9;S6,S9,SK,S5;C6,CQ,CK,C7;D5,D3,D6,DQ;S7,S3,S10,S2;D2,C3,C5,SQ;D4,D7,D9,D8;D10,DJ,C4,DK;DA,HA,CA,S4;SJ,HK,C8,S8;H4,H2,H5,H10;H9,H7,H3,H6;H8,HJ,HQ,SA"
1571967233,2,0,3,"C7,C9,C2,C5;D10,DQ,D8,DJ;S5,S4,S3,S2;D9,D6,D7,D2;C6,CA,C8,C3;C4,CJ,CK,CQ;SK,S10,SA,SJ;S8,D3,D4,DK;SQ,S7,S9,S6;HA,HJ,H7,HQ;HK,H10,H4,H5;H8,H9,DA,H3;H6,C10,D5,H2"
1571967233,2,26,3,"C2,CJ,C7,DJ;D8,D4,D7,D3;CK,SJ,C6,S6;C8,D5,C4,SQ;C5,DQ,C9,D10;DK,D2,D6,DA;S3,S8,S5,S9;HA,HJ,H8,HK;CA,S7,S2,HQ;C10,H5,H6,H4;C3,SA,D9,H2;CQ,H3,S10,H9;SK,H7,S4,H10"
1571967233,2,0,3,"C2,C5,C3,C7;C6,D7,D4,D8;SJ,D6,D10,DJ;S10,SQ,D3,D5;S7,SK,D9,DQ;S6,S2,S3,S4;CK,C10,D2,C8;CJ,C4,SA,DK;CQ,S9,DA,HK;C9,HA,S8,HQ;S5,H2,H6,H7;HJ,H10,H4,H8;CA,H9,H3,H5"
1571967233,2,2,3,"C2,C4,C6,C8;D8,D10,D3,D5;C7,C3,C5,C9;DK,D7,C10,D4;S4,CQ,SK,S5;CK,D9,CA,DQ;S9,HK,SJ,S8;SA,HQ,S10,S7;CJ,HJ,H10,HA;S2,H8,S6,DJ;H7,H3,H5,DA;S3,H9,H2,D6;SQ,H6,H4,D2"
1571967233,2,26,3,"C8,C3,C2,C6;D8,D6,D5,D7;DQ,DJ,D9,D4;C5,SJ,CK,CA;SQ,SA,S5,S6;D10,DK,C7,DA;C4,D2,CJ,C9;S10,SK,S8,S3;S2,D3,S4,C10;S7,S9,HA,HK;HJ,HQ,H7,H6;H9,H10,H5,H4;CQ,H8,H3,H2"
1571967233,2,3,3,"C2,C5,C7,C8;D8,D7,D9,D10;SJ,SK,S9,S4;DQ,DA,D4,SQ;D3,D5,D6,C6;CQ,CA,C3,S5;S8,SA,S10,S7;C9,C10,CK,HQ;S3,CJ,S6,HJ;HK,H2,H4,H9;S2,H10,H7,H3;D2,DJ,DK,H8;C4,HA,H6,H5"
1571967233,2,13,3,"CK,C4,C2,CJ;S7,S9,S3,S10;SK,SJ,SA,SQ;D7,D10,DQ,DJ;C10,C6,C3,C7;DK,D3,DA,D9;CA,C8,C5,D8;S6,S4,CQ,D2;D6,S5,C9,HK;S8,S2,HQ,H10;D4,HA,H6,H7;H5,HJ,H3,H4;D5,H9,H8,H2"
1571967233,2,0,3,"C3,C2,C5,C7;S9,D6,S8,S10;D10,DQ,DK,D8;S6,D2,S4,S5;D7,DA,CA,D5;C10,C4,CJ,C8;SQ,CQ,S3,SJ;D9,D3,S2,DJ;D4,C6,HA,SK;C9,H10,HK,SA;H6,H5,H8,S7;H3,H2,H7,CK;HQ,H9,HJ,H4"
1571967233,2,13,3,"CJ,CQ,C8,C2;D4,D6,D2,D5;CA,C9,C6,C7;S10,S8,S2,S4;DJ,DK,D10,D9;S9,S5,SQ,DA;S7,SK,SA,C5;D7,CK,D8,D3;DQ,C10,C3,C4;S6,SJ,HA,HJ;HK,S3,H10,H9;HQ,H2,H7,H8;H3,H4,H5,H6"
1571967233,2,7,3,"C8,CQ,C2,C10;S10,S2,S5,S8;CK,C3,CJ,C7;SJ,SQ,S4,S7;DJ,DA,D5,DQ;D4,D7,D3,D9;SK,D6,SA,S6;CA,DK,C5,C4;D8,H9,D2,D10;S9,H8,C6,S3;HA,H7,HJ,HQ;H5,H4,H10,H3;HK,H2,C9,H6"
1571967233,2,13,3,"CQ,C10,SJ,C2;S5,S3,SQ,S7;D8,D7,DJ,D10;D6,D3,D4,DK;S10,SK,S9,S8;S2,C6,D5,C8;S6,C5,D2,CK;DA,C4,D9,CJ;S4,CA,SA,C7;HK,DQ,HJ,C3;H7,HQ,H9,HA;H4,H8,H5,H10;H3,H6,H2,C9"
1571967233,2,13,3,"C5,C6,C2,C9;D7,D10,DQ,D2;C7,C4,C8,DA;SQ,S5,SA,SK;S9,S4,SJ,S10;S2,S3,S6,S7;D3,D6,D8,D9;CA,D5,CQ,DK;C10,CK,S8,DJ;C3,CJ,H9,D4;HJ,HQ,H5,HA;H6,H8,H4,H10;H2,H7,H3,HK"
1571967233,2,19,3,"C8,C2,C10,C6;D9,DQ,DA,DJ;SK,SJ,SA,S5;D6,D4,DK,D7;CA,S2,D8,D2;C4,S6,D10,C3;C7,S3,D5,S4;S8,S10,S9,CQ;CJ,C5,CK,HK;S7,C9,SQ,HQ;H6,H8,H10,H9;H3,H5,H2,H4;HJ,HA,D3,H7"
1571967233,2,17,3,"CJ,C2,C10,C9;C7,C5,C6,C3;CA,CQ,C8,CK;D8,D9,D10,D6;SJ,S3,S5,S9;DK,D7,S10,DJ;D2,DA,C4,D4;HK,S2,SA,S4;HJ,DQ,S8,S7;H7,HA,H2,HQ;H6,H10,H9,H8;H3,D3,SK,D5;H5,H4,SQ,S6"
1571967233,2,3,3,"C6,C10,C3,C2;S6,SJ,S2,DK;S5,S10,S3,C4;S4,S8,S7,C8;SQ,SA,SK,DA;D9,D8,DJ,D5;CJ,C9,CQ,C5;DQ,D7,CA,D4;H9,S9,C7,D3;H7,D10,CK,HA;H6,HQ,H10,H8;H2,D6,HJ,H5;H3,D2,HK,H4"
1571967233,2,0,3,"C2,C4,C9,C6;D9,DJ,D2,D8;S10,S8,S7,S9;C3,CJ,C10,D3;C5,S2,SQ,SA;D4,DQ,D10,DA;CK,D6,D7,DK;CQ,S5,S6,D5;C7,SK,S3,S4;HA,SJ,C8,H10;HQ,CA,HK,H9;H3,H4,H5,H6;H2,HJ,H8,H7"
1571967233,2,9,3,"CQ,CK,C2,C8;S8,S10,S4,S9;C5,C6,CA,C3;SK,S2,S3,S7;C10,C7,C9,S5;D9,D5,D8,D3;DQ,DK,D7,D10;SJ,SQ,DA,S6;CJ,SA,D6,HQ;D2,HK,HA,H10;C4,H4,H3,H8;DJ,H7,H9,H2;D4,H6,HJ,H5"
1571967233,2,26,3,"C10,C6,C4,C2;S3,SJ,SA,S2;D9,D4,D6,DA;C7,C5,C3,C9;S7,S8,DQ,SK;CQ,CJ,D3,C8;CA,S10,D2,SQ;D8,DJ,D7,S6;CK,S9,D5,S5;DK,D10,H9,H10;HA,HQ,H6,H8;HJ,H4,H5,H7;HK,S4,H2,H3"
1571967233,2,1,3,"C2,C9,CQ,CA;S5,S6,S7,S2;CK,D9,D10,D7;S3,S8,S9,SQ;C8,C5,C4,CJ;C7,C3,D6,C10;HQ,H9,S4,HA;HJ,H8,DA,HK;H6,DQ,DK,H5;H4,D3,D4,H3;SK,S10,DJ,H7;SJ,SA,D8,H10;C6,D2,D5,H2"
1571967233,2,0,3,"C9,C3,C2,C8;DA,DK,D10,DQ;S9,S8,S7,S6;DJ,D9,D8,D5;SA,S4,SJ,SK;CQ,D2,C10,C4;CA,D6,CK,D4;CJ,D7,C6,S2;HA,HK,H5,HJ;HQ,H9,C5,H6;H3,H8,S10,H4;H2,H7,D3,SQ;H10,S3,C7,S5"
1571967233,2,1,3,"C6,C7,C5,C2;D6,D8,D2,D7;S10,SQ,D10,S8;S6,S7,DQ,S3;C10,CK,CQ,C9;S9,SJ,CA,SA;SK,D9,C4,C8;DJ,D3,DA,D4;S2,HA,CJ,C3;HK,HJ,HQ,H10;H8,H7,H6,H4;S5,H3,H2,D5;S4,H9,H5,DK"
1571967233,2,0,3,"C2,C9,C10,C8;D7,D5,D10,S4;DQ,DK,D9,CQ;C3,C7,S8,SJ;CK,CA,D2,S9;SQ,C4,D8,S7;S3,C6,D4,SK;D3,CJ,SA,S6;S2,S5,DJ,HA;D6,C5,H10,HQ;H7,H2,H6,H5;DA,H9,H4,H3;S10,HK,H8,HJ"
1571967233,2,4,3,"C7,C6,C2,C5;CQ,CJ,C8,C4;C10,DQ,C3,CA;S4,S5,S3,S7;S9,S10,SJ,SQ;S8,SK,DK,S6;D6,D3,D9,D5;C9,D10,DJ,D2;HK,H9,HA,HQ;H6,H3,H7,HJ;S2,D4,H5,H8;CK,D8,H4,H10;SA,D7,H2,DA"
1571967233,2,3,3,"C2,CK,C5,C7;DJ,DK,D9,D10;S10,SQ,S4,SJ;CA,D7,D8,DA;SK,S8,C10,SA;C6,CJ,C9,C8;S3,S5,D5,S9;S2,D2,D3,S7;HK,HJ,H9,HA;H7,H10,H8,HQ;C3,DQ,H5,H6;C4,D6,H4,H2;S6,CQ,D4,H3"
1571967233,2,16,3,"C2,CQ,C10,CJ;D8,DJ,D9,D7;D3,D4,D5,D6;S10,SK,SA,S3;C8,CK,C5,C9;S6,S2,SQ,SJ;C7,D10,C3,C4;S8,S4,C6,CA;S7,S5,D2,DQ;S9,HQ,HJ,DA;HA,H7,H10,H9;HK,H5,H6,H8;H2,H3,H4,DK"
1571967233,2,2,3,"C2,C9,C10,C3;D5,D4,D7,D3;CQ,CK,CA,SA;C7,C6,CJ,DA;C5,C4,C8,D9;DQ,SK,D2,S8;S7,S5,S6,S9;S4,S2,S10,SJ;HA,H10,HK,HQ;S3,SQ,D6,HJ;H8,H6,H2,H5;DJ,H9,D10,H4;D8,H7,DK,H3"
1571967233,2,0,3,"C9,C7,CQ,C2;DQ,D6,DA,D10;C5,C6,C4,CA;SQ,S8,S7,S10;DJ,S3,D5,D9;D4,S4,D2,D3;D7,SA,DK,D8;HK,CK,C3,C8;H10,SK,C10,S2;H7,H2,H9,HJ;H5,S6,H6,S9;H3,S5,HQ,SJ;H8,H4,HA,CJ"
1571967233,2,0,3,"C3,C4,C2,C5;DK,D8,D9,D10;C10,S6,C9,C7;SA,SK,SJ,S9;S3,S7,D6,S5;S4,D5,DQ,D3;CJ,DJ,CA,C6;CK,S8,CQ,DA;SQ,S2,C8,D2;S10,HK,D7,D4;H9,H10,HQ,HA;H8,H7,H4,HJ;H5,H2,H3,H6"
1571967233,2,26,3,"C2,C10,C5,C3;SJ,S7,S9,S8;CJ,C6,DJ,C7;D7,D3,D5,D6;C9,C8,D2,CK;CA,S2,S3,S4;D10,S10,SK,S5;D8,DK,D4,DA;H10,HK,H9,HA;H8,H6,H4,HQ;H2,H3,DQ,H7;CQ,S6,SQ,HJ;C4,SA,D9,H5"
1571967233,2,0,3,"C2,C6,CQ,CA;S7,S8,S9,S10;SQ,S5,S6,SJ;DA,DJ,DQ,DK;D7,D6,D3,D4;C7,C3,C8,C9;C4,D10,CJ,CK;SA,S2,SK,S3;C5,D2,S4,C10;HJ,D5,HA,D9;H9,HQ,H7,D8;H6,H10,H4,HK;H2,H5,H3,H8"
1571967233,2,0,3,"C2,C6,C9,CJ;D7,DQ,D10,DK;SQ,S9,SJ,SK;D6,D9,D3,D4;DA,D8,D2,C7;C5,S5,C4,CQ;C3,DJ,CK,C10;S8,SA,S2,S10;CA,S3,S6,S4;HQ,H8,HJ,HA;C8,D5,H10,S7;H9,H4,H5,HK;H7,H3,H2,H6"
1571967233,2,0,3,"C3,CJ,C2,C8;S6,S7,SQ,SA;D9,D10,D8,DJ;D7,C9,CK,CA;DQ,D3,D5,DK;D6,DA,S9,D2;S8,C6,C4,C5;S5,S3,S4,S10;HA,HQ,CQ,HK;SK,H9,S2,HJ;H10,H7,C7,H8;H6,H4,C10,H3;D4,H5,SJ,H2"
1571967233,2,13,3,"C2,CJ,C3,C6;S3,S4,SA,S2;S6,S7,S9,S8;D3,D6,D10,D9;DQ,D5,D2,D8;C4,CQ,C9,C10;C5,DJ,D7,DA;SK,S10,SQ,SJ;CA,D4,C7,S5;HJ,H7,HA,HQ;H10,DK,CK,H9;H8,H6,HK,H4;H5,H2,C8,H3"
1571967233,2,21,3,"C9,C8,C10,C2;D9,DK,DA,DQ;S7,S8,SQ,SJ;D6,D8,D4,D7;S6,SA,S10,S5;C3,C4,C7,CQ;S4,DJ,D3,D2;CJ,S3,S9,S2;C5,SK,CA,CK;HK,H9,HA,H7;HJ,H8,HQ,H5;H2,H6,H4,H3;C6,D5,H10,D10"
1571967233,2,0,3,"C6,C2,C4,C5;S6,S7,SJ,SQ;D8,D2,D3,D4;S5,S4,SA,S9;CQ,C10,CA,CK;S3,C3,C7,CJ;S2,D5,S10,S8;D9,DQ,C9,DJ;DA,D7,D10,D6;HQ,HJ,HK,HA;H10,H9,H4,H7;H2,H3,SK,H6;H8,DK,C8,H5"
1571967233,2,0,3,"C9,C4,C5,C2;S7,SJ,S9,SQ;D7,D8,D9,D4;C7,C3,C10,C8;S4,S3,S2,C6;D10,D5,D6,D3;S5,S10,SA,DK;CK,CJ,CQ,CA;S8,DQ,HK,D2;SK,DA,HQ,DJ;H9,HA,HJ,H10;H8,H4,H3,H6;S6,H7,H2,H5"
1571967233,2,0,3,"C2,C5,C7,C9;SQ,S9,SJ,SK;D10,DQ,DA,DJ;S6,S8,SA,S10;D9,D8,DK,D7;C3,D6,CA,C8;CQ,D3,CK,C6;D4,S3,CJ,C4;S5,S7,C10,S2;HA,HQ,H10,HK;D5,S4,H8,D2;H6,H3,H5,H9;H7,H2,H4,HJ"
1571967233,2,13,3,"C5,C4,C6,C2;D3,D9,D5,D8;S10,S5,SJ,S7;D10,CA,D7,D6;C9,C10,CJ,CQ;SQ,S9,SA,S2;DJ,S8,D4,D2;CK,C7,C3,DA;C8,S6,SK,S4;H10,HA,HK,H7;H9,S3,DK,DQ;H6,HQ,H8,H5;H3,HJ,H2,H4"
1571967233,2,13,3,"C9,CJ,CK,C2;SJ,S9,SQ,S5;DJ,DA,D5,D9;C4,CA,C6,CQ;S10,S7,SK,S3;D7,D6,D8,D4;D2,SA,DK,C10;D3,S6,D10,C7;S8,S4,DQ,S2;H7,HA,C3,C8;H6,HK,H9,C5;H4,H10,H8,HJ;H3,H2,H5,HQ"
1571967233,2,0,3,"C8,C2,CK,C5;S3,S7,S6,SJ;S8,D6,D5,D8;S2,D4,D9,DJ;C9,CQ,S5,CA;S9,D3,D2,D10;C7,C6,S4,C3;HJ,HA,HQ,HK;H10,DA,SA,D7;H8,C4,H7,C10;H4,H2,S10,H5;H9,DK,SK,H3;H6,CJ,SQ,DQ"
1571967233,2,26,3,"C2,C8,C10,CK;CJ,C6,C4,CQ;S5,S9,S7,S2;D10,D3,D6,D9;DA,D8,D4,DQ;SJ,D2,S6,S10;DK,D5,SQ,DJ;SK,C5,S4,S8;SA,HA,H9,C9;C7,HQ,H8,C3;HJ,H10,H6,H4;D7,H7,H2,CA;S3,H3,H5,HK"
1571967233,2,9,3,"CQ,C2,DA,CJ;S7,S10,S6,S8;C10,C3,DJ,C8;SQ,D5,S4,CA;D3,D8,D4,D9;C4,C6,SJ,C7;D7,D2,S9,D10;DQ,C9,S5,D6;SA,CK,S2,DK;S3,C5,SK,HA;H6,HJ,HK,HQ;H4,H3,H8,H7;H2,H9,H5,H10"
1571967233,2,0,3,"C2,C5,C10,CJ;DQ,DJ,DA,D4;S3,S6,S7,S2;CQ,C3,C7,C9;S10,S8,S9,SQ;D7,D9,D5,D10;D6,D8,DK,D2;SJ,S5,SK,C6;C8,SA,S4,C4;HA,HQ,HK,H4;CA,H10,HJ,CK;D3,H5,H7,H2;H8,H9,H6,H3"
