1571916022,1,0,2,"C10,C2,C8,CJ;C5,S3,S6,SK;D6,D9,DA,DQ;D2,D5,DJ,DK;D10,D4,D7,D8;C3,CA,CK,CQ;C4,C6,C9,D3;C7,HA,S10,S9;HJ,S5,S7,SJ;H2,H6,H8,H9;H3,H7,HK,HQ;H4,S4,S8,SA;H10,H5,S2,SQ"
1571916022,1,14,2,"C2,C4,CA,CK;D6,D8,D9,DJ;D2,D3,D7,DQ;C6,C9,CJ,CQ;D4,D5,DA,DK;S10,S2,S9,SJ;C10,S6,S7,S8;C3,C5,C8,D10;C7,HA,SA,SK;H8,S3,S5,SQ;H2,H6,H7,HK;H3,H4,HJ,HQ;H10,H5,H9,S4"
1571916022,1,0,2,"C10,C2,C6,C7;S5,SA,SJ,SQ;D10,DJ,DK,DQ;C8,CJ,CQ,D8;S10,S3,S8,SK;C9,D4,D6,D7;C4,S2,S6,S9;C3,C5,CA,S7;CK,D3,D5,S4;H10,HA,HJ,HQ;H4,H6,H9,HK;D9,H2,H7,H8;D2,DA,H3,H5"
1571916022,1,0,2,"C2,C4,C6,CK;D10,D9,DA,DK;D6,D7,DJ,DQ;S2,S3,SA,SK;C3,D3,D4,D5;C7,C8,C9,S10;S5,S8,S9,SJ;HA,S4,S6,S7;C5,CA,HQ,SQ;C10,CJ,H10,H7;H4,H5,H9,HJ;CQ,H3,H6,H8;D2,D8,H2,HK"
1571916022,1,13,2,"C2,C6,C7,CJ;D3,D4,D5,D8;D10,D2,D7,SA;S10,S6,S8,SK;S5,S7,S9,SJ;S2,S3,S4,SQ;C10,C4,C8,HK;D6,D9,DA,H10;DK,H5,H9,HQ;CK,H4,H8,HJ;CA,DJ,H7,HA;C5,C9,H2,H6;C3,CQ,DQ,H3"
1571916022,1,3,2,"C2,C3,C9,CK;D10,D9,DJ,DQ;S4,S5,S6,SK;D2,D5,D6,D7;D3,D8,DA,DK;S10,S3,S9,SJ;C6,C7,CA,CQ;C8,HA,S7,SQ;C5,CJ,HK,S8;C10,C4,D4,H6;H2,H5,H9,HJ;H4,H8,HQ,SA;H10,H3,H7,S2"
1571916022,1,21,2,"C10,C2,C7,CK;D5,DA,DQ,S5;D10,D9,DK,SJ;S10,S2,S6,S8;D2,D7,D8,SA;C3,D4,D6,DJ;C4,S7,S9,SK;C5,CJ,S3,S4;C6,C9,CQ,H10;C8,CA,H9,SQ;H2,H7,H8,HQ;H3,H6,HA,HJ;D3,H4,H5,HK"
1571916022,1,1,2,"C10,C2,C9,CK;D8,D9,DK,DQ;D10,D3,D7,DJ;D2,D6,DA,S7;S5,S6,SJ,SQ;C8,CA,CJ,CQ;S10,S4,S9,SK;C4,C5,C7,SA;C3,C6,D5,HA;H9,HJ,HK,HQ;H10,H2,H3,H7;H5,H8,S2,S8;D4,H4,H6,S3"
1571916022,1,26,2,"C2,C4,CJ,CK;S10,S9,SA,SQ;D10,D6,DA,DK;D8,D9,DJ,DQ;S6,S7,S8,SK;S2,S4,S5,SJ;H2,H9,HA,HQ;C7,C9,HJ,HK;C6,H10,H6,S3;CA,D3,H7,H8;D2,D4,D5,H5;C5,C8,D7,H4;C10,C3,CQ,H3"
1571916022,1,0,2,"C2,C5,C6,C9;D6,D7,D8,DJ;D10,D3,DK,DQ;CA,CJ,CQ,D9;S10,S5,S9,SK;C7,CK,D2,D5;C10,C8,D4,S4;HQ,S7,SJ,SQ;DA,H10,S3,S8;H7,HA,HJ,HK;H2,H6,S2,SA;C4,H4,H8,S6;C3,H3,H5,H9"
1571916022,1,4,2,"C2,C9,CA,CQ;D4,DA,DJ,DQ;D6,D7,D9,DK;D10,D3,D5,S6;C10,C6,C7,CJ;C4,C5,CK,S10;D8,S5,S9,SJ;C3,C8,HQ,S4;HJ,S2,S7,SQ;H10,H3,H5,HA;D2,H6,H9,HK;H2,H7,H8,S8;H4,S3,SA,SK"
1571916022,1,1,2,"C10,C2,C4,C6;D3,D8,DA,DQ;S4,S5,S6,SA;D2,D5,D6,D9;D10,D4,D7,SJ;C9,DK,S7,S9;S3,S8,SK,SQ;C5,CA,CK,HQ;C3,C8,CJ,HJ;H5,H9,HA,HK;C7,H10,H2,H7;CQ,H3,H6,H8;DJ,H4,S10,S2"
1571916022,1,0,2,"C10,C2,C7,CA;D10,D7,D8,DJ;C5,C9,S4,SA;C8,CK,D2,DQ;S5,S8,SJ,SK;C3,C6,D5,S7;C4,CJ,DA,DK;D3,D4,S9,SQ;CQ,D6,HQ,S10;D9,H6,HA,S6;H5,H8,H9,HJ;H10,H4,HK,S3;H2,H3,H7,S2"
1571916022,1,1,2,"C2,C3,C4,C5;S10,S5,S9,SJ;D7,D9,DA,DQ;D2,D3,D5,D8;DJ,S2,S3,S8;D10,D4,D6,DK;C10,C8,CK,CQ;C7,C9,CA,S4;C6,HA,S6,SK;H10,HQ,SA,SQ;CJ,H6,H8,H9;H4,H5,H7,HJ;H2,H3,HK,S7"
1571916022,1,20,2,"C2,C4,C8,CK;S7,S9,SJ,SK;C6,C9,CJ,D4;C10,C3,C7,DK;D10,D6,D7,DQ;S10,S5,S6,S8;D5,D9,DA,DJ;D2,D3,D8,HA;CA,HQ,S4,SA;H6,H7,H8,HK;H3,H4,H5,HJ;CQ,H2,H9,S3;C5,H10,S2,SQ"
1571916022,1,19,2,"C2,C6,C8,C9;D6,DA,DJ,DQ;D10,D3,D8,DK;D2,D4,D5,D9;C7,CJ,D7,S4;C10,C5,CA,CQ;S10,S2,S9,SQ;S7,SA,SJ,SK;H6,H9,HA,HK;C4,CK,HJ,S8;H2,H4,H5,H7;C3,H3,H8,S6;H10,HQ,S3,S5"
1571916022,1,0,2,"C2,C6,C9,CK;D7,D9,DJ,DQ;C8,D4,D5,DA;C3,C4,C5,C7;S10,S9,SJ,SQ;D2,D8,DK,S8;CA,CJ,S5,S7;CQ,D3,S6,SK;C10,D10,S2,S4;D6,H7,HQ,S3;H5,HA,HJ,SA;H10,H4,H6,H8;H2,H3,H9,HK"
1571916022,1,8,2,"C2,CJ,CK,CQ;D2,D4,D7,DA;D6,D9,DK,S5;C5,C6,D8,DQ;D10,DJ,S8,SK;C9,CA,D5,SA;C4,C7,D3,S3;C10,C3,C8,HK;H10,HA,S4,SQ;H2,H4,S7,SJ;H3,HJ,S10,S9;H7,H8,HQ,S6;H5,H6,H9,S2"
1571916022,1,5,2,"C2,C7,CJ,CQ;D2,D5,DA,S6;D10,DK,DQ,S5;D3,D7,D8,SQ;C6,C9,CA,CK;C8,D6,D9,S3;C10,C3,C5,S2;S10,S8,SA,SJ;C4,D4,S7,S9;DJ,HQ,S4,SK;H10,H8,HA,HJ;H2,H6,H7,H9;H3,H4,H5,HK"
1571916022,1,0,2,"C10,C2,CA,CJ;D10,D8,DA,DQ;D3,D4,D9,DJ;D2,D5,D6,D7;C5,C9,CK,CQ;C4,C6,C7,S10;S9,SA,SJ,SK;S6,S7,S8,SQ;C3,DK,S2,S3;C8,HJ,S4,S5;H8,H9,HA,HK;H10,H4,H7,HQ;H2,H3,H5,H6"
1571916022,1,0,2,"C2,C4,C6,C8;S5,S6,S9,SQ;D10,DA,DJ,DK;D3,D7,D8,D9;CA,SA,SJ,SK;C5,C7,C9,CQ;D5,DQ,S2,S8;CJ,D2,D4,D6;C10,C3,CK,S4;H10,HA,HJ,HK;H7,HQ,S10,S3;H5,H6,H8,H9;H2,H3,H4,S7"
1571916022,1,12,2,"C2,C3,CA,CK;D10,D7,DA,DQ;D3,D8,DK,S2;D2,D6,DJ,S9;D4,D5,S10,S4;C6,C7,C8,SJ;S3,S5,S6,SA;C10,C5,C9,SK;D9,HK,S8,SQ;C4,CQ,H10,S7;H6,H8,H9,HJ;CJ,H2,H5,H7;H3,H4,HA,HQ"
1571916022,1,0,2,"C10,C2,CK,CQ;S10,S2,SJ,SK;D8,DA,DK,DQ;D10,D5,D9,DJ;C4,C6,C9,CJ;C3,C5,C7,C8;D3,D4,D7,S8;D6,S6,S7,S9;D2,S3,S4,S5;H9,HA,HK,HQ;H3,H7,H8,HJ;H2,H5,H6,SQ;CA,H10,H4,SA"
1571916022,1,1,2,"C10,C2,C9,CK;D5,D6,D7,DA;CJ,D8,D9,DQ;D2,D4,DJ,SK;D10,DK,S10,SA;C3,C4,C6,C7;S2,S3,S8,S9;C8,S6,S7,SQ;C5,CQ,H9,S5;H7,HA,HK,HQ;CA,H3,H5,H8;D3,H10,H2,H6;H4,HJ,S4,SJ"
1571916022,1,3,2,"C2,C4,C9,CQ;S6,S9,SK,SQ;S10,S5,S8,SJ;D10,D7,DJ,DQ;D3,D4,D5,D8;C10,C7,CA,CK;C6,CJ,D2,S2;C5,D6,D9,DK;C8,S4,S7,SA;H10,HA,HJ,HK;C3,DA,H9,HQ;H2,H4,H6,H7;H3,H5,H8,S3"
1571916022,1,13,2,"C2,C8,CA,CK;D10,D7,D8,D9;D2,D4,D6,DQ;C3,C5,C7,CQ;D3,D5,DA,DJ;S6,S7,S9,SJ;S10,S2,S5,SK;CJ,S4,SA,SQ;C10,C4,C6,C9;H7,HA,HK,HQ;H5,H9,S3,S8;DK,H3,H8,HJ;H10,H2,H4,H6"
1571916022,1,3,2,"C2,CA,CK,CQ;D9,DA,DJ,DQ;C3,C4,C7,C8;D5,D6,D8,DK;D10,D3,D4,D7;C9,CJ,D2,S10;C10,C6,S2,SA;S7,S8,S9,SK;HA,S5,SJ,SQ;C5,HQ,S3,S6;H10,H7,H8,HJ;H2,H3,H6,H9;H4,H5,HK,S4"
1571916022,1,4,2,"C10,C2,C4,CA;D7,D8,DK,DQ;S2,S4,SA,SJ;D3,D4,D9,S9;S3,S7,S8,SQ;C5,C6,C8,CQ;C7,C9,CJ,CK;C3,S10,S6,SK;H7,H9,HA,HK;D10,D2,HQ,S5;D5,DA,H6,H8;DJ,H3,H4,H5;D6,H10,H2,HJ"
1571916022,1,13,2,"C2,C6,C7,CA;D10,D3,D4,DJ;S10,S7,S8,SQ;S5,S6,S9,SJ;S2,S3,SA,SK;D2,D6,DK,DQ;C10,C3,C8,CK;C5,CQ,D5,D9;C4,D8,HK,S4;C9,CJ,D7,HQ;H4,H8,H9,HJ;H2,H5,H6,H7;DA,H10,H3,HA"
1571916022,1,13,2,"C2,C4,C5,CJ;D10,D3,D4,D8;D5,DA,DJ,DK;C10,C3,C8,CK;S3,S4,SA,SK;C7,CA,CQ,S6;S7,S8,SJ,SQ;C9,D2,S10,S9;C6,D6,DQ,HJ;H6,HA,HK,HQ;H4,H7,H8,H9;D7,H3,H5,S5;D9,H10,H2,S2"
1571916022,1,4,2,"C10,C2,C6,CQ;D2,D4,D8,DK;D3,D6,D7,D9;C9,CA,CJ,CK;D10,D5,DQ,SK;C4,C7,C8,SQ;C5,S3,S8,S9;C3,DJ,HA,SA;HQ,S5,S6,S7;H4,H5,H9,HK;H6,H7,H8,HJ;H3,S10,S4,SJ;DA,H10,H2,S2"
1571916022,1,3,2,"C2,C9,CJ,CQ;D3,D9,DA,DJ;D10,D2,D4,D8;D6,D7,DQ,S7;S4,S6,S8,S9;C10,C4,C8,CA;S10,S2,S5,SA;C5,C7,CK,SJ;C3,C6,SK,SQ;DK,HA,HQ,S3;H10,H7,HJ,HK;H2,H4,H6,H8;D5,H3,H5,H9"
1571916022,1,1,2,"C2,C5,C6,CA;D10,D2,D7,D9;S10,S5,S7,SQ;D8,DA,DJ,DQ;S4,S6,S8,SJ;CK,D3,D5,DK;C10,S3,S9,SA;C7,CJ,CQ,HA;C3,D4,D6,HQ;H3,H4,H6,H7;C8,H2,H8,H9;C4,C9,H10,HK;H5,HJ,S2,SK"
1571916022,1,3,2,"C10,C2,CK,CQ;D10,D6,D9,DK;D7,D8,DA,DQ;C8,C9,CJ,D4;S5,S7,SA,SK;CA,D5,DJ,S10;C6,D2,D3,S4;C4,C7,S3,S6;C5,HQ,S8,SJ;C3,H10,HK,SQ;H2,H4,H5,H6;H3,H7,H9,S9;H8,HA,HJ,S2"
1571916022,1,0,2,"C2,C6,C7,C9;S8,SA,SK,SQ;S3,S5,S7,SJ;D10,DJ,DK,DQ;D4,D6,D7,D8;C10,C3,CA,S4;C4,CJ,D2,D5;C5,DA,S10,S2;C8,D9,S6,S9;H8,HA,HK,HQ;H10,H6,H7,HJ;D3,H2,H5,H9;CK,CQ,H3,H4"
1571916022,1,1,2,"C2,C5,C6,CA;S7,S8,S9,SA;C3,C8,CK,CQ;C10,C7,CJ,D9;C9,D5,D7,D8;C4,D10,DJ,DK;S2,S4,S5,SQ;S3,S6,SJ,SK;D3,D4,DA,HA;H8,HJ,HK,HQ;D2,DQ,H10,H5;H2,H3,H9,S10;D6,H4,H6,H7"
1571916022,1,0,2,"C10,C2,C8,CA;D3,DA,DK,DQ;D10,D5,D8,D9;D2,D4,D7,DJ;D6,S4,SK,SQ;C5,C6,CJ,S2;C9,CQ,HK,SJ;H10,S10,S5,S9;C7,CK,H4,HJ;C3,H3,H7,H9;H6,H8,HQ,S8;H5,S3,S7,SA;C4,H2,HA,S6"
1571916022,1,0,2,"C2,C3,C4,C9;C5,C8,DQ,SJ;D10,D6,D7,DJ;D4,D5,D9,DK;S3,SA,SK,SQ;C6,D3,D8,S2;C7,D2,DA,S9;C10,CA,S5,S8;H4,HA,HK,HQ;H10,H2,H9,HJ;CJ,H3,H5,S7;CK,H6,H7,S6;CQ,H8,S10,S4"
1571916022,1,0,2,"C10,C2,C5,CK;D8,D9,DA,DK;D10,D2,D6,DQ;C4,C6,D7,DJ;D4,D5,S6,S8;C9,S4,SJ,SK;C7,C8,CA,D3;C3,CJ,CQ,S10;HJ,S2,S9,SQ;H10,H9,HA,HK;H4,H5,H6,H8;H3,HQ,S5,S7;H2,H7,S3,SA"
1571916022,1,10,2,"C2,C9,CJ,CQ;C4,C5,C7,CA;D3,DA,DK,DQ;D10,D8,D9,S6;S10,S7,S9,SJ;C10,C6,CK,D7;S2,S8,SK,SQ;C8,S3,S5,SA;D6,DJ,HA,S4;C3,D5,H9,HK;H2,H4,H6,HJ;H10,H3,H5,HQ;D2,D4,H7,H8"
1571916022,1,0,2,"C2,CA,CJ,CK;S2,SA,SJ,SK;D3,D8,DA,DQ;D10,D2,D6,DJ;C3,C4,C5,CQ;C7,C8,C9,S9;C10,C6,S4,S7;S10,S6,S8,SQ;D5,D7,S3,S5;H10,HA,HJ,HK;D4,D9,DK,H9;H2,H3,H6,H7;H4,H5,H8,HQ"
1571916022,1,4,2,"C10,C2,C8,CQ;D6,D8,D9,DA;D10,D2,D5,DJ;D4,D7,DQ,S4;S6,S8,S9,SA;C3,C7,CJ,CK;C4,C5,S3,SK;C9,CA,S10,SJ;C6,D3,S7,SQ;DK,H10,HA,S2;H8,H9,HK,S5;H3,H4,H6,HJ;H2,H5,H7,HQ"
1571916022,1,0,2,"C10,C2,C7,CJ;S10,S8,S9,SQ;D10,D6,DA,DK;D3,D5,D8,DQ;C4,C9,CK,CQ;C3,C5,C6,CA;C8,D2,D4,SJ;D7,DJ,S3,S6;D9,S4,S7,SK;HA,S2,S5,SA;H10,HJ,HK,HQ;H2,H3,H5,H8;H4,H6,H7,H9"
1571916022,1,20,2,"C2,C6,C9,D2;D10,DJ,DK,DQ;D8,D9,DA,S3;S10,S2,S4,SK;C7,C8,CQ,SQ;C10,D4,D7,S9;D5,D6,S7,SA;CJ,S6,S8,SJ;C4,CK,HQ,S5;C3,D3,H8,HJ;H10,H5,H7,HA;H3,H6,H9,HK;C5,CA,H2,H4"
1571916022,1,0,2,"C2,CA,CJ,CQ;D10,D9,DA,DK;C10,C5,C7,S9;D4,D5,D6,D7;C6,C9,CK,DJ;S4,S7,SK,SQ;S10,S2,S3,S6;C3,C8,D2,D8;D3,DQ,S8,SA;C4,HA,HK,S5;H10,H9,HQ,SJ;H3,H4,H5,HJ;H2,H6,H7,H8"
1571916022,1,0,2,"C2,C5,C8,C9;S9,SA,SK,SQ;D4,D7,D8,DA;D10,D3,DK,S6;C10,C4,C6,C7;S10,S3,S4,S7;CJ,D5,DJ,DQ;C3,CA,CK,CQ;HA,HJ,HK,HQ;D2,D6,H8,S2;H3,S5,S8,SJ;D9,H6,H7,H9;H10,H2,H4,H5"
1571916022,1,13,2,"C2,C4,CA,CK;D10,D7,DA,DK;S7,S9,SJ,SQ;C10,C3,C6,CQ;D4,D5,D6,DJ;D2,D9,S6,SA;D8,DQ,S5,S8;C8,C9,CJ,S2;C7,D3,S10,S3;H10,HA,HK,HQ;H6,H8,H9,HJ;H2,H3,H4,S4;C5,H5,H7,SK"
1571916022,1,14,2,"C10,C2,C8,CK;D9,DA,DK,DQ;D10,D7,D8,DJ;CQ,D2,D3,D4;C4,C5,C6,C9;S4,S5,SK,SQ;C3,C7,CJ,SJ;D5,S10,S6,SA;CA,D6,HK,S8;H10,H7,HA,HQ;H5,H6,S7,S9;H2,H4,H9,HJ;H3,H8,S2,S3"
1571916022,1,7,2,"C2,C7,C8,CK;D5,DA,DJ,DQ;D10,D7,D8,DK;C10,CA,D2,S3;S9,SA,SJ,SQ;C9,CQ,S10,SK;S2,S4,S5,S6;C6,D3,D6,S7;C5,D4,HA,S8;C4,CJ,D9,HJ;H3,H4,H7,HK;H10,H5,H9,HQ;C3,H2,H6,H8"
1571916022,1,0,2,"C2,C5,CA,CK;D2,D5,D6,DJ;D4,D7,D8,DK;S6,S7,S8,SJ;C10,C6,CJ,CQ;C9,D3,DA,DQ;C8,D10,SA,SK;S10,S4,S9,SQ;C3,C7,S3,S5;C4,D9,HK,S2;H10,HA,HJ,HQ;H3,H5,H6,H8;H2,H4,H7,H9"
1571916022,1,0,2,"C2,CJ,CK,CQ;S10,S4,S9,SQ;D10,D4,DK,DQ;D5,D6,D7,D8;S3,S7,SJ,SK;CA,D3,D9,DJ;C3,C5,S2,SA;C10,C6,D2,S6;C4,C9,DA,S8;C7,C8,H10,HA;H5,H9,HJ,HK;H3,H4,H7,HQ;H2,H6,H8,S5"
1571916022,1,15,2,"C2,C9,CJ,CK;D2,D4,D5,DA;D10,D3,D8,D9;C4,C5,C7,C8;S2,S3,S5,SK;C6,CQ,SA,SQ;C3,D6,DQ,S4;CA,S10,S8,SJ;C10,S6,S7,S9;D7,DJ,HA,HJ;H10,H9,HK,HQ;DK,H5,H7,H8;H2,H3,H4,H6"
1571916022,1,7,2,"C2,C7,CA,S8;D8,DJ,DK,DQ;C3,C4,D10,D9;C5,CJ,D6,D7;S5,SA,SK,SQ;D4,D5,S3,S4;C6,D2,D3,SJ;C10,S10,S7,S9;CK,CQ,DA,HA;C8,C9,HK,S2;H4,H8,H9,HQ;H2,H3,H7,HJ;H10,H5,H6,S6"
1571916022,1,0,2,"C2,C7,CJ,CK;S10,S9,SA,SK;D9,DA,DJ,DQ;D10,D5,D8,DK;C10,C4,C9,CA;S2,S4,SJ,SQ;D3,D4,D7,S5;C3,C5,C8,HK;C6,CQ,D6,HQ;H10,S3,S7,S8;H6,H8,H9,HA;D2,H2,H4,H7;H3,H5,HJ,S6"
1571916022,1,9,2,"C2,C3,C4,C5;S4,S6,S8,SA;D10,D9,DA,DK;D4,S10,S7,SQ;D2,D3,D5,SJ;CA,CJ,D8,DJ;C6,C9,CK,S9;C10,C8,CQ,S3;C7,D6,DQ,S2;D7,H9,HQ,SK;H6,HJ,HK,S5;H10,H2,H7,H8;H3,H4,H5,HA"
1571916022,1,0,2,"C2,C9,CJ,CQ;S7,S8,SJ,SK;D3,DA,DJ,DK;D10,S6,S9,SA;D7,S4,S5,SQ;C4,D4,S10,S3;C10,CA,CK,D9;C6,C7,C8,S2;H10,HA,HJ,HK;C5,D2,D6,HQ;C3,D5,H5,H8;DQ,H6,H7,H9;D8,H2,H3,H4"
1571916022,1,6,2,"C10,C2,C4,CK;S10,S8,SJ,SQ;C3,D10,D3,D8;C6,D2,D7,D9;C9,D4,D6,DJ;C5,C7,C8,CJ;CA,CQ,S2,S9;D5,DA,S7,SK;DQ,HA,S4,SA;DK,HJ,S3,S6;H5,H7,HK,HQ;H10,H3,H4,H9;H2,H6,H8,S5"
1571916022,1,0,2,"C2,C9,CA,CK;S10,S7,S9,SA;D4,D6,D7,D8;D10,D2,D3,DK;C10,C3,C5,S5;C7,C8,CJ,S6;C4,C6,CQ,SJ;D5,D9,DQ,SQ;DA,S2,S8,SK;H10,HA,S3,S4;H7,H9,HK,HQ;H4,H5,H8,HJ;DJ,H2,H3,H6"
1571916022,1,1,2,"C2,C6,C7,C9;D10,D4,D9,DQ;D3,D5,D6,D7;D2,DA,DJ,DK;S7,S8,SK,SQ;S10,S2,S5,S9;D8,S6,SA,SJ;C10,C5,CJ,HK;CA,HJ,S3,S4;H10,H3,HA,HQ;C3,C4,CQ,H9;H4,H5,H6,H8;C8,CK,H2,H7"
1571916022,1,6,2,"C2,C8,C9,CA;D6,D9,DJ,DQ;D4,D7,D8,S7;S2,S6,SA,SK;C5,D10,D5,DK;C3,C4,CJ,CK;C10,C7,D3,S4;C6,CQ,D2,DA;HK,S3,S5,SQ;H10,HJ,S10,SJ;H6,H8,HA,HQ;H2,H3,H4,H5;H7,H9,S8,S9"
1571916022,1,13,2,"C2,CA,CJ,CK;D6,DA,DK,DQ;D10,D4,D7,DJ;D2,D3,D5,D8;S10,S2,S9,SQ;C8,C9,CQ,S5;C10,C6,C7,S4;C3,C4,C5,SK;D9,S3,SA,SJ;H10,HA,S7,S8;H5,H7,HQ,S6;H2,H6,HJ,HK;H3,H4,H8,H9"
1571916022,1,6,2,"C10,C2,C5,C8;D5,D7,D9,DQ;D10,D2,D4,D8;C3,D6,DJ,DK;S2,S5,SK,SQ;C9,DA,S8,S9;C4,CJ,CK,S6;C7,CA,CQ,S4;HA,S10,S3,SA;D3,HK,HQ,SJ;H10,H4,H5,H9;H2,H6,H8,HJ;C6,H3,H7,S7"
1571916022,1,2,2,"C2,C6,C9,CQ;D6,DA,DK,DQ;D10,D3,D5,D9;D8,DJ,SA,SK;S10,S3,S8,S9;C10,C5,CJ,SJ;S2,S4,S6,S7;C7,C8,CK,HA;C3,C4,CA,HQ;H3,H4,H8,H9;D7,H2,H7,HJ;D4,H10,H5,HK;D2,H6,S5,SQ"
1571916022,1,12,2,"C10,C2,C6,CA;D10,D7,DA,DK;C4,C7,C8,CJ;D3,D5,D9,DJ;D2,D4,D6,DQ;C3,C9,CK,CQ;S8,S9,SK,SQ;S10,S6,S7,SJ;H9,HA,HK,HQ;HJ,S4,S5,SA;H10,H2,H3,H5;H6,H7,S2,S3;C5,D8,H4,H8"
1571916022,1,0,2,"C2,C5,C6,C7;S2,S5,SK,SQ;D10,D6,D8,DK;C3,C9,CA,CQ;CJ,D7,D9,DQ;S4,S8,SA,SJ;CK,D4,D5,DJ;C10,C4,C8,S7;HQ,S3,S6,S9;D3,DA,HJ,S10;H3,H4,H6,HA;H10,H5,H7,H8;D2,H2,H9,HK"
1571916022,1,26,2,"C2,C6,CA,CJ;D10,D7,DJ,DK;D6,S6,S8,S9;C10,C4,C5,CK;C9,S3,S5,S7;C7,D5,SA,SK;C3,D4,D9,DQ;C8,CQ,D3,HA;D2,DA,HK,HQ;H10,H4,S10,SJ;D8,H6,H8,S2;H3,H5,H9,S4;H2,H7,HJ,SQ"
1571916022,1,6,2,"C2,C3,CJ,CQ;S4,S9,SA,SQ;D8,DA,DK,DQ;D3,D4,D6,D9;S6,S7,S8,SJ;D10,D2,D5,DJ;C10,C7,CK,S5;C4,C5,CA,S3;H7,HA,HK,HQ;C6,C9,HJ,S2;H5,H6,S10,SK;H10,H3,H4,H8;C8,D7,H2,H9"
1571916022,1,6,2,"C10,C2,CK,CQ;D10,D2,D5,DA;CA,D4,D7,D8;C4,C6,C8,C9;C3,C5,C7,S4;S10,S9,SK,SQ;HQ,S2,S5,S8;H10,S7,SA,SJ;H8,H9,HJ,HK;CJ,DQ,H4,H7;D3,DK,H2,H3;D9,DJ,H5,S6;D6,H6,HA,S3"
1571916022,1,0,2,"C2,C5,C8,CQ;D10,D2,D8,DQ;D3,DA,DJ,DK;C4,C9,CJ,S10;S3,S6,S7,S8;S5,S9,SA,SK;C6,CA,S2,SQ;C10,D6,D9,HQ;C7,D5,D7,H10;CK,H4,H5,H9;C3,H2,H8,S4;H7,HA,HJ,HK;D4,H3,H6,SJ"
1571916022,1,4,2,"C2,C6,CA,CK;S7,S9,SJ,SQ;S10,S2,S3,S5;C10,C3,C8,C9;D10,S6,S8,SA;D6,D7,D9,DJ;C4,C5,D8,DA;CQ,D4,D5,DQ;D2,D3,S4,SK;CJ,DK,HK,HQ;C7,H9,HA,HJ;H4,H6,H7,H8;H10,H2,H3,H5"
1571916022,1,10,2,"C2,C7,C8,C9;S2,S4,S9,SA;D2,DJ,DK,DQ;D4,D8,D9,S6;CA,D5,D6,D7;S5,SJ,SK,SQ;D3,S10,S7,S8;C10,C4,C5,CJ;C6,CQ,HK,S3;H7,HA,HJ,HQ;C3,H6,H8,H9;CK,H10,H4,H5;D10,DA,H2,H3"
1571916022,1,6,2,"C2,C5,C7,CK;S10,S5,S6,SA;D10,D7,DA,DJ;D2,D4,D8,S9;C3,C4,C6,C8;S3,SJ,SK,SQ;CQ,DK,S4,S7;CA,D3,S2,S8;C10,CJ,D5,HA;H8,H9,HK,HQ;H2,H5,H6,HJ;C9,DQ,H10,H4;D6,D9,H3,H7"
1571916022,1,3,2,"C10,C2,C7,CK;D9,DA,DK,DQ;D10,D4,D7,D8;S4,S6,SK,SQ;S2,S3,SA,SJ;C3,C4,C5,C9;CJ,D2,D6,S7;CA,D5,DJ,S10;C6,C8,D3,HQ;CQ,H10,HJ,S9;H5,H8,H9,HK;H2,H3,H4,S8;H6,H7,HA,S5"
1571916022,1,1,2,"C10,C2,C6,CA;D2,D3,D9,DJ;S4,S5,SJ,SQ;C3,C7,C8,CQ;C5,DA,DK,DQ;C4,D5,D6,D7;CK,D10,D4,S9;C9,CJ,S10,S7;H10,S3,S6,SK;H8,S2,S8,SA;H3,H4,H6,HQ;H5,H7,HJ,HK;D8,H2,H9,HA"
1571916022,1,26,2,"C10,C2,CA,CQ;D10,D7,DA,DQ;D3,D5,D6,D9;C5,D2,D4,D8;C3,C6,C7,C9;C8,CK,S3,SJ;C4,CJ,S7,S9;DK,HK,SA,SQ;DJ,HQ,S4,S8;H6,H9,HA,HJ;H10,H4,H5,H8;H3,S10,S5,S6;H2,H7,S2,SK"
1571916022,1,6,2,"C2,C4,C5,CA;D10,D3,D8,D9;D2,D5,DA,DK;S2,S6,SJ,SQ;D4,DJ,DQ,S3;C6,C8,CK,CQ;C3,CJ,S7,SK;C10,D6,S5,S8;C9,D7,HK,S4;C7,H7,HA,S10;H10,H4,H5,H9;H3,H6,H8,HQ;H2,HJ,S9,SA"
1571916022,1,2,2,"C2,C7,C8,CJ;D2,D7,D8,DQ;C9,DA,DJ,DK;C10,C3,C4,C5;CK,D10,D5,SJ;C6,D6,D9,SQ;CQ,D4,S6,S7;D3,HA,S3,S9;HJ,HK,S8,SK;H5,H6,H9,SA;H2,H3,H4,S5;CA,H7,HQ,S4;H10,H8,S10,S2"
1571916022,1,13,2,"C2,C3,CK,CQ;DA,DJ,DK,DQ;C10,C4,C5,CJ;D10,D4,D6,D7;C6,C7,C9,D8;C8,CA,D2,S2;S5,S6,SJ,SQ;S10,S3,S7,S8;D5,D9,HA,HK;H9,HQ,S9,SA;H2,H3,H6,HJ;D3,H10,H7,H8;H4,H5,S4,SK"
1571916022,1,0,2,"C10,C2,C7,C8;D10,D2,D3,D5;S5,S9,SA,SQ;C3,C6,CA,CK;C4,CJ,CQ,D6;C9,D4,S10,S3;C5,D7,D8,D9;S6,S8,SJ,SK;DJ,DK,DQ,S4;DA,HA,HQ,S2;H10,H7,HJ,HK;H3,H6,H8,H9;H2,H4,H5,S7"
1571916022,1,13,2,"C10,C2,C9,CJ;S2,S5,S7,SA;D10,D3,D6,D9;D2,D5,D7,D8;C7,C8,CK,CQ;C5,C6,CA,SJ;C4,D4,DK,DQ;DA,DJ,SK,SQ;S10,S4,S6,S8;H10,HA,HJ,HQ;C3,H8,H9,S3;H4,H5,H7,HK;H2,H3,H6,S9"
1571916022,1,6,2,"C10,C2,C9,CK;D10,D8,DK,DQ;D2,D6,D7,DJ;C5,S6,S9,SK;D3,D5,D9,S4;C7,C8,CA,CJ;DA,S2,S5,S8;C6,CQ,S10,SQ;C4,D4,SA,SJ;HA,HJ,HK,HQ;H10,H2,H6,H8;C3,H4,H5,H7;H3,H9,S3,S7"
1571916022,1,0,2,"C2,C4,CA,CK;D6,DJ,DK,DQ;D10,D2,D3,D8;C6,D7,D9,DA;C10,C7,CQ,S9;D4,D5,SA,SK;C3,C8,CJ,S7;C5,C9,HK,S6;H10,HQ,S8,SQ;H8,H9,HA,S5;H3,H4,HJ,S4;H2,H7,S2,SJ;H5,H6,S10,S3"
1571916022,1,2,2,"C2,C5,C6,C7;S5,S7,S8,S9;S3,SA,SJ,SK;CK,D10,S10,SQ;C4,C9,CA,CQ;D5,D8,DJ,DQ;C10,D2,D4,D7;C8,CJ,D9,DA;C3,DK,S4,S6;D3,HJ,HQ,S2;H10,H9,HA,HK;D6,H2,H3,H6;H4,H5,H7,H8"
1571916022,1,23,2,"C10,C2,C9,CK;S2,S6,S9,SK;D3,D6,D7,DJ;D10,D5,D8,D9;C6,C8,CJ,DK;S4,S7,S8,SJ;C7,CA,CQ,DA;HK,S10,S3,S5;C3,C5,DQ,HJ;H8,HA,SA,SQ;H10,H6,H7,H9;H2,H3,H5,HQ;C4,D2,D4,H4"
1571916022,1,2,2,"C2,C3,C6,CK;D7,D8,D9,DA;D4,D5,D6,DK;D2,DQ,S4,S6;DJ,S8,S9,SJ;C7,C8,CJ,D10;D3,HK,S2,SA;C10,CA,CQ,HJ;H6,H7,H8,HQ;C4,C9,H4,SK;H5,H9,HA,S10;C5,H3,S5,SQ;H10,H2,S3,S7"
1571916022,1,26,2,"C2,C3,C4,CK;C9,DJ,DK,DQ;C10,D10,D5,D8;C7,D2,D3,DA;S10,S9,SJ,SQ;S4,S6,S8,SK;S2,S3,S7,SA;CA,CQ,D6,D7;C8,CJ,D4,S5;C6,HA,HK,HQ;C5,H10,H7,H8;H3,H6,H9,HJ;D9,H2,H4,H5"
1571916022,1,5,2,"C2,C4,C6,CJ;S5,S9,SA,SQ;D4,D8,D9,DA;D3,D7,DJ,DQ;D10,D2,D6,DK;S2,S3,S6,SJ;CA,CK,CQ,D5;C10,C7,C8,C9;C3,C5,S10,S4;HA,HQ,S7,SK;H10,H8,HK,S8;H2,H5,H9,HJ;H3,H4,H6,H7"
1571916022,1,17,2,"C10,C2,C5,C9;D10,DJ,DK,DQ;D7,D8,DA,SJ;C7,C8,CA,CJ;S2,S5,SK,SQ;S4,S6,S8,S9;D6,S10,S3,SA;H8,HA,HK,HQ;D2,D4,D5,HJ;H3,H4,H6,H9;C6,H5,H7,S7;C4,CQ,D3,H2;C3,CK,D9,H10"
1571916022,1,2,2,"C10,C2,C5,C8;D2,D3,D5,DJ;CA,D8,DK,DQ;S3,S6,S9,SJ;CJ,CK,CQ,SA;C6,C9,S2,S7;C4,C7,D10,DA;C3,D4,D6,D7;D9,HA,S5,SK;H10,HK,S10,S8;H3,H5,H6,HQ;H4,H8,H9,SQ;H2,H7,HJ,S4"
1571916022,1,0,2,"C2,C4,C8,CQ;C10,C3,CA,CJ;C6,C9,CK,DQ;S5,S6,S8,S9;D9,DA,DJ,DK;C5,C7,D10,SQ;H7,HA,HJ,HK;HQ,S10,S2,S7;H6,S4,SA,SJ;D3,H3,H5,S3;D4,D7,D8,H10;D2,D6,H8,SK;D5,H2,H4,H9"
1571916022,1,0,2,"C2,C6,CA,CJ;C10,C3,C7,C9;D2,D9,DA,DK;D4,D6,DJ,DQ;D10,D3,D5,S4;S10,S8,S9,SJ;S2,S6,S7,SQ;C8,CQ,SA,SK;C5,CK,D7,S5;C4,H10,HJ,S3;D8,H7,H8,HA;H5,H6,H9,HQ;H2,H3,H4,HK"
1571916022,1,3,2,"C2,C4,CA,CQ;D7,DA,DJ,DK;D2,D3,D5,D8;C8,C9,CJ,CK;C10,C6,C7,SJ;C3,C5,DQ,SK;D10,D9,S7,S8;S10,S2,S5,SA;D6,HQ,S4,S6;D4,HJ,S9,SQ;H10,H7,H9,HK;H4,H5,H6,H8;H2,H3,HA,S3"
1571916022,1,0,2,"C2,C8,C9,CK;D5,DA,DJ,DQ;D10,D7,D8,DK;C6,D4,D6,D9;C7,D2,D3,S8;S2,S7,SA,SQ;C4,CA,CJ,CQ;S10,S6,S9,SK;S3,S4,S5,SJ;C10,C3,C5,HK;H10,H7,HA,HJ;H3,H4,H5,H9;H2,H6,H8,HQ"
1571916022,1,0,2,"C2,C3,C6,CA;D10,D7,DK,DQ;C8,C9,CK,D6;D3,D5,D8,DJ;CJ,CQ,D2,D4;C10,C7,S2,S5;S8,SA,SK,SQ;C4,D9,DA,SJ;S10,S4,S6,S9;H10,H9,HA,HK;C5,HQ,S3,S7;H3,H6,H8,HJ;H2,H4,H5,H7"
1571916022,1,0,2,"C10,C2,C3,CK;D2,D9,DJ,DK;D10,D6,DQ,SK;CA,D4,D8,DA;S8,S9,SA,SQ;C4,C5,C6,CJ;CQ,D3,D7,S3;D5,S10,S5,SJ;C7,C8,C9,HK;H9,HA,HJ,HQ;H10,H3,H4,H7;H6,H8,S2,S7;H2,H5,S4,S6"
1571916022,1,0,2,"C2,CA,CJ,CQ;D10,D5,D7,D8;D6,D9,DA,DQ;S2,S4,S6,SA;C3,C7,C8,C9;C10,C5,C6,S8;C4,S10,S9,SK;D2,HA,S7,SQ;DJ,H9,S3,S5;D4,H8,HK,SJ;H5,H6,HJ,HQ;D3,H10,H4,H7;CK,DK,H2,H3"
1571916022,1,26,2,"C2,C4,C7,C9;D10,DA,DJ,DK;D5,D7,D9,DQ;S2,S4,S5,S7;S10,S3,S9,SA;CK,D2,D3,D8;C10,C8,CQ,S6;C5,D4,D6,SJ;CA,H6,HA,S8;CJ,H5,HK,SQ;C6,H4,H7,HJ;C3,H10,H2,SK;H3,H8,H9,HQ"
1571916022,1,0,2,"C2,CA,CK,CQ;D10,D4,D9,DQ;D3,D6,DA,DJ;S8,SA,SK,SQ;C7,C8,D5,D8;C3,D2,S10,SJ;C10,C9,S7,S9;C6,HK,S2,S6;C4,C5,H10,S5;H8,H9,HJ,HQ;H5,H6,H7,HA;D7,H2,H3,S4;CJ,DK,H4,S3"
1571916022,1,1,2,"C2,C6,C9,CQ;D6,DA,DK,DQ;S4,S8,SA,SQ;C10,CA,CJ,S2;C8,D2,D7,D8;D10,S5,S6,SJ;C7,CK,HA,S7;C5,D4,D9,HK;H5,H6,H7,HQ;C4,DJ,H4,H8;C3,H2,S9,SK;D3,H9,HJ,S10;D5,H10,H3,S3"
1571916022,1,17,2,"C2,C6,CJ,CK;D10,D8,D9,DJ;S3,S5,SK,SQ;D4,D5,D6,SJ;C4,C5,C9,CQ;C10,C7,C8,D7;DQ,S10,S9,SA;D2,S2,S4,S7;C3,DA,S6,S8;CA,DK,H7,H9;D3,H6,H8,HK;H3,H4,HA,HQ;H10,H2,H5,HJ"
1571916022,1,6,2,"C2,C3,CA,CK;D10,D3,D6,DQ;D2,D9,DA,DK;D7,D8,S5,SA;C8,D4,D5,S7;C4,C5,C7,C9;S10,S2,SJ,SQ;CQ,S4,S6,S8;C10,CJ,HA,S3;HJ,HK,S9,SK;H5,H6,H8,HQ;H10,H2,H3,H7;C6,DJ,H4,H9"
1571916022,1,0,2,"C10,C2,CK,CQ;D3,D4,DK,DQ;D10,D7,D9,DA;C4,D2,D6,D8;C8,CA,CJ,S5;S7,SA,SJ,SK;S2,S8,S9,SQ;C3,C7,C9,D5;C5,C6,S3,S4;DJ,HA,S10,S6;H10,H8,HJ,HK;H6,H7,H9,HQ;H2,H3,H4,H5"
1571916022,1,0,2,"C10,C2,CA,CJ;D8,D9,DJ,DQ;D10,D6,DA,DK;S2,S8,SA,SQ;D2,D3,D4,S3;C5,C6,C8,CQ;S10,S5,S7,SJ;C4,S4,S6,SK;D5,D7,HA,S9;CK,H10,HJ,HK;C3,H3,H6,HQ;C7,H2,H5,H7;C9,H4,H8,H9"
1571916022,1,0,2,"C10,C2,CJ,CQ;D5,D8,DJ,DQ;D10,D2,DA,DK;C4,C5,C8,CK;C3,C6,CA,D9;D4,D7,S5,SQ;C7,D3,D6,S7;S4,S9,SA,SJ;C9,HQ,S10,S8;H9,HA,S3,SK;H3,H5,H7,HK;H10,H2,H6,HJ;H4,H8,S2,S6"
1571916022,1,0,2,"C2,CK,CQ,S10;D2,D7,D9,DJ;D4,D5,DA,DQ;S9,SA,SJ,SK;C9,CA,CJ,D6;S3,S5,S6,S7;C8,D10,D3,DK;C10,C3,C7,S4;C5,C6,S2,S8;C4,D8,HQ,SQ;H10,HA,HJ,HK;H2,H3,H7,H9;H4,H5,H6,H8"
1571916022,1,9,2,"C2,C7,CJ,CK;D10,D2,DJ,DQ;D4,D5,D7,D9;D3,D8,DA,S5;S7,SA,SJ,SQ;C5,S10,S6,S8;C10,CA,D6,DK;HA,S3,S4,S9;C8,CQ,H9,SK;C6,H10,H4,HJ;C4,H2,H8,HQ;C3,C9,H3,H6;H5,H7,HK,S2"
1571916022,1,0,2,"C2,C8,CA,CQ;S9,SA,SJ,SK;D10,D9,DK,DQ;C5,S10,S4,S7;C3,D3,D6,D7;CJ,D4,D5,DA;C10,D2,DJ,S3;C4,C6,C9,SQ;D8,HA,S5,S8;C7,HK,HQ,S6;H10,H5,H7,H9;H3,H4,H6,H8;CK,H2,HJ,S2"
1571916022,1,1,2,"C10,C2,C3,C7;S3,S5,S8,SA;D10,D2,D9,DK;S2,S9,SJ,SK;C5,C6,C9,CQ;D5,D6,D8,DQ;C8,CA,D3,D4;C4,CK,DA,HA;CJ,HK,S4,S7;H10,H5,HJ,HQ;H4,H7,H9,SQ;DJ,H6,H8,S6;D7,H2,H3,S10"
1571916022,1,8,2,"C2,CA,CJ,CQ;S4,S7,S8,SK;D4,D6,DK,DQ;CK,D10,D2,D3;C10,C6,C8,C9;C5,D5,D7,S5;C3,C4,C7,DJ;S10,S6,SA,SQ;HJ,S3,S9,SJ;D8,DA,H7,HK;H10,H4,HQ,S2;D9,H3,H8,H9;H2,H5,H6,HA"
1571916022,1,20,2,"C10,C2,C8,CQ;S2,S7,S8,S9;D2,D7,DA,DQ;D10,D6,D8,DJ;C7,C9,CA,CJ;D5,DK,S10,S6;D4,S4,S5,SQ;C4,C5,C6,D9;CK,D3,HQ,SJ;C3,H10,S3,SA;H5,H6,H9,HK;H4,H8,HA,HJ;H2,H3,H7,SK"
1571916022,1,2,2,"C2,C6,C9,CK;D2,D5,D9,DA;D3,DJ,DK,S4;D8,DQ,S2,S6;C10,CJ,D10,S3;C5,C7,D7,S5;D6,S7,SA,SK;C8,CA,CQ,D4;C3,C4,HJ,S10;H10,HA,SJ,SQ;H2,H6,H9,HQ;H3,H4,H5,H7;H8,HK,S8,S9"
1571916022,1,22,2,"C10,C2,C7,C9;D7,D8,DJ,DK;D2,D4,D6,DQ;D10,D3,DA,S5;S10,S2,SA,SQ;C4,S3,S9,SJ;CQ,S6,S7,S8;C5,D9,S4,SK;C3,CA,CK,D5;H10,H9,HA,HK;C6,CJ,H8,HQ;H3,H4,H7,HJ;C8,H2,H5,H6"
1571916022,1,13,2,"C2,C7,CA,CQ;D10,D2,D4,D9;D8,DA,DJ,DK;D5,D6,D7,S6;S2,S4,S8,SK;C10,C5,C9,CJ;C3,C4,C6,DQ;CK,S9,SJ,SQ;C8,S10,S5,SA;H6,HA,HJ,HK;H10,H3,H9,HQ;H4,H5,H8,S7;D3,H2,H7,S3"
1571916022,1,9,2,"C2,CA,CJ,CQ;C5,C7,C8,CK;D10,D5,D8,D9;D6,D7,DJ,DQ;C10,C3,C9,D3;S4,S8,S9,SQ;S10,S2,S6,SA;C6,D2,DA,S3;C4,S5,SJ,SK;DK,HA,HK,S7;D4,H10,H7,HJ;H2,H5,H6,H8;H3,H4,H9,HQ"
1571916022,1,13,2,"C2,C5,C8,CJ;C7,CK,CQ,S9;S10,S7,S8,SK;D5,D7,DJ,DQ;C3,C6,CA,SA;D10,D2,D3,D6;C4,C9,D4,DA;C10,DK,S6,SQ;H10,S2,S5,SJ;D8,D9,H8,S4;H6,HA,HJ,HQ;H4,H5,H7,HK;H2,H3,H9,S3"
1571916022,1,0,2,"C2,C4,C9,CK;D5,D7,DA,DQ;D10,D4,D6,DJ;C8,D3,D8,D9;C5,D2,DK,S4;S8,S9,SJ,SQ;C3,C6,CQ,S7;C10,CA,CJ,HA;HQ,S2,S5,SA;H7,S10,S3,SK;H10,H9,HJ,HK;H4,H5,H6,H8;C7,H2,H3,S6"
1571916022,1,0,2,"C2,C8,CK,CQ;D10,DA,DJ,DK;D3,D8,D9,DQ;S10,S7,S8,S9;S3,S4,SK,SQ;CJ,D7,S5,SA;D4,D5,S2,S6;C10,C4,C5,SJ;C9,CA,D2,D6;H10,H6,HA,HJ;H5,H8,H9,HK;C6,H3,H7,HQ;C3,C7,H2,H4"
1571916022,1,0,2,"C2,C4,C7,CA;D10,D9,DK,DQ;D3,D5,D8,DJ;D2,D6,D7,S4;C8,D4,DA,S7;S2,S8,S9,SQ;C5,CJ,CK,CQ;S10,S5,SJ,SK;C3,S3,S6,SA;H3,H9,HA,HJ;C6,H7,H8,HK;C10,H4,H6,HQ;C9,H10,H2,H5"
1571916022,1,17,2,"C2,C5,C6,CA;D5,D6,DA,DQ;D10,D2,D9,DK;D3,D8,DJ,SK;D4,D7,S2,SQ;C10,CJ,CK,CQ;C8,C9,S7,S9;C3,C7,S10,S8;HA,S3,S4,SJ;HJ,HK,S6,SA;C4,H10,H4,H8;H3,H5,H6,H7;H2,H9,HQ,S5"
1571916022,1,4,2,"C2,C3,C8,CA;D7,DJ,DK,DQ;S4,S5,S7,S8;D10,D2,D9,DA;S10,S6,S9,SK;C6,CJ,CQ,D5;C4,C7,C9,D4;C5,D3,S3,SQ;CK,D8,HA,SJ;C10,HK,S2,SA;H10,H3,HJ,HQ;H5,H7,H8,H9;D6,H2,H4,H6"
1571916022,1,13,2,"C2,C7,C8,C9;S10,S4,SA,SK;D3,D7,D9,DQ;DA,DJ,DK,S3;C10,C6,CA,CJ;C4,C5,CQ,D4;C3,CK,S2,SQ;D2,D5,S6,S7;HQ,S5,S8,S9;D6,HJ,HK,SJ;H10,H5,H9,HA;D8,H4,H7,H8;D10,H2,H3,H6"
1571916022,1,0,2,"C10,C2,C3,CA;C7,C8,C9,CK;S6,S7,S8,S9;S3,S5,SK,SQ;D6,D8,DJ,DQ;D10,D4,D5,DK;D3,D7,S4,SJ;C5,D2,DA,S10;CJ,CQ,HQ,S2;H2,HA,HJ,HK;D9,H10,H5,H9;C4,H4,H7,H8;C6,H3,H6,SA"
1571916022,1,0,2,"C2,C8,CA,CK;D2,D6,D9,DK;D10,D5,D8,DA;S10,SA,SK,SQ;C10,D7,DQ,S6;S2,S7,S8,S9;C3,CQ,D3,DJ;C7,C9,CJ,HK;C6,D4,H7,S5;H3,HA,HJ,HQ;H10,H2,H9,SJ;C5,H5,H6,H8;C4,H4,S3,S4"
1571916022,1,6,2,"C10,C2,C8,C9;C3,CA,CJ,CK;D2,D8,DA,DJ;D7,DK,DQ,S7;CQ,D10,D5,S10;D9,S2,S8,S9;C4,D6,S4,S6;D4,S5,SA,SJ;C5,C6,D3,HA;HJ,HQ,SK,SQ;H10,H7,H8,H9;H3,H4,H5,HK;C7,H2,H6,S3"
1571916022,1,13,2,"C2,C7,CA,CK;D10,D9,DJ,DQ;C10,C4,CJ,CQ;C3,C5,C6,C8;S10,S8,SK,SQ;D3,S9,SA,SJ;D5,D8,DK,S7;D2,D4,D6,S6;DA,HK,S2,S4;C9,HA,HJ,S5;H5,H7,H8,H9;D7,H10,H4,H6;H2,H3,HQ,S3"
1571916022,1,0,2,"C10,C2,C4,C7;D7,D9,DJ,DQ;C8,C9,CA,CJ;S4,S7,S8,SQ;D10,D4,D6,DA;C3,C6,DK,S10;S3,S9,SA,SK;CQ,D3,D8,SJ;D2,D5,S2,S5;H10,HA,HQ,S6;CK,H4,H9,HK;H3,H6,H7,H8;C5,H2,H5,HJ"
1571916022,1,26,2,"C2,C9,CJ,CK;D3,D6,DJ,DK;D2,D4,D9,DQ;D10,D5,D8,DA;C10,C4,C8,CQ;D7,SJ,SK,SQ;C5,C6,CA,S9;S4,S6,S7,S8;C7,S3,S5,SA;H5,HA,HK,HQ;C3,H10,H6,S2;H3,H4,H8,HJ;H2,H7,H9,S10"
1571916022,1,4,2,"C10,C2,CA,CQ;D7,D9,DK,DQ;S4,S5,S7,SK;D6,DA,DJ,S6;D2,D3,D4,SQ;C4,C8,D5,D8;C5,C6,C7,C9;C3,CK,S9,SJ;D10,S2,S8,SA;CJ,HA,S10,S3;H10,H7,HK,HQ;H2,H4,H8,H9;H3,H5,H6,HJ"
1571916022,1,4,2,"C2,C5,C9,CA;D7,D8,D9,DJ;D10,D5,DK,DQ;S2,S4,S6,SQ;D3,D6,S10,S8;C10,C6,C7,CQ;D4,S7,S9,SK;C3,C8,CJ,CK;DA,S5,SA,SJ;C4,D2,HA,S3;H10,H9,HK,HQ;H2,H3,H4,HJ;H5,H6,H7,H8"
1571916022,1,0,2,"C2,CJ,CK,CQ;D10,D8,D9,DA;D6,DJ,DK,DQ;C4,C7,C8,CA;S10,S7,SA,SQ;S5,S6,S8,SK;S2,S4,S9,SJ;C3,C5,C6,C9;C10,D2,D5,D7;D3,D4,HA,HK;H6,H8,HQ,S3;H10,H3,H5,H9;H2,H4,H7,HJ"
1571916022,1,0,2,"C2,C5,CK,CQ;D5,D6,D7,DK;D3,D4,D8,D9;C10,C3,C6,C7;S9,SJ,SK,SQ;C4,C9,D10,D2;S10,S4,S6,SA;DA,DQ,HK,S7;DJ,HJ,S2,S3;H10,H7,S5,S8;C8,H8,H9,HA;CA,H5,H6,HQ;CJ,H2,H3,H4"
1571916022,1,17,2,"C2,C6,CK,CQ;D6,D8,DK,DQ;S5,S9,SK,SQ;S10,S3,S4,S7;D2,S6,S8,SA;C10,D3,D7,DA;C9,D10,D9,DJ;C3,C4,C5,C7;D5,HA,S2,SJ;C8,CA,CJ,HQ;H10,H8,H9,HJ;D4,H2,H5,H6;H3,H4,H7,HK"
1571916022,1,21,2,"C2,C8,CK,CQ;C10,C3,C5,C7;D5,D7,DK,DQ;D10,D2,D3,D6;D8,D9,DA,DJ;S10,SA,SJ,SQ;S5,S7,S9,SK;CA,CJ,D4,S8;H10,H6,HA,HK;C6,HJ,S4,S6;H2,H4,H5,HQ;C4,H3,H7,H8;C9,H9,S2,S3"
1571916022,1,0,2,"C10,C2,C5,CK;C3,D4,D9,DA;D8,DJ,DK,S3;CA,D6,DQ,S2;CQ,D10,D7,S4;S5,S6,S7,SQ;C4,D5,S8,SA;CJ,D3,S9,SJ;C8,D2,S10,SK;C6,C9,HA,HK;C7,H6,HJ,HQ;H4,H5,H8,H9;H10,H2,H3,H7"
1571916022,1,0,2,"C10,C2,C8,CK;D6,D9,DJ,DQ;D5,D8,DA,DK;D10,D2,D4,D7;S2,S3,S8,SQ;C4,C9,CQ,S4;D3,S6,S9,SJ;C3,C7,S5,S7;C5,C6,CA,SA;CJ,H6,HA,HK;H4,H9,HQ,SK;H3,H8,HJ,S10;H10,H2,H5,H7"
1571916022,1,4,2,"C2,C6,C7,C8;D3,DJ,DK,DQ;S10,S6,S7,S8;D10,D4,D6,DA;S4,S5,SJ,SK;S2,S9,SA,SQ;C5,C9,CA,CJ;C3,D2,D9,S3;H9,HA,HK,HQ;C10,C4,CK,HJ;H2,H3,H4,H5;D5,D8,H10,H8;CQ,D7,H6,H7"
1571916022,1,13,2,"C10,C2,C4,C8;D10,D2,DJ,DQ;D4,D5,D7,D8;S2,S8,S9,SA;C6,CA,CJ,CK;S5,S6,S7,SQ;C5,D3,D9,S10;C3,CQ,DK,S4;C9,DA,S3,SJ;C7,HA,HK,SK;D6,H10,H6,HQ;H5,H7,H8,H9;H2,H3,H4,HJ"
1571916022,1,13,2,"C2,C5,CA,CJ;C8,D2,DA,DJ;S4,S6,SJ,SK;C9,D10,D3,D9;C6,D7,DK,S3;S7,S8,S9,SQ;C10,C7,D5,D6;C4,CQ,D4,DQ;C3,CK,HQ,SA;H7,HK,S10,S5;H10,H6,HA,HJ;H3,H4,H5,H8;D8,H2,H9,S2"
1571916022,1,0,2,"C10,C2,C9,CJ;S2,S3,S8,S9;C3,C5,CA,CK;D5,D8,D9,DJ;D7,S10,S5,SJ;D4,S4,S6,SA;D3,D6,DK,SQ;D2,DA,S7,SK;H8,HA,HJ,HQ;H4,H6,H7,HK;CQ,H2,H5,H9;C4,C8,DQ,H3;C6,C7,D10,H10"
1571916022,1,4,2,"C10,C2,C8,CK;DK,S10,S7,S9;C4,C7,CA,CJ;D2,D5,D8,DJ;D10,D3,DA,DQ;C5,C6,CQ,S8;D6,D9,S4,S5;D7,S2,SK,SQ;D4,HA,SA,SJ;C3,C9,H9,HQ;H8,HJ,HK,S3;H10,H5,H6,S6;H2,H3,H4,H7"
1571916022,1,26,2,"C2,C7,C9,CQ;S10,S7,SJ,SQ;D10,D9,DQ,S2;CJ,D8,S8,SA;C10,CA,CK,S4;D6,D7,DA,S5;D4,D5,S6,SK;C4,D3,S3,S9;C3,C8,D2,HQ;C6,DJ,HA,HJ;H10,H5,H6,H8;H2,H4,H7,H9;C5,DK,H3,HK"
1571916022,1,0,2,"C10,C2,C3,C4;D6,D7,DA,DK;CA,D5,DJ,DQ;D3,D4,D9,SK;D2,D8,S7,SA;C7,C8,C9,CJ;S10,S2,S5,S8;CQ,S4,SJ,SQ;C5,C6,D10,HQ;CK,H8,S3,S9;H2,H3,H4,HJ;H10,H7,H9,HA;H5,H6,HK,S6"
1571916022,1,26,2,"C2,C4,CA,CJ;DA,S4,S5,S6;C3,C5,CK,CQ;D4,DJ,DK,DQ;D8,S10,S3,S9;D6,S2,S8,SJ;D2,D3,D9,SK;C10,D10,S7,SQ;C8,C9,HK,SA;C7,D5,HA,HJ;D7,H10,H8,H9;H3,H4,H5,H6;C6,H2,H7,HQ"
1571916022,1,0,2,"C10,C2,C3,C9;D10,D8,DK,DQ;D6,DA,DJ,S7;S10,S6,S8,SJ;C4,D4,D5,D7;D2,S5,S9,SA;C5,C7,C8,CK;C6,CJ,S4,SK;CQ,S2,S3,SQ;CA,D9,H8,HQ;D3,H7,HJ,HK;H10,H2,H4,H9;H3,H5,H6,HA"
1571916022,1,0,2,"C10,C2,C8,CA;D9,DJ,DK,DQ;D10,D3,D4,D6;CQ,D2,D5,DA;C5,C6,C7,CK;C4,C9,CJ,SJ;S10,S4,S8,S9;S3,S7,SK,SQ;H10,H8,H9,HA;C3,H2,H7,HK;D7,H5,HQ,S2;D8,H4,HJ,SA;H3,H6,S5,S6"
1571916022,1,0,2,"C2,C5,C6,C8;C10,C4,C7,C9;S6,SA,SJ,SK;D10,D9,DK,DQ;C3,CA,CQ,SQ;D6,D7,D8,DA;S10,S2,S7,S9;D2,D3,D4,S4;HA,S3,S5,S8;CJ,DJ,H10,HK;H2,H5,H6,H7;H4,H8,H9,HQ;CK,D5,H3,HJ"
1571916022,1,0,2,"C10,C2,CJ,CK;D4,DA,DJ,DK;D10,D9,DQ,S10;C3,D2,D3,D8;C5,D6,D7,S7;C6,D5,SA,SJ;C8,CA,CQ,S4;C9,S8,SK,SQ;C7,S3,S5,S9;C4,H10,S2,S6;H9,HA,HK,HQ;H3,H4,H7,H8;H2,H5,H6,HJ"
1571916022,1,4,2,"C2,C4,C5,CK;D6,DA,DK,DQ;D10,D2,D5,D9;C10,C3,C8,C9;C7,CA,CQ,D7;S8,S9,SJ,SQ;C6,CJ,S4,S7;D4,DJ,S6,SA;D3,D8,HK,S10;HJ,S2,S5,SK;H4,H5,H8,S3;H10,H6,H7,HQ;H2,H3,H9,HA"
1571916022,1,9,2,"C2,CA,CK,CQ;D7,D8,DA,DK;S10,S3,SJ,SQ;D2,D9,DJ,DQ;C4,C6,C8,S5;C5,C7,CJ,S7;C3,D3,D4,D6;S6,S8,S9,SA;C10,D10,D5,S4;C9,HK,S2,SK;H7,HA,HJ,HQ;H3,H4,H8,H9;H10,H2,H5,H6"
1571916022,1,1,2,"C2,CJ,CK,CQ;C10,C3,C6,C8;D3,D4,D5,D6;C4,C9,DK,DQ;C5,CA,S9,SK;D10,D7,D9,SQ;S10,S6,S8,SJ;S2,S5,S7,SA;C7,D8,DJ,S4;D2,DA,H10,S3;H7,H9,HA,HQ;H2,H3,H6,HJ;H4,H5,H8,HK"
1571916022,1,0,2,"C2,C8,CA,CJ;D3,D4,D8,DQ;CQ,D2,D9,DJ;D10,D7,DK,SQ;S5,S7,SJ,SK;C3,C5,C9,CK;D5,S10,S8,S9;C7,S2,S3,S4;DA,HA,S6,SA;C10,C4,D6,HK;H4,H5,H6,HQ;H10,H7,H9,HJ;C6,H2,H3,H8"
1571916022,1,0,2,"C2,C6,C8,CA;D6,D8,D9,DK;D4,D5,D7,DQ;D2,DA,DJ,SA;S8,S9,SK,SQ;C3,CJ,CK,CQ;D10,D3,S10,S5;C10,C4,C5,C9;S2,S3,S4,S7;C7,H7,HA,S6;H5,HJ,HQ,SJ;H10,H3,H9,HK;H2,H4,H6,H8"
1571916022,1,0,2,"C2,C8,CK,CQ;C3,C7,C9,CJ;D10,D8,DJ,DK;D9,DQ,S6,S8;C10,D6,D7,SQ;C6,CA,D2,D5;D3,D4,S3,SJ;C4,C5,S10,S5;DA,S2,SA,SK;H7,HQ,S4,S9;H4,HA,HJ,S7;H3,H6,H9,HK;H10,H2,H5,H8"
1571916022,1,0,2,"C2,C3,C7,CA;D4,D5,D7,D8;D3,D6,DA,DK;C10,CJ,CK,CQ;C4,D2,D9,DJ;C8,C9,DQ,S2;S4,S6,SJ,SK;D10,S8,SA,SQ;C5,C6,HK,S10;HA,HQ,S7,S9;H10,H4,H5,H9;H2,H7,H8,HJ;H3,H6,S3,S5"
1571916022,1,13,2,"C10,C2,CA,CQ;D10,D3,DJ,DK;D6,D9,DA,DQ;C5,C8,C9,CJ;D2,D5,D8,S6;C3,C4,C6,CK;S5,S9,SJ,SQ;S10,S2,S4,S8;HA,S3,S7,SA;D7,H9,HQ,SK;H4,H5,H6,HJ;D4,H3,H8,HK;C7,H10,H2,H7"
1571916022,1,5,2,"C10,C2,C7,C8;D10,D4,D8,D9;C4,C6,CA,S2;C5,D2,D7,DA;C3,D5,DJ,SK;D6,DK,S8,SA;CJ,CQ,S5,S7;S10,S4,SJ,SQ;D3,HQ,S3,S6;C9,CK,H6,HA;H10,H4,H9,S9;H3,H5,H8,HJ;DQ,H2,H7,HK"
1571916022,1,7,2,"C10,C2,C3,CK;D7,D8,DA,DK;D10,D2,D6,DJ;CJ,D4,D9,DQ;S10,S8,S9,SQ;C5,C6,C8,CA;C7,C9,CQ,S3;S4,S5,S7,SK;D3,S6,SA,SJ;C4,D5,HK,HQ;H10,H7,HA,HJ;H4,H5,H6,H9;H2,H3,H8,S2"
1571916022,1,4,2,"C2,C7,CK,CQ;D4,D7,DJ,DK;D10,D3,D6,D8;C10,C3,C6,C8;C4,C5,C9,SJ;S10,S8,SK,SQ;HA,HJ,HK,HQ;H10,S4,S9,SA;D2,D5,H9,S3;DQ,H2,H4,H7;H6,H8,S5,S6;CJ,D9,H5,S7;CA,DA,H3,S2"
1571916022,1,7,2,"C2,C7,C8,CQ;D6,D7,D9,DQ;C3,D10,D8,DK;C4,C6,C9,S4;S3,S8,SK,SQ;D2,D3,D4,S5;S10,S9,SA,SJ;C5,D5,DJ,S6;CA,DA,HK,S7;C10,CJ,HJ,S2;H10,H5,H7,H9;H3,H6,H8,HA;CK,H2,H4,HQ"
1571916022,1,0,2,"C2,C8,CK,CQ;D3,D5,DJ,DK;C10,C6,CJ,S5;D4,D8,D9,SA;C9,D2,D7,S2;S4,S6,S7,SJ;C5,C7,D10,SK;S10,S8,S9,SQ;C4,CA,DA,DQ;HA,HJ,HK,HQ;H10,H5,H7,H8;C3,H3,H6,H9;D6,H2,H4,S3"
1571916022,1,12,2,"C10,C2,CA,CJ;D10,D9,DJ,DQ;D4,D5,D6,D7;S10,S3,SJ,SQ;D2,D3,D8,DA;S4,S5,S7,S9;C6,C8,C9,CQ;S2,S6,S8,SK;C3,C5,C7,HK;H10,H7,HA,HJ;DK,H3,H6,H9;C4,CK,H5,H8;H2,H4,HQ,SA"
1571916022,1,13,2,"C10,C2,CK,CQ;D2,D6,D7,DJ;D5,D8,D9,DA;S2,S5,S7,SA;S4,S6,SK,SQ;C9,CA,CJ,S8;C8,D10,D4,DQ;C6,D3,S10,S3;C3,C5,DK,S9;C4,HJ,HK,SJ;H10,H6,H9,HA;H3,H5,H7,HQ;C7,H2,H4,H8"
1571916022,1,0,2,"C2,C4,C5,CA;D10,DA,DJ,DK;D2,D7,D8,D9;S9,SJ,SK,SQ;S10,S4,S8,SA;C7,D6,S6,S7;C9,D3,S3,S5;C3,C6,CK,D5;CJ,CQ,D4,HJ;C10,H10,HA,S2;H6,H8,HK,HQ;H4,H5,H7,H9;C8,DQ,H2,H3"
1571916022,1,26,2,"C2,C5,C6,CK;D4,D7,DA,DQ;C10,D9,DJ,DK;C3,C4,CQ,D2;S5,S7,SA,SJ;C8,CJ,D3,D6;S4,S9,SK,SQ;CA,S10,S3,S8;C7,C9,D8,S6;H5,H8,HA,HK;D5,H7,HJ,S2;H10,H3,H4,HQ;D10,H2,H6,H9"
1571916022,1,1,2,"C10,C2,C6,C8;S10,S5,S9,SA;D3,D7,DA,DK;C5,D5,D9,DJ;D10,D6,DQ,S2;S6,SJ,SK,SQ;C4,D2,D4,S4;C9,CQ,HJ,S3;C3,CJ,CK,H10;C7,H2,H5,H8;H7,HK,HQ,S7;H3,H6,HA,S8;CA,D8,H4,H9"
1571916022,1,7,2,"C10,C2,CJ,CQ;D10,D5,DA,DQ;D2,D4,DK,S10;CK,D8,D9,DJ;S2,S3,S4,SA;C7,D3,D6,D7;S5,S7,SK,SQ;C5,C6,C9,CA;H9,HA,HK,HQ;C3,H7,S8,SJ;H3,H4,H5,H8;C4,C8,H2,S9;H10,H6,HJ,S6"
1571916022,1,0,2,"C2,C3,C9,CJ;D4,DJ,DK,DQ;C10,D10,D7,D8;D9,DA,S10,S7;S2,S6,SK,SQ;C8,CK,D3,D6;S5,S9,SA,SJ;H7,H9,HA,HJ;C5,CA,CQ,H10;C4,D2,H6,HK;C7,H5,HQ,S8;D5,H2,H8,S4;C6,H3,H4,S3"
1571916022,1,0,2,"C2,C4,CA,CJ;D2,D7,DA,DK;C5,C6,C7,CQ;D10,D5,DJ,DQ;S10,S5,S6,SQ;D4,D6,D8,S2;S3,S4,S7,S8;C10,C8,CK,D9;C3,C9,HA,SK;D3,HQ,S9,SJ;H10,H6,H7,H9;H4,H5,HJ,HK;H2,H3,H8,SA"
1571916022,1,9,2,"C2,C5,C7,CJ;D4,D9,DK,DQ;D3,D5,D8,DJ;D10,D2,D7,DA;S8,S9,SJ,SK;C4,C8,C9,CA;S5,S6,S7,SA;D6,S10,S2,S4;C3,CQ,S3,SQ;C10,C6,H10,HK;CK,H9,HA,HJ;H6,H7,H8,HQ;H2,H3,H4,H5"
1571916022,1,2,2,"C2,C8,CK,CQ;S3,S6,S7,SK;D10,DA,DJ,DK;C9,D8,D9,DQ;D2,D3,D4,S8;S4,S5,S9,SA;C10,C4,C6,SJ;CJ,D5,D7,S2;C5,H9,S10,SQ;H10,H7,HA,HQ;D6,H3,H6,HK;C3,H4,H8,HJ;C7,CA,H2,H5"
1571916022,1,3,2,"C10,C2,CJ,CQ;D10,D7,D9,DK;S4,S9,SJ,SK;D2,D4,D5,D6;C4,S10,S6,SQ;C8,D3,DA,S8;C9,CA,S5,SA;C5,C7,S3,S7;C3,D8,HK,S2;C6,DQ,H10,HQ;H4,H5,H7,H8;H2,H6,HA,HJ;CK,DJ,H3,H9"
1571916022,1,9,2,"C2,C4,C9,CQ;D3,DA,DJ,DK;CA,D10,D9,DQ;C5,D6,D7,D8;C3,C7,C8,CK;S3,S5,S7,SQ;C10,D2,D5,S6;C6,D4,S10,SJ;HK,S9,SA,SK;CJ,H9,HA,S8;H3,H5,H6,H7;H2,H8,HQ,S4;H10,H4,HJ,S2"
1571916022,1,8,2,"C2,C4,C7,CK;D10,D8,DA,DK;D5,D6,D9,DJ;C10,C3,C5,C9;S10,SJ,SK,SQ;D2,D4,D7,DQ;S2,S3,S4,S6;C8,CA,CJ,CQ;C6,S5,S7,S9;D3,HQ,S8,SA;H10,H8,HA,HK;H2,H6,H7,HJ;H3,H4,H5,H9"
1571916022,1,1,2,"C2,CJ,CK,D4;S4,S6,S9,SQ;D10,D5,D6,D9;D3,D8,DA,DK;C5,C6,CA,SA;D2,D7,DJ,SK;C10,C8,C9,S5;C4,C7,CQ,SJ;HA,S10,S2,S8;C3,HQ,S3,S7;H10,H3,H6,HJ;H2,H5,H8,H9;DQ,H4,H7,HK"
1571916022,1,0,2,"C10,C2,CJ,CQ;D6,D8,DA,DK;S3,S4,SJ,SQ;D5,D7,D9,DJ;C4,C8,C9,D4;D10,D2,D3,S5;C7,CA,CK,S10;S7,S8,S9,SK;C3,C6,DQ,S2;C5,H10,HA,S6;H6,HJ,HK,SA;H4,H7,H9,HQ;H2,H3,H5,H8"
1571916022,1,3,2,"C2,C5,C6,C8;S4,S7,SA,SQ;D6,D7,D8,DQ;D3,D5,D9,DJ;C7,DA,DK,SK;CA,D10,D4,S10;S3,S5,S6,S9;H6,HA,HJ,HQ;H10,H2,H7,HK;CJ,H8,H9,SJ;C3,C4,CQ,H5;C10,CK,H4,S8;C9,D2,H3,S2"
1571916022,1,13,2,"C2,C9,CA,S7;D6,D9,DJ,DQ;D4,D7,D8,DA;S2,S4,S5,S8;CK,D10,D3,D5;CQ,S10,S6,SQ;C10,CJ,D2,DK;C7,SA,SJ,SK;C5,C8,HA,HQ;C3,H10,HK,S9;C4,C6,H6,H8;H2,H3,H5,H7;H4,H9,HJ,S3"
1571916022,1,26,2,"C2,C6,C8,C9;D8,DA,DJ,DQ;D10,D2,D7,D9;D4,D6,DK,S9;S2,S3,S6,S7;CA,CJ,CK,D5;C10,C7,D3,S10;C5,CQ,S4,SJ;C4,HQ,SA,SQ;C3,H10,H9,S5;H2,H4,HA,SK;H6,H7,HJ,S8;H3,H5,H8,HK"
1571916022,1,6,2,"C2,C4,C5,C7;S10,S8,SJ,SQ;D2,D3,D6,DA;D10,D5,D7,DJ;D4,DK,DQ,SK;S3,S4,S7,S9;CA,D8,S2,S5;C10,C9,CJ,CK;C8,CQ,D9,HK;C6,H10,HQ,SA;H5,H6,H8,HJ;H3,H4,H9,HA;C3,H2,H7,S6"
1571916022,1,13,2,"C10,C2,C4,C5;D10,D8,DA,DK;S3,S4,S5,SJ;D3,D5,D6,D7;C7,C9,CK,CQ;C8,D4,DJ,DQ;S6,S7,S9,SQ;C3,D2,S10,SA;C6,HA,HK,SK;D9,H9,HQ,S8;H10,H6,HJ,S2;CA,H2,H3,H5;CJ,H4,H7,H8"
1571916022,1,0,2,"C2,C9,CJ,CK;D5,D8,DJ,SJ;D10,D2,D3,SQ;CA,D7,D9,DK;C10,C4,C6,S2;C3,C5,C7,SA;S6,S8,S9,SK;D4,D6,DA,S4;CQ,DQ,S10,S5;H9,HA,HK,HQ;C8,H7,HJ,S3;H3,H5,H8,S7;H10,H2,H4,H6"
1571916022,1,13,2,"C2,C4,CQ,D3;D8,D9,DJ,DK;D4,D5,D7,DQ;C3,D10,DA,SQ;S10,S6,SA,SK;CK,D6,S5,SJ;C9,D2,S3,S7;C10,C6,CJ,HA;C5,C8,CA,H10;H7,S2,S8,S9;H3,H4,H5,H8;C7,H6,H9,HJ;H2,HK,HQ,S4"
1571916022,1,0,2,"C10,C2,C8,CA;D6,DA,DK,DQ;S10,S8,SJ,SQ;DJ,S2,S4,S9;D9,S6,SA,SK;C9,CJ,CQ,D2;D10,D3,D5,D7;C7,CK,S5,S7;C3,C5,C6,S3;C4,D4,H9,HJ;H10,H8,HA,HK;H4,H6,H7,HQ;D8,H2,H3,H5"
1571916022,1,4,2,"C2,C4,CA,CK;S10,S5,S6,S7;C10,C5,CJ,DQ;D10,D4,D5,D8;D3,D6,D7,DK;S4,S8,SA,SQ;C8,C9,CQ,DA;C7,D2,D9,DJ;HA,HJ,S2,S9;C6,H9,HK,SJ;H10,H2,H7,H8;H3,H5,H6,S3;C3,H4,HQ,SK"
1571916022,1,0,2,"C10,C2,C8,CQ;D4,D7,D9,DJ;D10,D6,D8,DK;S8,S9,SK,SQ;C3,C6,C7,CJ;DA,S3,S6,S7;D2,D5,DQ,S10;C5,C9,CA,SA;H5,HA,HJ,HK;CK,D3,H10,S4;H4,H8,H9,HQ;C4,H2,H3,S5;H6,H7,S2,SJ"
1571916022,1,26,2,"C2,C6,CA,CK;D10,DA,DK,DQ;CQ,D4,D9,DJ;D3,D6,D8,SK;S2,S8,S9,SQ;C7,D5,D7,SJ;C10,C9,CJ,S3;D2,S4,S5,SA;C3,C8,H10,HA;H8,HJ,S10,S7;H6,H7,H9,HK;C4,H4,H5,HQ;C5,H2,H3,S6"
1571916022,1,0,2,"C10,C2,CJ,CQ;DA,DJ,DK,DQ;S7,S9,SA,SJ;D10,D7,D8,D9;C4,C8,C9,CK;C3,D2,D3,D5;C6,C7,CA,S10;C5,D4,D6,SQ;HK,S2,S8,SK;HQ,S4,S5,S6;H4,H5,H6,H7;H10,H3,H8,H9;H2,HA,HJ,S3"
1571916022,1,0,2,"C2,C7,C8,CQ;D10,D5,DA,DK;D6,D7,D8,DQ;C6,C9,CJ,CK;S10,S2,S5,SJ;D3,D4,D9,DJ;C3,C5,CA,D2;C10,S6,S8,S9;C4,S4,SK,SQ;HA,S3,S7,SA;H9,HJ,HK,HQ;H4,H5,H6,H7;H10,H2,H3,H8"
1571916022,1,9,2,"C2,C3,C4,C7;D2,DA,DK,DQ;D5,D8,D9,DJ;D10,D3,S9,SA;D7,S8,SK,SQ;D6,S2,S4,S6;C8,C9,CJ,D4;C10,C5,C6,CK;S10,S5,S7,SJ;CA,HK,HQ,S3;CQ,H6,H9,HJ;H2,H4,H5,H7;H10,H3,H8,HA"
1571916022,1,9,2,"C2,C7,CA,CJ;D10,D4,DJ,DQ;C10,C4,C5,CK;D8,D9,DA,DK;S10,S9,SA,SQ;D5,D7,S5,S7;D3,D6,S4,S8;C3,D2,SJ,SK;C6,C8,C9,S3;HA,HJ,S2,S6;CQ,H10,H8,HQ;H3,H4,H6,H7;H2,H5,H9,HK"
1571916022,1,3,2,"C2,CA,CJ,CK;D4,D6,D7,D9;D10,D3,D8,DK;S7,S8,S9,SQ;D5,DQ,S10,SA;C9,S2,S3,S4;C6,DJ,S5,SJ;C5,CQ,DA,S6;C3,C4,C7,HA;C8,D2,HK,SK;H3,H5,H7,HQ;H10,H6,H9,HJ;C10,H2,H4,H8"
1571916022,1,0,2,"C2,C6,CJ,CQ;D2,D7,D9,DK;S2,SA,SK,SQ;D10,D6,D8,DA;C10,C5,C8,C9;CK,D5,DJ,DQ;CA,S10,S9,SJ;HA,S4,S6,S8;D3,D4,HJ,S7;H2,H4,H5,H6;C4,C7,H7,H8;C3,H3,H9,S3;H10,HK,HQ,S5"
1571916022,1,26,2,"C2,C6,C7,C9;D10,D4,DJ,DK;D8,DQ,S8,S9;D9,DA,S3,S4;C3,C5,CJ,CQ;C10,CA,CK,D7;S10,S6,S7,SK;C8,D6,S2,S5;C4,D3,D5,SA;D2,H10,HA,SQ;H8,H9,HQ,SJ;H5,H6,H7,HJ;H2,H3,H4,HK"
1571916022,1,13,2,"C2,C6,CA,CK;S5,S6,S9,SK;C8,CJ,CQ,D3;C4,C5,C7,D4;D6,D7,D9,DQ;C10,C3,D10,D5;C9,D2,S2,SA;DK,S4,S8,SQ;DA,S10,S3,S7;D8,DJ,HJ,HK;H4,H9,HA,HQ;H10,H3,H6,H7;H2,H5,H8,SJ"
1571916022,1,0,2,"C2,C5,C8,CK;S2,S4,SA,SK;D10,D7,D9,DK;D3,D5,DQ,S3;CJ,D2,DA,DJ;CA,S10,S9,SQ;C10,C9,CQ,D8;C6,D6,HK,S8;C7,D4,H7,S7;H10,H2,H4,HJ;H6,HA,HQ,SJ;C3,H5,H8,S6;C4,H3,H9,S5"
1571916022,1,0,2,"C2,C5,C6,CQ;D10,D2,D8,DK;D3,D5,D6,DQ;C7,D4,D9,DJ;CK,D7,DA,S6;S2,S9,SA,SJ;C10,C8,CA,CJ;HQ,S10,S7,SK;C3,C9,HJ,SQ;H10,H3,HA,HK;H5,H6,H7,H9;C4,H4,S4,S8;H2,H8,S3,S5"
1571916022,1,3,2,"C2,CJ,CK,CQ;D8,DA,DK,DQ;C10,C5,C9,D7;S2,S4,S6,SJ;D10,D4,D6,D9;C7,CA,D5,S10;C8,D2,D3,S9;C3,S3,S7,SA;C6,DJ,HK,S8;C4,H9,HA,SQ;H10,H5,H6,H8;H2,H7,HQ,S5;H3,H4,HJ,SK"
1571916022,1,6,2,"C2,C9,CK,CQ;D5,DJ,DK,DQ;S10,S2,S3,S4;D10,D2,D8,D9;CJ,D3,D6,D7;C3,C7,C8,CA;S8,SA,SK,SQ;C6,D4,S9,SJ;C10,HA,S5,S6;C5,HJ,HK,HQ;DA,H10,H6,H9;H4,H5,H7,S7;C4,H2,H3,H8"
1571916022,1,0,2,"C2,C6,C7,CA;C4,C5,C8,CK;D10,D3,D4,DJ;D5,D7,D9,DQ;S3,S6,SA,SJ;C10,D8,DA,DK;C3,CQ,D6,SK;CJ,S10,S5,SQ;C9,HK,S4,S8;H8,HA,S2,S9;H3,H6,H7,HQ;H10,H4,H9,HJ;D2,H2,H5,S7"
1571916022,1,22,2,"C2,C3,C5,C6;D9,DA,DK,DQ;D3,D4,D6,D7;D10,D2,D5,S6;S10,S3,SA,SK;C8,C9,CQ,DJ;C7,CJ,CK,S2;S4,S7,S8,SJ;C10,CA,D8,S9;H10,HA,HK,HQ;H3,H6,H9,HJ;C4,H5,H7,H8;H2,H4,S5,SQ"
1571916022,1,26,2,"C10,C2,C8,CK;D7,DA,DK,DQ;C4,C6,C7,D10;D2,D8,DJ,S3;CJ,D5,D6,D9;S6,S8,SJ,SQ;CA,CQ,S10,SK;C5,C9,D4,S9;HK,S2,S7,SA;C3,D3,HJ,S5;H6,H7,H8,H9;H10,H3,H4,HA;H2,H5,HQ,S4"
1571916022,1,6,2,"C2,C9,CK,CQ;D8,DJ,DK,DQ;D10,D5,D6,D9;C10,C3,CA,CJ;S2,S4,SJ,SQ;D3,D7,DA,S5;C6,C8,S10,S7;D2,D4,HA,S6;H9,S8,S9,SK;H10,H2,H3,HK;H6,H8,S3,SA;C4,C7,H4,HJ;C5,H5,H7,HQ"
1571916022,1,0,2,"C10,C2,C7,CQ;D9,DA,DK,DQ;C3,C4,C6,C8;CA,D10,D8,DJ;S8,SA,SJ,SK;S4,S6,S7,S9;C9,CJ,CK,D6;H9,HA,HK,HQ;D4,D5,HJ,SQ;D3,D7,H10,H3;D2,H4,H5,H6;H8,S10,S2,S5;C5,H2,H7,S3"
1571916022,1,0,2,"C2,C4,C6,CA;C3,C5,C8,CQ;D10,D5,DJ,DQ;D4,D8,D9,DK;SA,SJ,SK,SQ;C10,CJ,CK,DA;S5,S6,S7,S9;C9,D2,S3,S4;C7,D6,D7,S10;H10,HA,HK,HQ;H8,H9,S2,S8;H3,H4,H7,HJ;D3,H2,H5,H6"
1571916022,1,0,2,"C2,C9,CA,CQ;S4,S6,S7,SK;D8,DA,DJ,DK;CJ,D10,D7,DQ;CK,D3,D4,D9;S3,S9,SA,SJ;C10,C6,C8,S5;C4,C7,D2,SQ;C5,D6,HA,S8;C3,HK,HQ,S2;H10,H3,H7,HJ;D5,H5,H6,H9;H2,H4,H8,S10"
1571916022,1,9,2,"C10,C2,C8,CA;D10,D4,D7,DQ;S2,S5,SK,SQ;S10,S4,S9,SA;S3,S6,S7,S8;D2,D8,D9,DK;C7,CK,D5,D6;C3,CQ,DA,DJ;C6,C9,CJ,H10;C4,C5,D3,H7;H5,H8,HK,HQ;H4,H6,H9,HJ;H2,H3,HA,SJ"
1571916022,1,0,2,"C2,C7,CA,CK;D10,D6,DA,DJ;D7,D8,D9,DK;D3,D5,DQ,S7;C10,C4,CJ,CQ;C5,C6,C8,C9;S3,S8,SK,SQ;S10,S5,S6,S9;C3,D2,D4,SJ;HQ,S2,S4,SA;H10,H9,HA,HJ;H5,H6,H8,HK;H2,H3,H4,H7"
1571916022,1,4,2,"C2,C3,C6,CQ;S3,S4,S9,SQ;D10,D3,D5,D7;D4,D8,DJ,DQ;C7,C9,CA,SK;D6,D9,DA,DK;S2,S5,S8,SJ;C5,CK,S10,S7;C10,C4,D2,HQ;C8,CJ,HJ,SA;H10,H5,H9,HK;H3,H6,H8,S6;H2,H4,H7,HA"
1571916022,1,26,2,"C2,C9,CJ,D8;C5,C8,CA,S10;D7,D9,DA,DK;S7,S8,S9,SK;D4,D5,DJ,DQ;C6,D10,D2,D3;CK,CQ,S5,SJ;C7,D6,S3,S6;C10,HJ,S2,S4;C3,C4,H8,SQ;H3,H4,HK,SA;H10,H5,H7,H9;H2,H6,HA,HQ"
1571916022,1,9,2,"C2,C8,C9,DA;S5,S6,S7,SQ;D9,DJ,DK,DQ;D10,D2,D3,D8;D6,D7,S8,SA;C10,C6,D4,D5;S10,S9,SJ,SK;C5,C7,CQ,S4;C3,C4,CJ,S2;H6,HA,HJ,HK;CA,CK,H4,HQ;H3,H5,H8,H9;H10,H2,H7,S3"
1571916022,1,0,2,"C2,C3,C4,CK;D10,D5,D9,DQ;C10,CJ,CQ,S3;S10,S7,SK,SQ;D6,S5,S9,SJ;C6,C8,C9,DJ;DA,S4,S6,S8;C5,D4,D7,DK;CA,D2,S2,SA;D3,D8,HK,HQ;H8,H9,HA,HJ;H10,H4,H6,H7;C7,H2,H3,H5"
1571916022,1,5,2,"C2,C5,C6,C8;S6,S8,SA,SJ;D10,D2,D3,D8;D6,DA,DJ,DQ;C9,D5,D7,S7;C7,CQ,D4,S5;D9,S3,S4,S9;S10,S2,SK,SQ;C10,C4,CK,HA;H10,HJ,HK,HQ;H5,H6,H7,H9;C3,CJ,H2,H8;CA,DK,H3,H4"
1571916022,1,16,2,"C10,C2,C3,CQ;D4,D8,DJ,DQ;CJ,D10,D6,DK;S4,S5,S6,SK;CA,D3,D7,SA;C6,D2,D5,SQ;S10,S3,S8,S9;C4,C5,C7,S7;CK,D9,HQ,S2;C9,DA,HA,HJ;H10,H4,H7,H9;H5,H6,H8,SJ;C8,H2,H3,HK"
1571916022,1,13,2,"C2,C3,C7,CQ;D7,D8,DK,DQ;D10,D2,D4,D9;D3,D6,DA,SK;S2,S4,S5,S9;D5,DJ,S8,SJ;C4,C8,C9,CA;S6,S7,SA,SQ;C10,C5,C6,CK;CJ,HQ,S10,S3;H7,H9,HA,HK;H4,H5,H6,H8;H10,H2,H3,HJ"
1571916022,1,14,2,"C2,C7,CQ,D3;D5,D7,DA,DK;D4,D8,D9,DQ;C9,CJ,D6,DJ;D10,S5,S6,S7;D2,S10,S4,SJ;C8,CA,CK,SQ;C4,S9,SA,SK;C10,C6,HA,S3;C3,C5,H7,HK;H5,H6,H8,H9;H10,H3,H4,HQ;H2,HJ,S2,S8"
1571916022,1,4,2,"C2,C4,C5,C7;C10,C9,CJ,DA;S10,S3,S9,SQ;D10,D3,D5,D7;D2,D6,D8,DK;S5,S8,SA,SK;CK,D4,S6,SJ;C3,C6,CA,HQ;C8,DJ,HJ,S2;H10,H2,H6,H7;H5,H9,HA,HK;D9,DQ,H4,S7;CQ,H3,H8,S4"
1571916022,1,4,2,"C10,C2,C6,C9;S4,S5,S8,SK;D6,D8,D9,DJ;D10,D3,D5,D7;CA,CJ,CK,CQ;S2,S3,SA,SJ;DK,S10,S9,SQ;C4,C5,D4,DQ;C7,C8,S6,S7;D2,DA,HA,HQ;H10,H5,HJ,HK;H3,H6,H8,H9;C3,H2,H4,H7"
1571916022,1,13,2,"C10,C2,C8,CA;S2,S9,SA,SJ;D2,D4,D5,DK;C6,C7,C9,CK;C3,CJ,CQ,D9;S10,S8,SK,SQ;D10,D6,D7,S4;C5,HQ,S5,S6;D3,DA,DQ,H10;C4,H2,H4,H9;DJ,H5,H8,HJ;H7,HK,S3,S7;D8,H3,H6,HA"
1571916022,1,0,2,"C2,C4,C5,CA;C10,C8,CJ,S4;D9,DA,DJ,DK;CK,D10,D4,DQ;C7,C9,CQ,SQ;C6,D3,D8,S10;S3,S6,S9,SK;C3,D5,D7,S2;D2,S8,SA,SJ;H6,HA,HJ,HQ;H10,H2,H7,HK;H4,H5,H8,S7;D6,H3,H9,S5"
1571916022,1,15,2,"C10,C2,C4,CQ;D2,DA,DK,DQ;C5,C7,C9,CJ;C6,D3,D5,D8;S2,S4,S6,SA;C3,C8,CK,D9;S7,S8,S9,SJ;S10,S3,S5,SK;D6,D7,DJ,HQ;CA,D4,H10,SQ;H5,H8,HA,HK;H4,H6,H7,H9;D10,H2,H3,HJ"
1571916022,1,3,2,"C2,C3,C4,C8;D10,D7,D8,D9;S10,S7,S9,SK;D2,D3,D5,D6;C5,C9,CJ,CQ;S4,S5,S6,S8;C6,C7,CK,D4;C10,S2,SJ,SQ;DA,DJ,DQ,HK;DK,H9,HQ,S3;H10,H3,H7,H8;CA,H4,H5,HJ;H2,H6,HA,SA"
1571916022,1,5,2,"C2,C7,C9,CJ;D8,DJ,DK,DQ;D2,D5,D7,D9;S2,S6,S9,SJ;C4,S5,S8,SK;C10,C5,C8,CK;D10,S10,S4,S7;D3,D4,DA,SQ;C6,HQ,S3,SA;H4,HA,HJ,HK;CQ,H7,H8,H9;D6,H3,H5,H6;C3,CA,H10,H2"
1571916022,1,11,2,"C2,C6,C8,CK;D4,D6,D7,D8;D3,DA,DK,DQ;C5,C7,CA,CQ;S5,S6,S9,SA;C10,C3,C4,C9;S3,S4,S7,SK;D2,S10,S8,SQ;CJ,D9,HJ,SJ;D10,DJ,H10,S2;H7,H8,H9,HA;D5,H2,H4,HK;H3,H5,H6,HQ"
1571916022,1,4,2,"C2,C6,C8,CA;S3,S9,SA,SQ;D2,D3,D7,D8;C10,C3,C7,CQ;S10,S2,S5,S6;CK,HK,S4,S7;D6,DK,DQ,HQ;D4,HJ,S8,SJ;H10,H3,H5,H6;C4,C5,H7,H9;C9,D10,H8,HA;CJ,D5,DJ,H4;D9,DA,H2,SK"
1571916022,1,0,2,"C2,C4,C5,CA;D10,D6,DK,DQ;D2,D5,D8,D9;D7,DA,S4,S6;S2,S5,S7,SA;C10,C6,C9,CJ;C3,C7,D4,S9;CK,CQ,D3,SQ;C8,DJ,S3,SJ;HA,HJ,S10,S8;H10,HK,HQ,SK;H4,H7,H8,H9;H2,H3,H5,H6"
1571916022,1,7,2,"C2,C4,C9,CK;D10,D2,D8,D9;S2,S4,S9,SJ;D5,DQ,S10,S8;CJ,D4,DJ,S6;C6,S5,SA,SQ;C10,C3,C5,S3;CQ,D7,DK,HK;C7,CA,HQ,S7;D3,H5,H8,H9;H2,H6,HA,SK;C8,H4,H7,HJ;D6,DA,H10,H3"
1571916022,1,5,2,"C2,C4,C5,CQ;D3,D8,DA,SJ;D4,DJ,DK,SK;C6,D10,D7,D9;S4,S5,S9,SQ;C10,CA,D6,DQ;S2,S3,S6,S8;C8,C9,CJ,CK;D5,HJ,S7,SA;H10,H9,HA,HK;D2,H3,H5,H6;C7,H2,H4,H7;C3,H8,HQ,S10"
1571916022,1,0,2,"C2,CJ,CQ,S9;C10,C7,CA,S4;C8,C9,CK,D9;C5,D6,D7,D8;S7,SA,SJ,SQ;D2,D3,DA,S10;S2,S3,S5,S8;D4,D5,S6,SK;C3,D10,DJ,HK;C4,C6,DQ,HJ;DK,H10,H7,H8;H3,H5,H6,HA;H2,H4,H9,HQ"
1571916022,1,0,2,"C10,C2,C8,CJ;DA,DJ,DK,DQ;S10,S6,S8,SQ;D10,D6,D8,D9;C7,C9,CA,S3;S2,S4,S9,SK;CQ,D2,D3,D5;C6,S5,S7,SJ;C4,C5,D7,HA;C3,CK,H7,SA;H5,H6,H8,HQ;H2,H4,HJ,HK;D4,H10,H3,H9"
1571916022,1,8,2,"C10,C2,CA,CK;C3,C4,C7,C9;D3,D8,DA,DK;D2,D4,D5,DQ;D6,DJ,S7,S8;D10,D9,S4,S5;C5,C8,CJ,SQ;C6,CQ,HA,SJ;HK,S10,S3,S9;H3,H5,H6,H9;H2,H4,H8,HJ;D7,H10,HQ,SA;H7,S2,S6,SK"
1571916022,1,0,2,"C10,C2,C3,C8;C6,D3,DJ,DK;CA,D6,D7,D8;D4,D9,DQ,S10;S5,S8,SA,SK;D10,D2,DA,S3;C7,C9,CQ,SQ;S2,S4,S7,SJ;C5,CJ,CK,D5;C4,H10,HA,S9;H8,HK,HQ,S6;H2,H4,H6,HJ;H3,H5,H7,H9"
1571916022,1,22,2,"C2,C4,C5,C6;D4,D8,D9,DJ;D10,D7,DQ,S4;S10,SA,SJ,SK;C3,CA,CK,DK;C10,D2,DA,S5;S3,S7,S8,S9;C9,CJ,CQ,D5;C8,D6,S2,SQ;C7,D3,H9,S6;H6,HA,HK,HQ;H3,H5,H8,HJ;H10,H2,H4,H7"
1571916022,1,0,2,"C2,C5,C6,CQ;D3,D9,DJ,DK;S3,S7,S8,SK;D10,D5,D6,DQ;D2,D4,D7,S9;C10,C3,C7,C8;S10,S4,SA,SQ;C4,C9,CK,D8;CA,CJ,S6,SJ;H10,H8,HA,HJ;H2,H6,H7,HK;H4,H5,H9,S2;DA,H3,HQ,S5"
1571916022,1,13,2,"C2,C8,CA,CQ;D6,D8,D9,DJ;D3,D4,D5,D7;D10,D2,DK,DQ;S2,SJ,SK,SQ;S3,S7,S8,S9;C10,C7,C9,CK;C5,S4,S5,SA;C3,C4,DA,S10;H8,HA,HK,HQ;C6,H10,HJ,S6;H5,H6,H7,H9;CJ,H2,H3,H4"
1571916022,1,13,2,"C2,C7,C8,CA;D10,D4,D6,DQ;D3,D8,DJ,DK;D7,D9,DA,SQ;S10,S4,S6,S8;C6,D2,D5,SJ;C10,C5,CJ,CQ;C9,S7,S9,SK;HA,HJ,S5,SA;C4,H9,HK,S2;H10,H3,H8,HQ;H2,H4,H7,S3;C3,CK,H5,H6"
1571916022,1,0,2,"C2,C3,C5,C6;D4,D6,D7,DJ;CA,D10,D9,DK;S10,S4,S8,SA;D3,D5,D8,SJ;S3,S5,S6,S9;C10,C4,CK,CQ;S2,S7,SK,SQ;C8,C9,CJ,D2;C7,DA,HK,HQ;H10,H8,HA,HJ;H2,H4,H5,H9;DQ,H3,H6,H7"
1571916022,1,16,2,"C2,C5,C7,CA;D8,S3,S9,SA;D7,D9,DJ,DK;D10,D3,DQ,SK;C4,D2,D4,D6;C3,C9,CQ,SJ;CJ,S10,S2,S8;C6,C8,CK,S7;D5,DA,HQ,S6;H10,HJ,S5,SQ;H6,H8,H9,HA;H2,H5,H7,HK;C10,H3,H4,S4"
1571916022,1,4,2,"C2,C3,CJ,DK;D10,D5,D6,D9;D3,D4,D7,DQ;S10,S6,S7,S8;CA,D8,DA,DJ;S3,SA,SJ,SK;C10,C7,C9,SQ;C5,C8,CK,HK;C6,D2,HQ,S9;H2,H3,H9,HJ;H4,H5,H7,H8;C4,CQ,H10,HA;H6,S2,S4,S5"
1571916022,1,0,2,"C2,C3,C7,C8;S4,S7,S8,S9;D10,D2,D6,DA;D5,D7,D9,DQ;S2,S3,S5,SJ;C4,C6,CK,CQ;D8,S10,S6,SQ;D3,D4,DJ,DK;H7,H9,HA,HK;C5,H3,HJ,HQ;CJ,H10,H8,SA;C10,H2,H6,SK;C9,CA,H4,H5"
1571916022,1,0,2,"C10,C2,CJ,CQ;S4,S6,SK,SQ;D6,D8,D9,DJ;D10,D7,DK,DQ;S2,S8,SA,SJ;D2,D4,D5,DA;C5,C7,C9,D3;H9,HA,HK,HQ;C4,C6,C8,HJ;H2,H3,H4,H8;H7,S10,S7,S9;C3,CK,H10,S5;CA,H5,H6,S3"
1571916022,1,26,2,"C2,C3,CA,CJ;D3,D5,D9,DK;D2,D6,D7,S9;D4,DA,DJ,SK;C9,CK,CQ,SA;S10,S3,S7,S8;D10,DQ,S2,S4;C4,HA,S6,SQ;C6,C8,HK,HQ;C10,H6,H7,SJ;C5,C7,H10,H4;H3,H8,H9,HJ;D8,H2,H5,S5"
1571916022,1,5,2,"C2,C9,CK,CQ;D7,D9,DJ,DQ;D10,D4,D6,D8;C10,C3,CJ,SQ;C8,CA,S10,S7;C6,D3,D5,DK;S3,S5,S8,SA;DA,S6,S9,SK;C4,C5,D2,SJ;H10,H5,HA,HJ;H4,H8,H9,HK;H3,H6,H7,S4;C7,H2,HQ,S2"
1571916022,1,4,2,"C2,C4,C5,CA;D5,D7,DJ,DQ;D3,D4,D6,D8;C9,S9,SJ,SQ;C6,CJ,CK,CQ;C8,D2,D9,S10;C10,C7,D10,SK;DA,S5,S7,SA;C3,S3,S4,S8;DK,HA,S2,S6;H8,HJ,HK,HQ;H2,H3,H6,H7;H10,H4,H5,H9"
1571916022,1,4,2,"C2,C8,CK,CQ;D4,D7,D9,DA;D10,D2,D6,DJ;D3,D5,DK,S4;S5,S8,SA,SQ;S2,S3,S9,SJ;C10,C4,CJ,SK;C3,C6,C9,HK;C7,CA,DQ,H10;H4,H8,H9,HQ;H2,H5,HJ,S10;D8,H6,H7,HA;C5,H3,S6,S7"
1571916022,1,15,2,"C2,C3,C9,CA;D7,DJ,DK,DQ;S4,S5,S8,S9;D9,S10,S7,SJ;D2,D3,D4,D8;D5,D6,DA,SA;CJ,S6,SK,SQ;C10,C8,S2,S3;C4,C5,C7,CQ;C6,CK,HA,HK;H7,H9,HJ,HQ;H2,H3,H6,H8;D10,H10,H4,H5"
1571916022,1,13,2,"C10,C2,C4,CJ;C3,D8,DA,DK;C9,CA,CK,CQ;S8,S9,SJ,SQ;S2,S4,S7,SK;D9,S10,S6,SA;D3,D7,DQ,S5;D10,D2,D6,S3;C7,C8,D5,HA;C5,C6,DJ,HJ;H10,H4,H7,HK;D4,H3,H8,H9;H2,H5,H6,HQ"
1571916022,1,9,2,"C2,C6,CA,CJ;D4,D7,D8,DQ;D5,DA,DJ,DK;S6,S7,S8,SQ;D10,D2,D6,D9;C10,C4,C7,C8;S2,S4,S5,SJ;C5,S10,S3,S9;C9,CK,CQ,HA;C3,D3,HK,SA;H10,H4,H8,HJ;H3,H5,H7,H9;H2,H6,HQ,SK"
1571916022,1,4,2,"C10,C2,C7,CJ;D4,D7,D9,DJ;D10,D6,D8,DQ;C8,D2,D3,D5;S8,S9,SJ,SQ;C4,C6,CQ,S10;DA,DK,S3,S5;C9,CA,CK,S2;HA,S6,SA,SK;C3,C5,H7,S4;H10,H5,HK,HQ;H4,H6,H9,S7;H2,H3,H8,HJ"
1571916022,1,0,2,"C2,C8,C9,CA;D10,DA,DJ,DK;C5,C7,CJ,CK;D2,D3,D4,D5;S10,S8,SA,SQ;C10,CQ,S6,SK;C4,C6,S4,SJ;C3,D9,S7,S9;D7,DQ,H8,S5;D8,H7,HA,S3;H4,H9,HJ,HK;D6,H10,H2,H6;H3,H5,HQ,S2"
1571916022,1,0,2,"C2,C3,CA,CK;D8,DA,DK,DQ;D2,D4,D7,D9;C4,C7,C8,D6;S3,S4,S5,SQ;D10,D3,D5,SA;S10,S8,S9,SJ;C9,DJ,S7,SK;C10,C5,CQ,S6;C6,CJ,H10,HA;H8,HK,HQ,S2;H2,H3,H7,HJ;H4,H5,H6,H9"
1571916022,1,0,2,"C2,C7,CA,CK;D10,D7,DJ,DQ;D5,D8,D9,DK;S7,S8,SJ,SQ;C3,C8,CQ,D4;D2,D3,D6,SA;C10,CJ,DA,S2;C6,C9,HK,S3;C5,HQ,S10,S9;H10,H6,H9,HJ;H8,S4,S6,SK;H2,H3,H4,H5;C4,H7,HA,S5"
1571916022,1,0,2,"C2,C5,C6,CA;D8,D9,DA,DK;D6,D7,DJ,DQ;D10,D3,D5,S3;CK,D4,S10,S8;D2,SA,SK,SQ;C10,C7,CQ,S6;C3,C9,CJ,HA;C4,C8,H10,S9;H7,H8,HK,S5;H4,H9,HJ,SJ;H3,H6,HQ,S4;H2,H5,S2,S7"
1571916022,1,4,2,"C10,C2,C6,CJ;D8,DA,DK,DQ;S5,S7,S8,SJ;D10,D4,D9,SK;D5,D7,DJ,S4;C4,C9,CA,CQ;C3,C5,C8,D6;CK,D2,D3,S10;C7,HQ,S9,SA;HJ,HK,S3,S6;H3,H4,H6,H9;H10,H5,H7,HA;H2,H8,S2,SQ"
1571916022,1,0,2,"C10,C2,C8,CQ;D10,D7,DK,DQ;D5,D8,D9,DA;C7,C9,CJ,CK;C3,C6,CA,S9;S10,S5,S8,SA;D2,D6,S4,S6;C4,D3,D4,S2;HA,S3,S7,SQ;H4,HJ,HK,HQ;DJ,H10,H5,H9;H2,H3,H7,SJ;C5,H6,H8,SK"
1571916022,1,0,2,"C2,C5,C7,CJ;D4,D9,DA,DK;D10,D3,D8,DJ;C9,D5,D6,DQ;S2,S8,SK,SQ;D2,D7,S10,SA;S3,S6,S7,SJ;C4,S4,S5,S9;C8,CA,CK,H10;H8,H9,HA,HJ;H3,H6,H7,HQ;C10,C6,H2,H4;C3,CQ,H5,HK"
1571916022,1,15,2,"C2,C3,C8,CK;D10,D8,D9,DJ;S2,S3,S6,S7;S4,S5,S9,SQ;C10,C5,C9,CQ;D5,D6,DA,DK;CJ,D2,D7,DQ;C4,C6,CA,D4;HA,S10,SJ,SK;C7,D3,HQ,S8;H10,H2,H3,H8;H4,H6,H7,H9;H5,HJ,HK,SA"
1571916022,1,13,2,"C10,C2,C5,C9;C8,S10,SA,SK;D10,D5,DJ,DK;CJ,S5,S7,S8;D2,D3,D4,D6;C4,D8,D9,SJ;C3,DA,DQ,SQ;C6,C7,CA,S6;CQ,HQ,S2,S3;H7,H9,HA,HJ;H10,H3,H5,HK;CK,H4,H8,S9;D7,H2,H6,S4"
1571916022,1,5,2,"C2,C7,CK,CQ;D10,D3,DK,DQ;D2,D5,D6,DA;S10,S8,SJ,SK;D4,D9,DJ,SA;C10,C6,CA,CJ;C3,C5,C9,D8;C4,C8,S5,S7;D7,S6,S9,SQ;HA,HK,S3,S4;H10,H9,HJ,HQ;H2,H5,H6,H7;H3,H4,H8,S2"
1571916022,1,2,2,"C2,C5,C9,CQ;D10,D3,D8,DJ;D5,D6,D7,D9;S7,S9,SA,SJ;C4,D2,D4,DA;C3,C7,CA,CJ;S2,S5,S6,SQ;DK,HA,S10,S3;C10,C8,CK,HK;H3,H6,H7,HQ;DQ,H10,H9,HJ;C6,H2,H5,S8;H4,H8,S4,SK"
1571916022,1,2,2,"C2,C6,C7,C8;S10,S8,S9,SK;D2,D9,DJ,DK;D10,D6,D8,DQ;S3,S4,S7,SQ;C3,CA,CK,CQ;C5,CJ,D4,SJ;C10,C4,S2,S5;C9,D3,D7,H10;H9,HA,HJ,HQ;H4,H5,H7,HK;H6,H8,S6,SA;D5,DA,H2,H3"
1571916022,1,8,2,"C10,C2,C6,CQ;D5,DA,DK,DQ;D10,D3,D6,D8;D2,D4,D7,D9;C5,C8,C9,CJ;C4,C7,CA,S4;S3,S8,SA,SQ;C3,CK,S6,SK;S10,S5,S9,SJ;DJ,H10,S2,S7;H6,H9,HA,HK;H2,H3,H5,HQ;H4,H7,H8,HJ"
1571916022,1,13,2,"C2,C3,C5,CQ;D9,DA,DK,DQ;S10,S6,S8,SQ;C10,C4,C8,CA;S2,S3,S4,SJ;C6,C7,CK,D8;D2,D6,S7,SA;CJ,D10,D4,D7;D5,HA,HJ,SK;D3,H7,HQ,S9;H4,H8,H9,HK;DJ,H2,H5,S5;C9,H10,H3,H6"
1571916022,1,10,2,"C2,C3,C5,C6;D3,D5,D7,DQ;D10,D2,D6,DJ;C4,C9,CJ,CQ;C7,CK,DK,SQ;C10,CA,S10,S9;S4,S5,S7,S8;D9,S3,SA,SK;HA,S2,S6,SJ;D8,DA,HJ,HK;H3,H6,H7,HQ;D4,H2,H5,H8;C8,H10,H4,H9"
1571916022,1,0,2,"C2,C6,C9,CJ;D3,D5,D8,D9;D10,D6,D7,DQ;S2,S7,SA,SJ;D4,DJ,DK,SQ;C4,C5,C7,CQ;S4,S6,S8,SK;D2,DA,S3,S9;C3,CA,S10,S5;C10,CK,H10,HA;H8,HJ,HK,HQ;H2,H5,H7,H9;C8,H3,H4,H6"
1571916022,1,0,2,"C10,C2,C5,C8;S2,S7,S8,SK;D6,D7,DK,DQ;D10,D2,D5,D9;S10,S5,S6,S9;D3,SA,SJ,SQ;C6,CA,CK,CQ;C9,D8,DA,DJ;C3,C7,CJ,H10;H9,HA,S3,S4;H4,H5,HJ,HQ;H2,H3,H8,HK;C4,D4,H6,H7"
1571916022,1,0,2,"C2,C3,C6,C7;D4,DJ,DK,DQ;C10,C5,C9,CJ;D8,D9,S6,SQ;CK,D5,D6,SJ;D2,DA,S8,SK;S10,S7,S9,SA;C4,C8,CQ,H10;D7,H8,S4,S5;H6,H7,HK,HQ;D10,H3,H4,H9;CA,H2,HA,S3;D3,H5,HJ,S2"
1571916022,1,22,2,"C10,C2,C8,CK;D7,D9,DJ,DQ;D2,D3,D4,D8;D10,D6,DA,DK;C3,CA,CQ,S6;S3,S4,S5,S7;D5,S8,SK,SQ;C9,CJ,S10,S2;C5,C7,HJ,HK;C6,H8,HQ,SJ;H4,H5,H9,HA;H2,H6,H7,SA;C4,H10,H3,S9"
1571916022,1,13,2,"C2,C6,C9,CJ;D10,DJ,DK,DQ;S10,S7,SK,SQ;S4,S5,S6,SA;C3,D2,D8,D9;C8,D6,D7,S8;C4,C5,CK,S3;C10,CQ,D5,SJ;C7,D3,S2,S9;D4,HA,HJ,HK;CA,H7,H9,HQ;H10,H4,H5,H6;DA,H2,H3,H8"
1571916022,1,1,2,"C2,CA,CJ,CK;C7,C8,C9,CQ;S10,S6,SJ,SQ;C10,C4,C5,C6;D4,DA,DJ,DK;C3,D3,D8,DQ;D10,D6,D7,S7;D5,S4,S9,SK;HA,S3,S8,SA;H10,H9,HK,HQ;D2,D9,H3,H4;H2,H5,S2,S5;H6,H7,H8,HJ"
1571916022,1,13,2,"C2,C8,CA,CK;S4,S7,S8,SK;D10,D2,D8,DJ;D7,D9,DA,S5;C10,C4,C9,CQ;D6,DK,DQ,S9;D4,D5,S2,S3;D3,S10,SA,SJ;C5,C6,CJ,SQ;C3,C7,HA,HJ;H10,H6,HQ,S6;H2,H7,H9,HK;H3,H4,H5,H8"
1571916022,1,0,2,"C2,C3,CA,CQ;D7,DA,DJ,DQ;D10,D2,D4,D6;CJ,D5,D8,D9;S5,S6,S7,SA;C10,C4,C8,S4;C6,C7,C9,SK;DK,HA,S3,SQ;C5,CK,HK,S8;H10,H5,H8,H9;H2,H3,H4,H6;HJ,HQ,S10,SJ;D3,H7,S2,S9"
1571916022,1,18,2,"C2,C7,CA,CJ;C10,C4,C8,CQ;S3,S5,SA,SK;D3,D6,D8,D9;D4,D5,DA,DJ;C3,C6,CK,D2;D10,D7,DQ,SQ;C5,C9,S9,SJ;HA,S10,S6,S8;H10,HJ,HK,HQ;H3,H4,H9,S7;H2,H5,H7,S4;DK,H6,H8,S2"
1571916022,1,0,2,"C2,C3,C7,C9;D10,D5,DA,DK;D4,D6,D8,DJ;C8,D2,D9,DQ;CK,S7,S8,SJ;C10,C5,CA,CJ;CQ,S10,S4,S5;C4,C6,S2,S9;D3,D7,S6,SK;HQ,S3,SA,SQ;H8,HA,HJ,HK;H2,H4,H6,H9;H10,H3,H5,H7"
1571916022,1,26,2,"C2,C4,C5,CJ;D10,D5,D9,DQ;D2,D8,DA,DK;S10,S9,SJ,SK;C7,C8,CA,CQ;S5,S6,S8,SQ;D6,D7,S7,SA;D3,D4,S2,S4;C10,C6,CK,S3;H10,H9,HA,HK;H5,H6,H7,HQ;C9,H3,H4,H8;C3,DJ,H2,HJ"
1571916022,1,0,2,"C2,C3,C7,CJ;S3,S9,SA,SK;D7,DA,DK,DQ;D2,D3,D5,DJ;CK,D10,D8,S8;C10,C9,D4,D6;CA,S2,S4,SJ;CQ,HJ,S10,SQ;C5,D9,H10,S7;H5,H6,H8,HK;C6,H7,H9,HQ;C4,H3,H4,S6;C8,H2,HA,S5"
1571916022,1,20,2,"C10,C2,C5,C6;D5,D7,DK,DQ;D3,D6,D8,D9;C4,C9,CJ,CQ;S2,S5,S7,SA;C7,C8,S10,SQ;C3,D10,D4,DJ;CK,S3,S9,SK;D2,HA,S6,SJ;DA,HK,S4,S8;H4,H6,H7,H9;H10,H2,H8,HQ;CA,H3,H5,HJ"
1571916022,1,0,2,"C10,C2,C6,C9;D4,D6,DA,DK;S5,S8,SJ,SQ;D10,D2,D7,D8;S10,S2,S9,SK;C4,C5,CK,CQ;C8,D3,D5,DJ;CA,CJ,D9,DQ;HJ,S6,S7,SA;H10,H7,HA,HK;H2,H5,H6,H9;C3,C7,H3,H4;H8,HQ,S3,S4"
1571916022,1,3,2,"C2,C8,CA,CJ;D3,D5,D8,DQ;C7,D4,DA,DJ;S3,S7,SA,SQ;S2,S9,SJ,SK;C3,C6,C9,S5;C5,CQ,D9,DK;C4,CK,D7,S6;D10,D6,HA,S8;D2,HK,S10,S4;H5,H6,H7,H8;H3,H4,H9,HQ;C10,H10,H2,HJ"
1571916022,1,26,2,"C2,C6,CJ,CQ;S2,S5,S8,SQ;D10,D8,DJ,DQ;S10,S3,S7,SK;C3,C8,C9,CA;D6,D9,DA,DK;D3,D4,D5,D7;C5,C7,CK,S4;C10,D2,HA,S9;C4,HK,S6,SA;H10,H5,H8,HQ;H6,H7,H9,HJ;H2,H3,H4,SJ"
1571916022,1,1,2,"C2,C4,CJ,CK;D3,D5,D7,DA;D2,D4,DJ,DK;CA,D10,D9,DQ;C10,C7,C9,CQ;S3,S4,S9,SA;D6,D8,SJ,SQ;S10,S6,S7,SK;C3,C5,C6,H8;H7,HA,HJ,HK;H10,H3,H9,HQ;H2,H5,S5,S8;C8,H4,H6,S2"
1571916022,1,5,2,"C2,C9,CA,CK;D5,D6,D8,D9;S10,SJ,SK,SQ;D10,D3,DJ,DQ;S2,S5,S6,S7;D2,D7,S4,S9;C10,C7,C8,CQ;C6,CJ,DK,S3;C5,DA,HA,S8;C4,D4,HQ,SA;H5,H9,HJ,HK;H10,H3,H7,H8;C3,H2,H4,H6"
1571916022,1,18,2,"C10,C2,CK,CQ;S8,S9,SA,SQ;D5,D8,DK,DQ;D10,D6,D7,DJ;C7,C8,C9,CA;C3,C6,CJ,S4;C4,C5,HA,S3;DA,HJ,S2,SJ;H2,H6,HK,HQ;H10,H3,S10,SK;D3,D4,H8,S7;H4,H7,H9,S6;D2,D9,H5,S5"
1571916022,1,0,2,"C2,C8,C9,CJ;D10,D7,DJ,DQ;D4,D5,D8,D9;D6,DA,DK,S8;S2,S3,S7,SK;C10,C5,CA,CQ;S10,S6,S9,SJ;C4,C7,CK,D3;C6,HA,S5,SQ;C3,D2,HJ,S4;H10,H7,HK,HQ;H3,H4,H6,H8;H2,H5,H9,SA"
1571916022,1,13,2,"C2,C6,C9,CJ;D10,D3,D4,DJ;D8,D9,DQ,S9;S10,S6,S8,SQ;S2,S3,S4,S7;D6,D7,DA,SK;C8,S5,SA,SJ;C10,C5,CA,CQ;C4,C7,CK,DK;H8,HA,HJ,HQ;H10,H6,H7,HK;H2,H3,H5,H9;C3,D2,D5,H4"
1571916022,1,5,2,"C2,C8,CJ,CQ;D4,D5,D9,DQ;D2,D3,D7,DJ;S2,S4,SA,SK;D10,D6,D8,S3;C6,C7,C9,CA;C5,S7,SJ,SQ;CK,DA,S10,S9;C4,HA,S5,S8;H6,HJ,HK,HQ;DK,H5,H7,H9;C3,H10,H2,H4;C10,H3,H8,S6"
1571916022,1,0,2,"C2,C8,C9,CA;C3,C7,CJ,CK;S6,S8,S9,SJ;D10,D7,DJ,DK;D5,D6,D8,D9;C4,C6,CQ,D4;C10,C5,D2,S5;D3,DQ,S10,S7;H7,H9,HA,HK;HQ,S3,S4,SK;DA,H10,H5,SA;H2,H3,H6,H8;H4,HJ,S2,SQ"
1571916022,1,0,2,"C10,C2,CJ,CQ;D2,D3,D4,DK;D10,D6,D7,D9;C4,C7,C9,CK;C3,C5,C6,CA;S4,S6,S7,SQ;S8,S9,SJ,SK;D5,DJ,S10,S5;D8,H9,S3,SA;C8,DA,H7,S2;H10,H4,H8,HA;H3,H5,HJ,HQ;DQ,H2,H6,HK"
1571916022,1,17,2,"C2,C6,CA,CK;S10,S5,S8,S9;C5,C7,CQ,DK;D10,D4,DA,DQ;C4,C9,CJ,SA;D2,D6,D8,D9;C10,C3,C8,D3;S4,S6,S7,SJ;D7,S3,SK,SQ;D5,DJ,HA,HK;H10,H7,HJ,HQ;H3,H5,H6,H9;H2,H4,H8,S2"
1571916022,1,14,2,"C2,C4,C6,CA;D5,D9,DA,DJ;D6,D8,DK,DQ;D10,D4,D7,S4;S10,S2,SJ,SK;C7,C8,C9,CQ;S3,S8,SA,SQ;D2,D3,S7,S9;C10,C3,C5,CJ;CK,H9,S5,S6;H8,HA,HK,HQ;H5,H6,H7,HJ;H10,H2,H3,H4"
1571916022,1,6,2,"C2,C8,C9,CQ;D10,D8,DK,DQ;D2,D3,D4,DJ;C10,C4,C5,CJ;C6,C7,CA,S7;S10,S3,S6,SQ;D7,S5,SJ,SK;CK,HQ,S2,S4;D5,H9,S9,SA;H2,H7,H8,HK;C3,D9,H10,H6;D6,DA,H5,HA;H3,H4,HJ,S8"
1571916022,1,21,2,"C2,C6,C7,C8;CA,CJ,CK,CQ;D2,D4,D8,DK;D5,D6,D7,DJ;C10,C4,C5,C9;S10,S6,S7,S8;S3,S4,SA,SK;C3,D10,DA,S2;D3,HA,HQ,SJ;H10,HJ,S9,SQ;D9,H8,H9,HK;DQ,H3,H6,H7;H2,H4,H5,S5"
1571916022,1,0,2,"C10,C2,C4,C6;S8,S9,SA,SJ;D2,D8,DJ,DK;D10,D3,D6,D9;CA,D4,D5,D7;CK,S10,S6,SQ;C8,DA,S4,S7;C3,C9,S2,S5;CJ,H9,S3,SK;C5,C7,H7,HA;H6,H8,HJ,HQ;CQ,H2,H5,HK;DQ,H10,H3,H4"
1571916022,1,8,2,"C2,C8,CA,CQ;C10,D8,DJ,DK;C4,C7,C9,CJ;C6,D10,D6,D9;SA,SJ,SK,SQ;DQ,S3,S4,S9;C5,S10,S6,S8;D2,D7,DA,S7;CK,D4,D5,S5;C3,D3,HJ,HK;H10,HA,HQ,S2;H5,H6,H7,H9;H2,H3,H4,H8"
1571916022,1,0,2,"C2,CA,CK,CQ;C10,C3,C6,C7;D10,D9,DA,DQ;D2,D5,D6,D7;S10,S5,S8,SK;C8,D4,S9,SQ;C4,CJ,S4,S7;DJ,DK,S2,S6;D3,D8,HK,S3;C5,H6,HA,SJ;H2,H5,H8,H9;H4,H7,HQ,SA;C9,H10,H3,HJ"
1571916022,1,17,2,"C2,CA,CJ,CQ;D3,DA,DJ,DQ;D10,D5,D7,S4;C8,D2,D8,DK;C3,C6,C9,CK;D6,D9,S6,SJ;D4,S3,SK,SQ;C10,S7,S8,SA;C5,C7,S5,S9;HA,HJ,HK,HQ;H10,H4,H7,H9;H2,H3,H6,H8;C4,H5,S10,S2"
1571916022,1,5,2,"C2,C4,CJ,CK;D6,DJ,DK,DQ;D10,D4,D5,D7;D2,D3,D9,DA;S10,S5,SA,SQ;C7,C8,C9,CQ;S3,S7,S8,SJ;S2,S6,S9,SK;C3,C5,CA,HA;C6,D8,HQ,S4;H10,H8,H9,HJ;H3,H4,H5,H7;C10,H2,H6,HK"
1571916022,1,19,2,"C2,C3,C7,C8;D4,D8,DA,DK;D3,D5,D6,DJ;C4,D10,D9,DQ;C10,CA,CQ,SK;S3,S6,S7,S9;S10,S5,S8,SA;C5,CJ,CK,S2;C6,C9,D2,H10;H8,HA,S4,SJ;H2,H7,H9,HJ;H4,H5,H6,HQ;D7,H3,HK,SQ"
1571916022,1,17,2,"C2,C3,CJ,CK;D6,DA,DJ,DQ;S3,S7,S8,SA;D2,D8,D9,S2;D10,D4,D7,S5;S10,SJ,SK,SQ;C5,C7,CQ,S9;C10,C6,CA,DK;C4,C8,S4,S6;D3,D5,H8,HA;H7,H9,HK,HQ;H10,H3,H4,HJ;C9,H2,H5,H6"
1571916022,1,0,2,"C2,C4,C5,C6;D10,D8,D9,DA;D2,D7,DJ,DK;CA,D3,DQ,SK;C3,C9,CJ,CK;S2,S4,S8,SJ;C10,C7,CQ,S5;C8,D4,S9,SQ;S10,S6,S7,SA;D5,D6,HA,S3;H9,HJ,HK,HQ;H2,H4,H5,H6;H10,H3,H7,H8"
1571916022,1,0,2,"C2,C9,CA,CQ;D2,D4,D5,D6;SA,SJ,SK,SQ;CK,D7,DA,DQ;S4,S5,S8,S9;C10,D8,DJ,DK;C3,C8,CJ,D9;C7,S3,S6,S7;C5,C6,D3,H10;C4,D10,H7,HA;H6,H8,HJ,HK;H3,H9,HQ,S10;H2,H4,H5,S2"
1571916022,1,0,2,"C2,C8,C9,CK;DA,DJ,DK,DQ;C4,C5,C6,C7;D5,D7,D8,D9;C3,CJ,CQ,SQ;S5,S7,S8,S9;S2,S4,S6,SA;D10,D4,D6,S10;C10,CA,D2,SJ;H9,HA,HK,HQ;H6,H8,S3,SK;D3,H2,H3,HJ;H10,H4,H5,H7"
1571916022,1,0,2,"C2,CA,CK,CQ;D10,D6,DJ,DK;D2,D5,D9,DQ;D4,D7,D8,S4;C4,C5,C8,CJ;C7,C9,D3,S5;C10,C6,DA,HA;HJ,S10,S2,SK;C3,H8,HK,HQ;H4,S8,S9,SJ;H3,S7,SA,SQ;H10,H5,H6,S6;H2,H7,H9,S3"
1571916022,1,0,2,"C2,C5,C9,CA;D10,D7,DK,DQ;C4,CJ,CQ,D8;C10,C8,S5,S6;C3,C6,D9,S4;S7,SA,SJ,SK;D3,S3,S9,SQ;DJ,S10,S2,S8;C7,D4,D6,HQ;CK,D2,D5,H7;H2,H6,H9,HA;H10,H3,H5,HK;DA,H4,H8,HJ"
1571916022,1,14,2,"C2,C3,C8,CQ;D4,D6,D7,DJ;D8,D9,DA,DK;C5,CA,CJ,CK;D10,D5,DQ,S10;C10,C4,D3,SJ;S6,S8,SA,SK;C7,D2,S5,SQ;C9,H10,S2,S4;C6,H8,S3,S9;H7,H9,HJ,HQ;H4,H5,H6,HA;H2,H3,HK,S7"
1571916022,1,6,2,"C2,C4,CA,CQ;S10,S2,S4,S5;D10,D9,DJ,DQ;C3,C6,C8,S8;S6,S9,SA,SJ;D2,D7,D8,DA;C5,C7,D4,S7;C10,D3,D6,SK;CJ,HA,S3,SQ;D5,DK,H7,HK;H4,H6,H9,HJ;CK,H2,H8,HQ;C9,H10,H3,H5"
1571916022,1,6,2,"C2,C8,C9,CQ;D5,D9,DK,DQ;S10,S5,S8,S9;C10,C4,CA,CJ;S2,S3,S6,S7;C5,C7,CK,S4;C6,DA,SK,SQ;D4,D6,D7,HA;D10,D3,HJ,SJ;H4,H8,H9,HK;D2,D8,DJ,H6;H10,H5,H7,HQ;C3,H2,H3,SA"
1571916022,1,4,2,"C2,C8,C9,CA;D2,DA,DJ,DK;D10,D8,D9,DQ;C10,C3,CJ,CQ;C4,D5,D6,D7;D3,D4,SA,SJ;S10,S8,S9,SK;C5,C6,C7,S5;S3,S4,S7,SQ;CK,HA,HK,S2;H10,HJ,HQ,S6;H4,H6,H7,H8;H2,H3,H5,H9"
1571916022,1,20,2,"C10,C2,C3,CQ;D2,D9,DA,DJ;D10,D4,D7,DK;C5,C6,CA,DQ;D8,S3,S5,S9;D6,S4,S6,SK;D5,S2,S8,SJ;CJ,CK,D3,HK;C4,C8,C9,H10;H4,H9,HA,HQ;H3,H6,H8,HJ;C7,H2,H5,SA;H7,S10,S7,SQ"
1571916022,1,0,2,"C2,C5,C6,C9;D4,D7,DK,DQ;D8,D9,DA,DJ;C10,C8,CJ,CK;S10,SJ,SK,SQ;D10,D5,S2,S5;C7,CQ,D3,D6;C4,CA,D2,S8;C3,S3,S6,S9;HA,HK,HQ,SA;H8,H9,HJ,S4;H10,H4,H6,H7;H2,H3,H5,S7"
1571916022,1,0,2,"C10,C2,CJ,CK;S10,S4,S5,SK;D4,D6,D8,D9;C6,CA,CQ,S6;S2,S3,S8,S9;C8,D5,DJ,DK;C4,D10,D7,DQ;C5,S7,SJ,SQ;C3,C9,D2,DA;H4,HA,HK,HQ;H3,H5,H9,HJ;C7,H10,H2,H7;D3,H6,H8,SA"
1571916022,1,12,2,"C2,CA,CK,DK;D10,D4,D9,DJ;D2,D3,D5,D6;C5,C7,C8,SK;S10,S5,SJ,SQ;C6,C9,S8,SA;CQ,D8,DA,S4;C10,HK,S2,S6;C3,HQ,S3,S7;C4,DQ,H10,S9;D7,H7,H8,H9;H4,H5,H6,HA;CJ,H2,H3,HJ"
1571916022,1,15,2,"C10,C2,CA,CK;D2,D7,D8,DK;D4,D6,D9,DQ;D5,SA,SK,SQ;C4,S10,S3,SJ;C3,CJ,CQ,S4;C5,C6,C9,S9;D3,DA,S2,S7;C7,HA,S6,S8;C8,D10,HQ,S5;H10,H3,H7,HJ;H2,H5,H6,H9;DJ,H4,H8,HK"
1571916022,1,0,2,"C2,C5,C8,CJ;D2,D4,D9,DJ;D3,D5,D7,D8;D10,D6,DA,DK;C9,DQ,SA,SQ;C3,C4,CK,CQ;C10,CA,S8,SK;S10,S2,S4,S9;HA,HJ,HK,HQ;H10,H5,H6,H9;C6,H4,H7,S7;C7,H3,H8,S6;H2,S3,S5,SJ"
1571916022,1,8,2,"C10,C2,C3,CA;D4,DA,DJ,DQ;CJ,D10,D7,DK;D3,D8,D9,S7;C9,D2,D5,D6;S3,S4,S8,S9;C5,CK,SK,SQ;C8,CQ,S2,S5;C7,S6,SA,SJ;H9,HA,HJ,HK;H10,H4,H7,HQ;C6,H2,H5,H8;C4,H3,H6,S10"
1571916022,1,24,2,"C2,C8,C9,CQ;DA,DJ,DK,DQ;D10,D6,D7,D8;C7,D2,D5,D9;C10,CJ,D3,D4;S4,S5,S9,SA;C6,CA,CK,SQ;C3,C4,C5,S2;HQ,S10,S7,S8;H6,HA,HJ,HK;H2,H3,H8,H9;H10,H7,S6,SJ;H4,H5,S3,SK"
1571916022,1,0,2,"C10,C2,C5,C7;D9,DA,DJ,DQ;C3,C6,C8,CJ;D10,D6,D8,DK;S3,S4,SJ,SK;D5,D7,S2,S9;C4,CQ,D4,S7;D3,S5,S6,S8;CK,D2,HK,SA;CA,HQ,S10,SQ;H10,H7,H8,HJ;C9,H3,H5,H6;H2,H4,H9,HA"
1571916022,1,0,2,"C2,C8,CA,CQ;D7,D8,D9,DJ;D10,D3,D6,DQ;S6,S7,S9,SQ;C3,C5,CJ,SK;C4,D4,DA,DK;S10,S4,S5,SJ;C10,S3,S8,SA;C6,C9,D5,S2;H10,HA,HK,HQ;H6,H8,H9,HJ;H2,H3,H5,H7;C7,CK,D2,H4"
1571916022,1,1,2,"C10,C2,C9,CJ;D6,DJ,DK,DQ;S5,S7,S8,SQ;D5,D7,D8,D9;S10,S6,SJ,SK;C3,C4,C5,S9;CA,S3,S4,SA;C6,CK,CQ,HA;D10,D2,D3,HK;H3,H7,H9,S2;C8,DA,H6,HJ;H2,H5,H8,HQ;C7,D4,H10,H4"
1571916022,1,4,2,"C2,CJ,CK,CQ;S9,SJ,SK,SQ;C5,C8,C9,DQ;D2,D9,DA,DJ;S10,S3,S5,S7;C3,CA,D10,D6;DK,S2,S4,S6;C7,D3,D4,D5;C4,HA,S8,SA;C10,D7,D8,HK;H5,H6,H7,H9;C6,H10,H3,HJ;H2,H4,H8,HQ"
1571916022,1,7,2,"C2,C6,C8,CK;S4,S6,S8,SA;D8,DA,DJ,DK;C3,C4,CA,CQ;D9,S5,SK,SQ;CJ,D5,D6,D7;D10,S10,S2,S9;C5,C9,D4,SJ;C7,D3,DQ,HQ;C10,H10,HA,S7;H6,H9,HJ,HK;H2,H4,H5,H7;D2,H3,H8,S3"
1571916022,1,0,2,"C10,C2,CJ,CK;S2,S4,S8,S9;DA,S3,S7,SA;D6,D7,DJ,DQ;C5,D10,D4,D9;C8,CQ,D2,D8;C3,C6,D5,DK;C4,C9,CA,S5;D3,S10,SJ,SQ;C7,HA,HK,SK;H7,HJ,HQ,S6;H3,H5,H6,H9;H10,H2,H4,H8"
1571916022,1,4,2,"C2,C6,C9,CA;D3,DK,DQ,SQ;D10,D5,D7,S3;CJ,D4,D6,D8;S10,S7,S9,SJ;C10,C8,CK,D9;C5,C7,CQ,S2;C4,S5,S6,S8;C3,DJ,S4,SK;D2,H10,HA,SA;DA,H6,HK,HQ;H3,H4,H7,H9;H2,H5,H8,HJ"
1571916022,1,8,2,"C2,C8,CA,CK;S10,S5,S7,SQ;D7,D8,D9,DJ;D4,D5,DA,DK;C7,C9,CJ,CQ;D2,D3,D6,DQ;C10,D10,SA,SJ;S3,S4,S6,S9;C3,C4,C6,S2;C5,HJ,S8,SK;H10,H8,HA,HK;H4,H7,H9,HQ;H2,H3,H5,H6"
1571916022,1,0,2,"C2,C5,C7,CQ;D4,D9,DJ,DQ;C9,D10,D8,DK;S2,S5,SJ,SK;D3,D5,D6,S10;C10,D2,DA,SA;C3,C6,C8,CJ;S4,S7,S9,SQ;C4,CA,CK,HK;HJ,S3,S6,S8;H5,H7,HA,HQ;H10,H4,H6,H8;D7,H2,H3,H9"
1571916022,1,19,2,"C2,C4,C6,C9;D2,D8,DA,DK;D3,D7,DJ,DQ;S3,S5,S9,SJ;C5,C8,CJ,CQ;D10,D5,D6,S7;S4,S8,SA,SQ;S10,S2,S6,SK;C10,C3,CK,HA;C7,D4,D9,HJ;H10,H6,HK,HQ;H2,H3,H8,H9;CA,H4,H5,H7"
1571916022,1,0,2,"C2,C4,C8,CK;S7,S8,S9,SJ;D10,D4,D8,DJ;D2,D3,D5,D6;S10,SA,SK,SQ;C7,DK,DQ,S3;C10,C3,C5,CJ;D9,DA,S2,S4;C6,C9,CQ,HQ;CA,D7,H6,HA;H4,H5,H8,H9;H10,H3,H7,S5;H2,HJ,HK,S6"
1571916022,1,0,2,"C2,C3,C7,C8;D10,D8,DA,DK;D4,DJ,DQ,S4;D5,D9,S6,S8;C5,CJ,D6,D7;C6,C9,CK,CQ;C4,CA,D3,S9;S10,S5,SJ,SK;H10,H5,HA,HK;C10,D2,HJ,S7;H2,H7,H9,HQ;H3,H6,H8,SQ;H4,S2,S3,SA"
1571916022,1,13,2,"C2,C9,CA,CQ;D6,DA,DJ,DK;C10,C4,C7,C8;D5,D7,D8,DQ;S10,SJ,SK,SQ;S5,S7,S8,S9;D4,D9,HQ,SA;C3,CJ,CK,HJ;C5,C6,H5,HA;D2,H10,H4,HK;H6,H7,H8,S6;D10,H2,S3,S4;D3,H3,H9,S2"
1571916022,1,13,2,"C2,C3,C4,CJ;D5,D7,D8,D9;S3,S6,S9,SQ;D10,D3,D4,DJ;C10,C9,CA,CQ;S4,S5,S7,S8;C8,D6,DK,DQ;C6,C7,S10,SJ;D2,H9,HA,SA;C5,CK,H8,HQ;H10,H4,HJ,HK;H3,H6,H7,SK;DA,H2,H5,S2"
1571916022,1,13,2,"C2,C3,C8,CQ;D10,D9,DA,DK;S7,S8,S9,SA;D6,D7,D8,DJ;C5,C6,C7,C9;S2,S3,SJ,SQ;C10,CJ,CK,D3;HA,HJ,HQ,S5;D2,D5,DQ,H10;CA,H2,H8,HK;C4,H5,H7,H9;D4,H6,S10,SK;H3,H4,S4,S6"
1571916022,1,1,2,"C2,C3,CA,CK;D4,D7,DA,DK;D10,D8,DJ,DQ;C6,C7,C8,C9;C10,C4,CJ,SQ;S3,S8,SJ,SK;CQ,D2,D5,S7;S10,S6,S9,SA;C5,D3,D9,S5;D6,HJ,S2,S4;H7,HA,HK,HQ;H2,H3,H4,H8;H10,H5,H6,H9"
1571916022,1,4,2,"C2,C6,C8,CK;DA,DJ,DK,DQ;S10,S5,S6,SA;D10,D3,D7,D8;C10,C9,CA,CQ;S4,SJ,SK,SQ;C5,C7,CJ,S2;C3,C4,D2,D4;S3,S7,S8,S9;H6,HA,HJ,HK;D5,D6,H10,HQ;D9,H3,H5,H9;H2,H4,H7,H8"
1571916022,1,13,2,"C2,C4,C9,CJ;D10,D5,D6,D7;D2,D4,D8,D9;C3,D3,DJ,DK;C10,C5,C7,C8;S2,SJ,SK,SQ;S3,S4,S6,S8;HQ,S10,S5,SA;C6,CQ,H10,S9;H2,H8,H9,HK;DA,DQ,H7,HA;CA,CK,H4,H5;H3,H6,HJ,S7"
1571916022,1,7,2,"C2,C3,C5,CA;D10,D2,D8,DQ;D3,DA,DJ,SQ;S4,S5,S7,SK;C7,CJ,CK,CQ;D5,D7,DK,S8;C10,C8,C9,D6;C6,S2,SA,SJ;C4,S10,S3,S6;D4,D9,H10,HJ;H7,H9,HA,HK;H6,H8,HQ,S9;H2,H3,H4,H5"
1571916022,1,0,2,"C2,C5,C6,CQ;D6,D9,DJ,DK;D10,D4,DA,DQ;C3,C8,C9,CA;S2,SA,SK,SQ;C10,D5,D8,S7;S10,S6,S9,SJ;C7,CJ,D3,D7;C4,CK,S5,S8;H6,HA,HK,HQ;H10,H5,H9,HJ;D2,H3,H4,H7;H2,H8,S3,S4"
1571916022,1,3,2,"C10,C2,C9,CA;D10,D4,D8,DK;CJ,D3,D5,D7;C3,C5,C6,D6;S2,S5,S7,SA;S10,S8,SJ,SQ;C7,D9,DJ,S6;C4,D2,DQ,S3;CK,HK,S4,SK;CQ,HA,HQ,S9;H10,H6,H9,HJ;H2,H4,H5,H7;C8,DA,H3,H8"
1571916022,1,0,2,"C2,C6,C9,CJ;S5,S7,S9,SA;D10,D8,D9,DJ;S3,S8,SK,SQ;C3,C5,C7,C8;D2,D4,D5,DK;D6,D7,DA,S4;C10,CA,CK,S2;C4,CQ,HQ,S10;D3,H9,HA,SJ;H10,H6,H8,S6;H4,H7,HJ,HK;DQ,H2,H3,H5"
1571916022,1,0,2,"C2,C5,C6,C7;D5,D8,DK,DQ;C3,C8,C9,CA;C4,D10,D9,DA;CJ,D3,D4,SA;CQ,D6,D7,SK;CK,D2,SJ,SQ;C10,S10,S6,S9;DJ,S4,S5,S8;HJ,HQ,S2,S7;H7,H9,HK,S3;H5,H6,H8,HA;H10,H2,H3,H4"
1571916022,1,5,2,"C2,C3,C7,CQ;CJ,D2,D4,D5;C10,D6,D7,DQ;C6,D3,D9,DK;S5,S8,S9,SK;C5,C8,CA,CK;S4,S6,S7,SQ;DA,S3,SA,SJ;C4,C9,D10,HA;D8,HK,S10,S2;DJ,H8,H9,HQ;H10,H4,H6,H7;H2,H3,H5,HJ"
1571916022,1,16,2,"C2,C3,C4,C7;S2,SA,SK,SQ;D10,D2,D8,DQ;D6,D9,DJ,DK;C8,CA,CJ,CQ;D3,D5,D7,S8;C10,D4,DA,S9;C5,C6,HA,SJ;HJ,S4,S6,S7;H4,H5,H6,HK;H3,H9,HQ,S10;C9,H10,S3,S5;CK,H2,H7,H8"
1571916022,1,2,2,"C2,CA,CK,CQ;D2,D8,DA,DK;D6,D9,DJ,S3;C9,D10,D3,DQ;CJ,D4,D5,S9;C5,C8,D7,SK;S10,S2,S4,SJ;C7,S7,SA,SQ;C4,C6,HA,S6;C10,C3,HQ,S5;H10,H4,H7,HJ;H5,H6,H8,H9;H2,H3,HK,S8"
1571916022,1,15,2,"C2,C4,C9,CK;D8,DA,DJ,DQ;C10,D3,D5,D9;C7,D10,D4,D6;C5,C6,CQ,D7;S10,SA,SJ,SK;C3,C8,CJ,DK;HA,S3,S5,S9;HJ,S2,S4,S7;H2,H8,S6,SQ;H5,H7,H9,HQ;D2,H4,H6,S8;CA,H10,H3,HK"
1571916022,1,11,2,"C2,CJ,CK,CQ;D3,D8,DJ,DQ;C3,D10,D7,SK;D9,DK,S2,S3;D4,D6,S6,SA;C6,C8,C9,D5;CA,DA,S9,SQ;C10,C4,S4,SJ;C5,HA,S10,S5;C7,D2,H8,S8;H10,H6,H9,HK;H4,H5,H7,HQ;H2,H3,HJ,S7"
1571916022,1,18,2,"C2,C9,CA,CQ;S10,S5,S6,S8;C5,C6,C8,CK;S4,S7,SJ,SQ;C10,C3,CJ,D9;D4,D5,D8,DA;D6,S3,S9,SK;D10,D2,D3,DJ;C4,C7,HQ,SA;D7,DK,DQ,HJ;H10,H4,H9,HK;H2,H6,H7,H8;H3,H5,HA,S2"
1571916022,1,13,2,"C10,C2,CA,CK;D7,DA,DJ,DK;D10,D6,D8,D9;C3,C7,C8,D4;C5,C9,CQ,S7;D3,DQ,S10,SA;S4,S6,S8,SK;D2,S2,S3,SQ;CJ,S5,S9,SJ;C6,D5,HA,HQ;H10,H9,HJ,HK;H4,H5,H6,H8;C4,H2,H3,H7"
1571916022,1,3,2,"C2,C5,C8,CK;D3,DJ,DK,DQ;D7,D8,DA,S8;S9,SA,SK,SQ;C10,C4,C9,CJ;C3,CQ,D4,D6;CA,D2,D5,S2;C7,S3,S4,S7;C6,HA,S10,SJ;H9,HK,HQ,S5;D10,H3,H7,HJ;D9,H10,H4,H6;H2,H5,H8,S6"
1571916022,1,0,2,"C2,C6,C7,C9;D4,D9,DK,DQ;S3,S5,S7,SJ;DA,DJ,S6,S8;D10,SA,SK,SQ;CJ,CK,D7,D8;C10,D3,D5,S2;C4,CA,HK,S10;CQ,D2,HQ,S9;H10,H2,HA,HJ;C8,H5,H9,S4;C5,D6,H4,H8;C3,H3,H6,H7"
1571916022,1,6,2,"C2,C7,CK,CQ;D10,D2,D5,DQ;D3,D6,DJ,S10;C8,D4,D7,DA;C4,C6,C9,CJ;C5,D9,S4,S7;C10,DK,S5,SK;C3,S9,SJ,SQ;HA,S2,S3,SA;CA,H10,HK,S8;H2,H5,H6,H8;H4,H7,HJ,S6;D8,H3,H9,HQ"
1571916022,1,3,2,"C10,C2,C6,CQ;D2,D4,D5,DA;D8,DK,DQ,S6;D6,D9,SK,SQ;CK,D7,DJ,S2;S10,S5,S8,SJ;D10,D3,S4,S9;C3,C9,CA,CJ;C5,C8,S3,SA;C7,H10,HA,HJ;C4,H6,H9,HK;H3,H5,H8,HQ;H2,H4,H7,S7"
1571916022,1,0,2,"C10,C2,C4,C5;C3,C9,CA,CJ;C8,CK,CQ,D7;D9,DJ,DK,DQ;D10,D2,D3,SJ;D4,D8,DA,S4;S10,S6,SA,SK;C6,C7,S5,S7;S2,S8,S9,SQ;D6,HA,HQ,S3;D5,H9,HJ,HK;H10,H5,H7,H8;H2,H3,H4,H6"
1571916022,1,1,2,"C2,CJ,CK,CQ;S5,S6,S8,SJ;D2,DA,DJ,DQ;D10,D5,D7,D9;S10,S3,S4,S7;C6,C8,CA,SQ;C7,D6,D8,DK;C10,C4,C5,D4;H10,H9,HA,HK;H3,H6,H8,HQ;D3,H2,H4,S9;C3,C9,H5,HJ;H7,S2,SA,SK"
1571916022,1,0,2,"C2,C5,C6,C8;D4,D8,D9,DJ;D10,D2,D5,D6;S3,S4,S8,SA;CA,D3,D7,DK;S10,S6,S7,SK;C10,C4,C9,CJ;C3,CK,CQ,SJ;H10,HA,HJ,HK;H6,S5,S9,SQ;H5,H8,H9,HQ;C7,DQ,H4,H7;DA,H2,H3,S2"
1571916022,1,8,2,"C2,C6,CA,CK;D2,DA,DK,DQ;D6,D7,D9,SJ;D10,D8,S6,S8;S10,S3,S9,SQ;D4,DJ,S4,S5;C5,C8,CJ,CQ;C4,D3,D5,SA;C3,C7,C9,S7;C10,HA,S2,SK;H10,HJ,HK,HQ;H4,H5,H7,H8;H2,H3,H6,H9"
1571916022,1,17,2,"C2,C8,CA,CK;D5,D7,D8,DJ;CJ,D3,DA,DK;S10,S2,S3,SA;C10,C4,C7,CQ;C9,D10,D4,D6;C6,D2,DQ,S8;HA,S4,S9,SJ;C3,HK,S6,S7;H10,H6,H9,HQ;H5,H7,H8,HJ;C5,D9,H2,SK;H3,H4,S5,SQ"
1571916022,1,26,2,"C2,C5,C8,CQ;D4,DA,DK,DQ;C4,C7,C9,D5;C3,CA,CK,S4;C10,D2,DJ,S6;S10,S2,S7,SJ;D10,D7,D8,D9;S5,S8,S9,SK;D3,S3,SA,SQ;C6,D6,HA,HQ;CJ,H10,H6,H9;H4,H7,H8,HK;H2,H3,H5,HJ"
1571916022,1,13,2,"C2,C3,C8,CJ;D8,DA,DK,DQ;D2,D7,D9,DJ;C7,D10,D4,D6;D3,D5,S3,S6;C10,C4,C5,C6;S10,S7,S8,SJ;S5,S9,SA,SQ;C9,CA,CK,S2;H10,HA,HJ,HK;CQ,H9,HQ,S4;H5,H6,H7,SK;H2,H3,H4,H8"
1571916022,1,26,2,"C10,C2,C6,C7;C3,C5,C9,DK;D2,D4,D5,D9;D10,D7,DA,DQ;CJ,CK,CQ,D3;S2,S8,S9,SA;S10,S5,S7,SK;C8,CA,D6,S6;D8,DJ,S4,SQ;H8,H9,HA,HQ;H6,H7,HJ,HK;H2,H3,H4,H5;C4,H10,S3,SJ"
1571916022,1,1,2,"C2,C7,CA,D4;D10,D3,D8,DJ;S2,S4,S6,SA;D2,D7,D9,DQ;S10,S8,SJ,SK;D6,DA,DK,S3;C6,C9,CJ,HA;C10,C3,C8,HQ;C4,C5,CQ,H9;H2,S7,S9,SQ;H4,H7,HJ,HK;H10,H3,H6,H8;CK,D5,H5,S5"
1571916022,1,0,2,"C2,C4,C8,CA;D6,D9,DA,DJ;D7,D8,DK,DQ;C10,C3,CJ,CK;D10,D2,D5,S6;D3,D4,S5,S7;S10,S9,SA,SJ;C5,S3,S8,SK;C9,HQ,S2,SQ;C6,HA,HJ,S4;H10,H4,H7,H9;CQ,H3,H6,H8;C7,H2,H5,HK"
1571916022,1,2,2,"C2,C3,CK,CQ;D10,D3,D6,D8;D5,D9,DK,S7;S2,S6,S8,S9;C5,C7,C9,CA;D7,DJ,DQ,SQ;D4,DA,S4,S5;C10,C6,CJ,S3;D2,HJ,SJ,SK;C4,H8,S10,SA;H3,H4,H7,HA;H6,H9,HK,HQ;C8,H10,H2,H5"
1571916022,1,0,2,"C2,C3,C8,CK;D10,D3,DJ,DQ;D2,D6,D7,DA;S10,SA,SJ,SK;CQ,D4,D5,D8;S3,S7,S9,SQ;C4,CA,CJ,S6;C10,C5,C9,HK;HA,HJ,S5,S8;H4,H7,H8,H9;D9,DK,H6,HQ;H10,H5,S2,S4;C6,C7,H2,H3"
1571916022,1,3,2,"C2,C5,C7,CQ;C10,C4,CA,CJ;S4,S6,S8,S9;D10,S7,SK,SQ;D3,D8,DA,DJ;C8,C9,CK,S3;D5,D9,S2,SJ;C6,D2,D6,S10;C3,D4,HA,SA;DQ,H9,HK,S5;H3,H8,HJ,HQ;D7,H10,H4,H5;DK,H2,H6,H7"
1571916022,1,0,2,"C2,C5,C6,C9;D6,DA,DJ,DQ;D10,D2,D4,D8;CJ,D3,D5,D7;S10,S4,SA,SQ;C10,C7,C8,DK;CK,S9,SJ,SK;C3,CA,S7,S8;C4,CQ,D9,S6;H9,HA,HJ,HK;H7,HQ,S2,S5;H2,H3,H6,H8;H10,H4,H5,S3"
1571916022,1,0,2,"C2,C4,C8,CQ;D2,D9,DJ,DQ;S10,SA,SK,SQ;S6,S8,S9,SJ;C3,C7,CA,CJ;D10,D6,D8,DK;C5,C6,CK,D7;D3,D5,DA,S7;S2,S3,S4,S5;H10,HA,HK,HQ;C9,D4,H8,H9;H2,H3,H6,H7;C10,H4,H5,HJ"
1571916022,1,5,2,"C10,C2,C4,C7;S10,S2,S6,S8;D3,D4,D7,DQ;D10,D8,D9,DJ;S4,S5,S9,SK;D6,S3,S7,SJ;C5,C8,CA,CK;C3,D5,SA,SQ;C6,D2,DA,DK;C9,CJ,H7,HK;CQ,H4,HA,HJ;H10,H2,H6,H9;H3,H5,H8,HQ"
1571916022,1,7,2,"C2,C9,CJ,CK;D2,D4,D9,DA;S2,S4,S9,SJ;D5,D6,D7,DQ;C3,C6,C7,C8;C4,C5,CA,CQ;D10,D3,S8,SK;S10,S5,S7,SA;D8,DK,S3,S6;H10,H8,HA,HQ;DJ,H9,HJ,HK;C10,H2,H5,H7;H3,H4,H6,SQ"
1571916022,1,21,2,"C2,CA,CK,DK;S4,S6,S9,SQ;D5,D7,D9,DJ;D10,D3,DA,DQ;C8,S5,SJ,SK;C10,C3,C4,D4;C6,C7,CQ,D2;C5,C9,S10,S7;CJ,S3,S8,SA;H10,H7,HA,HK;H5,H6,HJ,HQ;H2,H3,H4,H9;D6,D8,H8,S2"
1571916022,1,0,2,"C2,C5,CJ,CQ;D10,D6,D7,D8;D2,D5,D9,DA;D3,D4,DJ,DK;S5,S9,SA,SK;CK,S2,S3,S4;C10,C7,C8,CA;C6,DQ,SJ,SQ;C4,HQ,S6,S8;C3,H8,HJ,S10;H10,H3,H6,H9;C9,H4,H7,HA;H2,H5,HK,S7"
1571916022,1,1,2,"C2,C4,C5,C7;DK,S10,S5,SJ;D10,S4,S9,SA;D4,D6,D9,DJ;D8,S3,S6,S7;D3,D5,D7,DA;C8,CA,CK,CQ;H10,H4,HA,HQ;C10,C9,CJ,HJ;D2,DQ,H6,HK;H5,H7,S2,SK;H2,H3,S8,SQ;C3,C6,H8,H9"
1571916022,1,13,2,"C2,C6,C8,CQ;D10,D8,DK,DQ;D2,D5,D6,DJ;C7,D3,D4,DA;S3,S5,SA,SK;S10,S7,SJ,SQ;C10,C4,C5,CK;CJ,S2,S4,S8;C9,CA,D7,HK;H10,H9,HA,HQ;H4,H5,H6,HJ;C3,H3,H8,S9;D9,H2,H7,S6"
1571916022,1,0,2,"C10,C2,CK,S2;D10,D7,DJ,DQ;D3,D4,D8,D9;C4,D5,DA,DK;S10,S7,S9,SJ;D2,D6,SA,SK;C3,S3,S6,S8;CA,CJ,CQ,S4;C6,C7,C9,SQ;C5,C8,HA,HQ;H5,HJ,HK,S5;H4,H7,H8,H9;H10,H2,H3,H6"
1571916022,1,0,2,"C10,C2,C9,CA;D3,D5,D7,D9;D2,D4,D8,DK;C4,C7,C8,CQ;C6,CJ,CK,DJ;S8,SA,SK,SQ;C3,C5,D10,DQ;D6,DA,HA,SJ;HQ,S10,S4,S5;H10,H3,H4,HJ;H2,H6,H8,S9;H5,H7,S2,S6;H9,HK,S3,S7"
1571916022,1,13,2,"C2,C6,C8,CQ;D2,DA,DJ,DK;D3,D5,D7,D9;D6,D8,DQ,S9;S5,S7,S8,SJ;D4,S3,SK,SQ;C4,C5,C7,C9;H9,HA,HK,HQ;C3,CA,CK,HJ;H10,H3,H5,H8;C10,H4,H7,S2;H6,S10,S6,SA;CJ,D10,H2,S4"
1571916022,1,17,2,"C2,CA,CK,CQ;S7,S8,SK,SQ;C10,C5,C8,C9;D10,D6,DA,DJ;C3,C4,C6,CJ;D2,D7,D9,S5;D3,D4,D8,SA;D5,DQ,S6,S9;C7,DK,S10,S4;H10,H6,HA,HK;H3,H8,H9,HQ;H5,H7,HJ,SJ;H2,H4,S2,S3"
1571916022,1,8,2,"C10,C2,C9,CK;D10,D9,DA,DQ;S2,S4,SA,SQ;D5,D8,DJ,DK;S5,S7,S8,SJ;C6,CQ,D4,D6;C4,C5,D2,D3;C3,C8,CA,S9;H10,HA,HJ,HK;H6,H8,H9,HQ;C7,H3,H4,H7;CJ,H2,S6,SK;D7,H5,S10,S3"
1571916022,1,4,2,"C10,C2,CA,CQ;S5,S8,SA,SK;D10,D4,D8,DJ;D3,D9,DK,DQ;C4,C6,C9,CJ;C8,D6,D7,S6;C7,D2,DA,HQ;C5,CK,D5,HJ;H4,H7,H9,HA;H2,H5,H8,S9;C3,H3,HK,S7;H6,S3,S4,SQ;H10,S10,S2,SJ"
1571916022,1,0,2,"C2,C9,CJ,CK;C7,C8,CA,CQ;C3,C5,C6,S10;D5,D8,DJ,DK;D3,D7,D9,DA;S3,S7,S9,SQ;D2,S4,S5,S6;C4,S2,S8,SK;C10,H9,HA,HK;D10,H7,H8,HQ;DQ,H2,H6,HJ;H3,H5,SA,SJ;D4,D6,H10,H4"
1571916022,1,9,2,"C2,C7,C8,CK;D10,D8,DA,DK;D6,D7,DQ,S4;D2,D5,DJ,S9;CJ,D4,D9,SK;C10,CQ,D3,S10;S2,S7,SJ,SQ;S5,S6,S8,SA;C4,C9,CA,HK;C5,C6,HJ,S3;H6,H7,H8,HQ;H10,H3,H4,H9;C3,H2,H5,HA"
1571916022,1,7,2,"C2,C7,CJ,CQ;D10,D2,DJ,DQ;D4,D5,D7,D9;C10,C3,C8,C9;S10,S5,S7,SQ;CK,SA,SJ,SK;C6,CA,S3,S9;D6,D8,HK,S4;C4,H10,S6,S8;DK,H8,HQ,S2;D3,DA,H6,H7;H3,H4,H9,HA;C5,H2,H5,HJ"
1571916022,1,9,2,"C10,C2,CA,CK;C3,C4,C5,C6;C7,C8,CQ,DQ;S10,S5,S8,SQ;D4,D5,D7,D9;D10,D6,D8,DA;S2,S3,S6,S9;D3,DJ,DK,SK;C9,CJ,D2,SA;HA,HQ,S4,S7;H10,H6,HJ,SJ;H5,H7,H8,H9;H2,H3,H4,HK"
1571916022,1,19,2,"C10,C2,C3,C4;D6,D9,DK,DQ;D3,D7,D8,DJ;D10,D2,DA,SA;S3,SJ,SK,SQ;C5,C6,D4,S9;D5,S4,S5,S8;H5,HA,HJ,HK;CA,H10,H2,HQ;CQ,H8,H9,S2;C9,CK,H3,H7;CJ,H4,S10,S7;C7,C8,H6,S6"
1571916022,1,0,2,"C2,C7,C8,C9;D2,DA,DJ,DK;D4,D6,D8,D9;C5,C6,CA,CK;S7,S9,SK,SQ;S10,S2,S3,S4;D10,D3,D7,DQ;CJ,CQ,D5,SA;C10,C3,S5,S8;C4,HA,S6,SJ;H10,H9,HK,HQ;H2,H4,H5,H8;H3,H6,H7,HJ"
1571916022,1,0,2,"C2,C4,CK,CQ;C10,C3,C7,C8;S10,S2,S6,SQ;D10,D3,D9,DJ;D2,D5,D6,D7;C5,C6,CA,CJ;S4,S7,S8,SJ;C9,S5,S9,SK;D4,D8,DQ,S3;DK,H10,HA,SA;DA,H8,HJ,HK;H4,H5,H7,H9;H2,H3,H6,HQ"
1571916022,1,13,2,"C2,C3,C5,C6;C10,C4,C8,CJ;S2,S5,S6,SQ;D9,DA,DK,DQ;S10,S4,S7,S8;D3,D7,D8,S9;CQ,D2,D4,D6;C7,CK,S3,SA;CA,HQ,SJ,SK;C9,D10,H10,H8;H6,H9,HJ,HK;DJ,H4,H5,HA;D5,H2,H3,H7"
1571916022,1,26,2,"C2,C4,C6,CA;S2,S5,SA,SK;D6,DJ,DK,DQ;D2,D4,D7,D8;C7,C8,CJ,CK;C10,C9,CQ,DA;C3,C5,S7,S9;D3,D5,D9,SQ;HJ,S10,S3,SJ;H10,HA,S4,S6;D10,H4,H6,HK;H3,H7,H8,H9;H2,H5,HQ,S8"
1571916022,1,0,2,"C2,C3,CA,CK;D10,D6,D8,DQ;S3,S6,S8,SQ;D4,D5,D9,DJ;C6,D2,D7,DA;S10,S7,S9,SJ;C10,C4,C7,CJ;C5,S4,SA,SK;C9,CQ,DK,S2;C8,D3,H9,S5;H8,HA,HJ,HQ;H10,H3,H5,HK;H2,H4,H6,H7"
1571916022,1,4,2,"C2,CA,CJ,CK;S6,S8,SA,SK;C9,S10,S4,S7;D10,D3,D4,DK;D2,D9,DA,DQ;C6,S2,S3,SQ;C10,C4,D8,S9;C3,C8,D7,S5;C5,D6,DJ,SJ;H9,HA,HK,HQ;C7,CQ,D5,H6;H10,H3,H4,H7;H2,H5,H8,HJ"
1571916022,1,13,2,"C2,CA,CJ,CK;D6,D8,DA,DK;D4,D9,DJ,DQ;S5,S8,S9,SQ;C10,C3,C4,CQ;C5,C9,D10,S7;C7,C8,S10,SJ;D3,S3,S4,SK;C6,D5,S6,SA;D2,HA,HJ,S2;D7,H10,H9,HQ;H4,H5,H8,HK;H2,H3,H6,H7"
1571916022,1,7,2,"C10,C2,C3,CJ;D5,D8,DA,DJ;C9,D10,D2,DK;C5,CA,D7,D9;D6,DQ,S7,S8;S2,S9,SJ,SQ;C6,C7,CK,CQ;C8,S10,S5,S6;D4,HK,S3,S4;D3,HJ,SA,SK;H4,H7,H8,HQ;H2,H5,H6,H9;C4,H10,H3,HA"
1571916022,1,0,2,"C2,C4,C7,CA;D4,DA,DJ,DK;D3,D5,D6,D7;C5,C8,CJ,CK;C3,C9,CQ,S8;S3,S9,SJ,SQ;C6,D8,D9,DQ;C10,S10,S5,SA;D10,D2,S7,SK;H9,HA,S4,S6;H7,HJ,HQ,S2;H10,H2,H6,HK;H3,H4,H5,H8"
1571916022,1,13,2,"C2,C4,CA,CJ;D2,D9,DK,S8;D3,D6,DJ,SK;D10,D7,D8,SA;C6,S2,S9,SJ;CQ,D5,DA,DQ;C10,S10,S3,S7;C3,D4,S6,SQ;C8,C9,CK,HK;H10,HA,HJ,HQ;C5,C7,H4,H6;H3,H7,H8,S5;H2,H5,H9,S4"
1571916022,1,6,2,"C2,C3,C4,CK;D7,DA,DJ,DK;D10,D3,D6,D8;S2,SA,SK,SQ;S4,S5,S7,S9;D5,D9,S10,S3;C6,C9,CJ,DQ;C8,CA,CQ,HK;D2,HJ,S6,S8;H6,H8,HA,SJ;D4,H2,H5,H7;C7,H10,H3,H9;C10,C5,H4,HQ"
1571916022,1,26,2,"C2,C4,C5,CK;C10,C3,C9,CQ;DA,DJ,DK,DQ;D10,D4,D5,D6;CA,D2,D9,S2;C8,D3,D8,S10;D7,S6,S8,SJ;C6,C7,CJ,S7;S5,SA,SK,SQ;H7,HA,HJ,HK;H4,H8,H9,HQ;H10,H3,H5,H6;H2,S3,S4,S9"
1571916022,1,8,2,"C2,C7,CK,CQ;C10,C4,C6,C9;C3,C5,CA,DA;C8,DQ,SK,SQ;S4,S5,S9,SA;D2,D6,D8,D9;D3,D5,D7,DJ;H7,HA,HK,HQ;H10,H5,H8,HJ;D4,H3,H6,SJ;DK,H9,S2,S8;CJ,D10,H2,S7;H4,S10,S3,S6"
1571916022,1,26,2,"C2,C7,CQ,S4;C3,C5,CA,S5;D10,DJ,DK,DQ;C9,CJ,CK,D5;S8,SA,SJ,SK;S10,S2,S6,S9;C10,D6,D7,D8;D2,D3,D4,S3;C8,DA,H8,SQ;C6,D9,H7,HQ;H10,H3,H6,HJ;C4,H2,H4,HK;H5,H9,HA,S7"
1571916022,1,3,2,"C2,C4,C8,CJ;D2,D7,DA,DQ;C10,C3,C9,CQ;D10,D3,D5,DJ;S10,S2,S7,SK;D4,D9,DK,SJ;C5,C7,CK,SQ;D8,S6,S8,SA;CA,HK,S3,S5;C6,HJ,HQ,S9;H2,H5,H7,H8;D6,H10,H6,H9;H3,H4,HA,S4"
1571916022,1,0,2,"C2,C3,CA,CQ;D5,DJ,DK,DQ;D3,D6,D7,D8;D4,D9,DA,SK;S3,S6,SJ,SQ;S10,S5,S8,S9;CJ,CK,S2,S7;C4,C5,C7,SA;C10,C6,C8,D2;C9,HJ,HK,S4;D10,H10,H7,HA;H4,H5,H6,H9;H2,H3,H8,HQ"
1571916022,1,0,2,"C2,C4,C9,CK;D5,D9,DK,DQ;S3,SA,SK,SQ;C6,D3,D8,DJ;C7,D10,D2,D7;C3,C5,C8,CQ;S2,S4,S6,S9;D6,DA,S10,S7;CA,CJ,D4,SJ;C10,HA,S5,S8;H10,H8,HJ,HK;H5,H6,H7,HQ;H2,H3,H4,H9"
1571916022,1,4,2,"C2,C4,C9,CA;D10,D4,D5,D6;D2,D3,D7,D9;C3,CJ,CK,CQ;S2,S3,S4,SQ;C6,C7,C8,DJ;D8,DK,S10,SK;C5,DQ,S8,SA;C10,S5,S6,S7;DA,HA,HK,SJ;H8,HJ,HQ,S9;H4,H5,H7,H9;H10,H2,H3,H6"
1571916022,1,4,2,"C2,C6,CK,D2;D10,D3,D9,DJ;D7,D8,DA,SK;S2,S3,SJ,SQ;D5,S4,S5,S8;CA,D4,D6,DQ;CQ,DK,S10,S6;C8,CJ,S9,SA;C10,C4,C9,S7;C3,C5,C7,HA;H8,H9,HK,HQ;H10,H6,H7,HJ;H2,H3,H4,H5"
1571916022,1,0,2,"C10,C2,C6,CQ;C3,C5,C8,CK;D10,D4,DK,DQ;D6,D7,D8,D9;D3,D5,DJ,S6;S2,S9,SJ,SQ;S10,S7,S8,SA;CJ,D2,S3,S5;C4,C7,CA,HQ;DA,H10,S4,SK;H6,H8,H9,HA;C9,H5,H7,HJ;H2,H3,H4,HK"
1571916022,1,26,2,"C2,C8,CJ,CQ;D8,DA,DJ,DQ;D3,D7,D9,DK;D10,D4,D6,SQ;C10,C4,CK,D5;C5,C7,D2,SA;S10,S8,S9,SK;C3,C6,C9,S5;CA,S3,S4,S7;HK,S2,S6,SJ;H10,H5,HA,HQ;H4,H6,H8,H9;H2,H3,H7,HJ"
1571916022,1,0,2,"C2,C3,CA,CJ;D4,D7,D8,DQ;D5,D6,DA,DK;S4,SJ,SK,SQ;C4,C6,C8,DJ;C10,CK,D2,D3;C5,C9,CQ,S7;S10,S3,S5,S8;D10,HK,S2,S9;D9,HQ,S6,SA;H10,H2,HA,HJ;C7,H5,H6,H8;H3,H4,H7,H9"
1571916022,1,0,2,"C10,C2,C3,C9;D10,D4,DA,S10;D3,D9,DK,S9;C6,D7,D8,DQ;S6,S8,SJ,SK;S4,S5,S7,SQ;C5,C8,CK,CQ;CA,CJ,S2,S3;C4,D2,D5,SA;HA,HJ,HK,HQ;C7,D6,DJ,H9;H10,H2,H7,H8;H3,H4,H5,H6"
1571916022,1,0,2,"C2,CA,CJ,CQ;D5,D7,DJ,DK;D4,D8,D9,DQ;C5,C6,C9,CK;S10,S9,SA,SK;C10,C7,S7,SJ;S2,S3,S5,S8;D10,D2,D6,DA;C8,D3,S4,SQ;C3,C4,HK,S6;H10,H8,HA,HJ;H4,H5,H6,HQ;H2,H3,H7,H9"
1571916022,1,4,2,"C2,C4,C5,C9;S2,S4,SK,SQ;D6,DA,DJ,DQ;D10,D8,DK,S5;CQ,D2,D3,D5;C10,CA,CJ,CK;C8,D4,D7,S10;D9,HQ,S9,SA;H7,S3,S6,S7;H6,H8,HJ,HK;H10,H5,HA,S8;C3,C6,H3,H4;C7,H2,H9,SJ"
1571916022,1,1,2,"C10,C2,CA,CQ;D3,D6,D8,DJ;D10,D2,D7,DQ;C3,C4,C5,CK;C8,C9,SK,SQ;S3,S5,S6,SJ;S2,S4,S7,S8;CJ,D9,DA,HK;D5,DK,H10,S9;H8,H9,HJ,HQ;C6,H2,H5,H7;C7,H4,H6,S10;D4,H3,HA,SA"
1571916022,1,0,2,"C2,C4,C7,CA;D9,DJ,DK,DQ;S10,SJ,SK,SQ;D10,D2,D6,D8;CK,D3,D5,DA;S3,S5,S6,S8;C10,D4,D7,S9;C3,C9,CJ,S4;C8,CQ,S2,S7;C5,C6,HJ,SA;H7,H8,HA,HK;H3,H6,H9,HQ;H10,H2,H4,H5"
1571916022,1,13,2,"C10,C2,C6,CQ;D8,DA,DQ,SQ;D4,DK,S8,SA;CA,CK,D5,DJ;D10,D9,S7,S9;C4,D3,D6,S4;C8,C9,CJ,S6;HA,S10,S3,SJ;C7,D7,HK,SK;H4,H5,H6,H7;C3,H10,H3,HQ;D2,H9,HJ,S5;C5,H2,H8,S2"
1571916022,1,5,2,"C2,C3,C5,CK;D3,D9,DA,DJ;CA,D8,DK,DQ;CQ,D10,D6,S4;D5,D7,S2,SJ;C8,D2,D4,S7;C10,C7,C9,CJ;S10,S5,S6,SA;C4,C6,S9,SQ;HQ,S3,S8,SK;H6,H9,HA,HK;H10,H4,H7,HJ;H2,H3,H5,H8"
1571916022,1,0,2,"C10,C2,C5,C7;C4,C8,CA,S10;D3,D4,D5,D6;CJ,CQ,D8,D9;C3,C9,SJ,SQ;C6,CK,D2,DJ;D7,DQ,S6,S7;S3,S5,S8,SK;DA,DK,S4,SA;HA,HK,S2,S9;D10,H9,HJ,HQ;H4,H5,H7,H8;H10,H2,H3,H6"
1571916022,1,1,2,"C2,C7,C8,CJ;C4,C5,CQ,DA;S4,S7,S8,SQ;C9,D9,DJ,DQ;C10,CA,D8,S6;D3,D5,D7,SA;D10,D4,D6,S9;C3,D2,HA,S2;HK,S10,SJ,SK;H2,H4,H5,HJ;C6,H10,H3,H7;CK,H6,H9,HQ;DK,H8,S3,S5"
1571916022,1,3,2,"C10,C2,C7,C9;D10,D3,D5,DQ;D4,D7,D9,DJ;S2,S3,S6,SK;C6,C8,CA,CQ;D2,S10,S8,SA;DA,S9,SJ,SQ;C3,C4,CK,D8;CJ,HK,S4,S7;D6,HA,HQ,S5;H3,H4,H7,HJ;DK,H2,H5,H8;C5,H10,H6,H9"
1571916022,1,13,2,"C2,C3,C4,CK;D8,D9,DK,DQ;D10,D2,D6,D7;D3,D4,D5,DJ;C5,C9,CA,CJ;C10,DA,S4,S8;S10,S6,SK,SQ;S5,S9,SA,SJ;C6,C7,C8,CQ;H10,HA,S2,S7;H9,HJ,HK,S3;H2,H3,H4,H7;H5,H6,H8,HQ"
1571916022,1,13,2,"C2,C6,CA,CK;C10,C5,C8,D10;D3,D5,D6,D8;D4,D7,DK,DQ;C7,D2,D9,DJ;S10,S4,SJ,SQ;C3,C4,C9,S6;CJ,CQ,S5,S8;S3,S7,S9,SK;H7,H9,HA,HJ;H5,H6,H8,HK;H10,H2,H3,H4;DA,HQ,S2,SA"
1571916022,1,5,2,"C10,C2,C4,DK;D10,D4,D5,D6;C3,D2,D8,D9;D7,DJ,DQ,S2;S3,S5,SK,SQ;C8,D3,DA,S9;C5,C7,C9,S10;CA,CK,S7,S8;CQ,S6,SA,SJ;C6,CJ,HK,S4;H8,H9,HA,HQ;H10,H5,H6,HJ;H2,H3,H4,H7"
1571916022,1,0,2,"C2,CJ,CK,CQ;D10,D8,D9,DK;S10,S9,SJ,SK;C10,C3,C9,CA;D4,D5,D7,S5;D3,DA,DQ,S8;C4,D2,D6,S3;C5,C8,DJ,S6;H4,HA,HJ,HK;H10,H3,H5,HQ;H2,H6,H8,SQ;C6,C7,H7,S4;H9,S2,S7,SA"
1571916022,1,3,2,"C2,C9,CK,CQ;D5,DA,DJ,DK;C10,C4,C5,CJ;S2,S7,SA,SJ;D10,D4,D7,D8;D6,D9,DQ,S3;S10,S6,S8,SQ;C6,C7,S5,SK;D3,HA,S4,S9;C3,C8,D2,HJ;H10,H7,H9,HQ;H2,H3,H5,H8;CA,H4,H6,HK"
1571916022,1,0,2,"C2,C3,C4,C5;D10,D5,DA,DJ;D3,D6,D8,D9;C10,C6,CJ,CQ;D2,DK,SA,SQ;D7,DQ,S8,SK;C8,CK,S10,S3;C9,CA,S7,S9;C7,H9,S6,SJ;D4,H7,HA,S4;H10,H5,HJ,HQ;H3,H4,H8,HK;H2,H6,S2,S5"
1571916022,1,13,2,"C2,C9,CA,CJ;C3,C4,C8,CQ;D10,D2,D4,D8;S10,S7,S8,SQ;D7,D9,DK,DQ;C10,C7,D5,SA;S2,S3,S6,S9;C5,CK,D3,DA;S4,S5,SJ,SK;C6,DJ,HK,HQ;D6,H10,H5,HA;H4,H7,H8,HJ;H2,H3,H6,H9"
1571916022,1,9,2,"C2,C7,C8,C9;D10,D4,D6,D9;D2,D3,D5,DA;S3,S5,SK,SQ;C5,C6,CK,S8;C3,CJ,CQ,S4;C10,D8,DJ,DK;DQ,S7,S9,SA;D7,HQ,S10,S6;H9,HA,S2,SJ;H10,H5,H7,HK;H2,H4,H8,HJ;C4,CA,H3,H6"
1571916022,1,24,2,"C2,C6,C7,C8;D6,S8,SK,SQ;C4,CJ,CQ,SA;D5,D7,DA,DQ;DK,S6,S7,S9;D10,D3,D9,S2;C5,D8,DJ,S10;CA,H9,S3,SJ;D4,H8,HA,S5;C10,C9,H3,H5;H2,H7,HJ,HQ;D2,H10,H4,S4;C3,CK,H6,HK"
1571916022,1,6,2,"C10,C2,C8,CJ;S3,S6,S7,SQ;D7,DA,DK,DQ;D10,D2,D5,DJ;D8,D9,SJ,SK;C4,C5,D3,D6;D4,S5,S8,S9;C9,CK,CQ,S2;C3,C7,CA,HA;C6,HK,HQ,S4;H7,H9,HJ,S10;H3,H4,H5,H6;H10,H2,H8,SA"
1571916022,1,3,2,"C2,C3,C4,C7;D10,D8,DA,DJ;CA,D7,D9,DK;S3,S5,SA,SQ;C10,C9,CK,S9;C8,CJ,CQ,D2;C6,D5,D6,DQ;D3,S10,S6,S7;HK,S2,S4,SK;C5,D4,HQ,SJ;H4,H7,H9,HA;H10,H6,H8,HJ;H2,H3,H5,S8"
1571916022,1,13,2,"C2,C8,C9,CK;D10,D5,DJ,DQ;S10,SA,SJ,SK;S2,S3,S4,S9;D3,D7,D8,D9;D6,DK,S7,S8;C5,D2,D4,SQ;C6,C7,CJ,DA;C3,C4,CA,HJ;H6,H8,HA,HK;H10,H5,H7,H9;C10,H2,H3,S6;CQ,H4,HQ,S5"
1571916022,1,6,2,"C2,C4,C5,C8;D8,D9,DJ,DK;D10,D4,D5,D7;C10,C3,C9,CA;C6,CJ,CK,S4;CQ,D2,S5,S8;C7,S10,S3,SQ;HQ,S2,S9,SK;D3,HJ,SA,SJ;H10,H5,H7,H9;DA,DQ,H3,H4;H2,H6,HA,S7;D6,H8,HK,S6"
1571916022,1,2,2,"C2,C4,CK,CQ;D3,DJ,DK,DQ;D6,D7,D8,D9;CA,D10,D5,DA;S10,S3,S4,SJ;C10,C3,C7,D4;S2,S5,S7,S8;D2,S6,S9,SQ;C5,C6,CJ,HQ;C8,C9,HJ,SK;H4,H6,H7,H9;H3,H5,H8,HA;H10,H2,HK,SA"
1571916022,1,26,2,"C10,C2,C6,C9;S3,S8,SJ,SK;S4,S5,S7,SA;D2,D7,DJ,DK;D5,D6,D8,D9;CJ,D3,D4,DA;C7,D10,DQ,S9;C4,CK,S2,S6;C3,C8,CA,HA;CQ,H7,S10,SQ;H10,H4,HK,HQ;H3,H8,H9,HJ;C5,H2,H5,H6"
1571916022,1,8,2,"C10,C2,C8,CA;D5,D6,D7,DJ;D2,DA,DK,DQ;S2,S5,S7,SK;S10,S4,S8,S9;S6,SA,SJ,SQ;C3,C5,C7,S3;C6,CQ,D10,HK;D3,D4,D8,HQ;H10,H2,H4,H9;C9,H8,HA,HJ;C4,CK,H5,H6;CJ,D9,H3,H7"
1571916022,1,26,2,"C2,C4,CJ,CK;D10,DA,DK,DQ;D2,D5,D7,D8;S2,S3,S8,SQ;D4,D6,D9,SA;S10,S9,SJ,SK;C10,C5,CA,S7;C6,C9,CQ,S6;C7,C8,DJ,S4;D3,H10,HA,HK;C3,H8,HJ,HQ;H2,H3,H4,H5;H6,H7,H9,S5"
1571916022,1,0,2,"C2,C6,CJ,CK;D2,D5,DJ,DK;C5,CA,CQ,S3;D10,D3,D6,S5;D9,DA,DQ,S4;S6,S8,SA,SK;D4,D8,S7,S9;C10,C3,D7,SJ;C4,C9,HK,S2;C7,HQ,S10,SQ;H2,H7,HA,HJ;H3,H5,H6,H8;C8,H10,H4,H9"
1571916022,1,0,2,"C2,C8,C9,CJ;D10,D4,D7,DQ;DA,DJ,DK,S7;C10,C5,C7,CK;S10,S5,S6,SQ;D2,S4,S8,SJ;D5,S2,S3,S9;D8,D9,SA,SK;C3,C4,C6,HQ;D3,D6,HA,HJ;CQ,H4,H6,HK;CA,H10,H5,H9;H2,H3,H7,H8"
1571916022,1,0,2,"C10,C2,C3,C5;D10,D2,D7,D8;D6,DK,DQ,SK;S10,S3,S9,SQ;D4,D9,DA,S4;C8,C9,CQ,SA;C7,CJ,CK,HA;HJ,S2,S7,S8;H10,H3,H6,HQ;D5,H8,H9,HK;DJ,H4,H7,SJ;C6,D3,H5,S6;C4,CA,H2,S5"
1571916022,1,13,2,"C2,C5,C6,DK;S3,S6,S8,SA;D3,D7,D9,DJ;D10,D4,D6,DQ;D2,S4,SK,SQ;C10,CA,CQ,D8;C7,C9,CJ,SJ;D5,S10,S2,S9;C3,C4,HA,S7;C8,CK,HK,S5;H8,H9,HJ,HQ;H10,H3,H4,H5;DA,H2,H6,H7"
1571916022,1,7,2,"C10,C2,C6,CK;D10,D3,D8,DJ;D5,D6,D7,D9;C8,CA,CJ,S3;S10,S5,SA,SQ;C9,D2,DQ,S6;C3,C5,CQ,DK;S2,S4,S9,SK;C4,D4,DA,S8;H2,HA,HJ,HK;C7,H10,H9,HQ;H4,H6,H7,SJ;H3,H5,H8,S7"
1571916022,1,4,2,"C2,C9,CA,D10;D2,D9,DA,DJ;C8,CJ,CQ,D3;C10,C6,C7,S6;S5,S8,SJ,SQ;D4,D6,D8,DK;S2,S3,S9,SK;D7,DQ,S7,SA;C3,C4,CK,HQ;C5,D5,H10,S4;H8,H9,HK,S10;H2,H4,H5,H6;H3,H7,HA,HJ"
